<?xml version="1.0" encoding="UTF-8" standalone="no"?>
<!-- Created with Inkscape (http://www.inkscape.org/) -->
<svg
   xmlns:dc="http://purl.org/dc/elements/1.1/"
   xmlns:cc="http://creativecommons.org/ns#"
   xmlns:rdf="http://www.w3.org/1999/02/22-rdf-syntax-ns#"
   xmlns:svg="http://www.w3.org/2000/svg"
   xmlns="http://www.w3.org/2000/svg"
   xmlns:xlink="http://www.w3.org/1999/xlink"
   xmlns:sodipodi="http://sodipodi.sourceforge.net/DTD/sodipodi-0.dtd"
   xmlns:inkscape="http://www.inkscape.org/namespaces/inkscape"
   width="318.05392"
   height="132.21201"
   id="svg2"
   sodipodi:version="0.32"
   inkscape:version="0.46"
   sodipodi:docbase="/home/pelletib/doc/web/Jasmine"
   sodipodi:docname="cmi_cluster.svg"
   version="1.0"
   inkscape:export-filename="/home/pelletib/doc/web/Jasmine/java_ee_cluster.png"
   inkscape:export-xdpi="83.46463"
   inkscape:export-ydpi="83.46463"
   inkscape:output_extension="org.inkscape.output.svg.inkscape">
  <defs
     id="defs4">
    <inkscape:perspective
       sodipodi:type="inkscape:persp3d"
       inkscape:vp_x="0 : 66.106003 : 1"
       inkscape:vp_y="0 : 1000 : 0"
       inkscape:vp_z="318.05392 : 66.106003 : 1"
       inkscape:persp3d-origin="159.02696 : 44.070669 : 1"
       id="perspective7685" />
    <marker
       inkscape:stockid="Dot_l"
       orient="auto"
       refY="0"
       refX="0"
       id="Dot_l"
       style="overflow:visible">
      <path
         id="path23091"
         d="M -2.5,-1 C -2.5,1.76 -4.74,4 -7.5,4 C -10.26,4 -12.5,1.76 -12.5,-1 C -12.5,-3.76 -10.26,-6 -7.5,-6 C -4.74,-6 -2.5,-3.76 -2.5,-1 z "
         style="fill-rule:evenodd;stroke:black;stroke-width:1pt;marker-start:none;marker-end:none"
         transform="matrix(0.8,0,0,0.8,5.92,0.8)" />
    </marker>
    <marker
       inkscape:stockid="Dot_m"
       orient="auto"
       refY="0"
       refX="0"
       id="Dot_m"
       style="overflow:visible">
      <path
         id="path23088"
         d="M -2.5,-1 C -2.5,1.76 -4.74,4 -7.5,4 C -10.26,4 -12.5,1.76 -12.5,-1 C -12.5,-3.76 -10.26,-6 -7.5,-6 C -4.74,-6 -2.5,-3.76 -2.5,-1 z "
         style="fill-rule:evenodd;stroke:black;stroke-width:1pt;marker-start:none;marker-end:none"
         transform="matrix(0.4,0,0,0.4,2.96,0.4)" />
    </marker>
    <linearGradient
       inkscape:collect="always"
       id="linearGradient43041">
      <stop
         style="stop-color:#bed0e6;stop-opacity:1;"
         offset="0"
         id="stop43043" />
      <stop
         style="stop-color:#bed0e6;stop-opacity:0;"
         offset="1"
         id="stop43045" />
    </linearGradient>
    <marker
       inkscape:stockid="TriangleOutM"
       orient="auto"
       refY="0"
       refX="0"
       id="TriangleOutM"
       style="overflow:visible">
      <path
         id="path23052"
         d="M 5.77,0 L -2.88,5 L -2.88,-5 L 5.77,0 z "
         style="fill-rule:evenodd;stroke:black;stroke-width:1pt;marker-start:none"
         transform="scale(0.4,0.4)" />
    </marker>
    <marker
       inkscape:stockid="TriangleInM"
       orient="auto"
       refY="0"
       refX="0"
       id="TriangleInM"
       style="overflow:visible">
      <path
         id="path23061"
         d="M 5.77,0 L -2.88,5 L -2.88,-5 L 5.77,0 z "
         style="fill-rule:evenodd;stroke:black;stroke-width:1pt;marker-start:none"
         transform="scale(-0.4,-0.4)" />
    </marker>
    <linearGradient
       id="linearGradient22087">
      <stop
         style="stop-color:#3b6497;stop-opacity:1;"
         offset="0"
         id="stop22089" />
      <stop
         style="stop-color:white;stop-opacity:1;"
         offset="1"
         id="stop22091" />
    </linearGradient>
    <linearGradient
       id="linearGradient18535">
      <stop
         style="stop-color:#384d65;stop-opacity:1;"
         offset="0"
         id="stop18537" />
      <stop
         style="stop-color:white;stop-opacity:1;"
         offset="1"
         id="stop18539" />
    </linearGradient>
    <linearGradient
       id="linearGradient13940">
      <stop
         id="stop13942"
         offset="0"
         style="stop-color:#ebf552;stop-opacity:1;" />
      <stop
         id="stop13944"
         offset="1"
         style="stop-color:#c7deeb;stop-opacity:0;" />
    </linearGradient>
    <marker
       inkscape:stockid="TriangleOutS"
       orient="auto"
       refY="0"
       refX="0"
       id="TriangleOutS"
       style="overflow:visible">
      <path
         id="path8014"
         d="M 5.77,0 L -2.88,5 L -2.88,-5 L 5.77,0 z "
         style="fill-rule:evenodd;stroke:black;stroke-width:1pt;marker-start:none"
         transform="scale(0.2,0.2)" />
    </marker>
    <marker
       inkscape:stockid="TriangleInS"
       orient="auto"
       refY="0"
       refX="0"
       id="TriangleInS"
       style="overflow:visible">
      <path
         id="path8023"
         d="M 5.77,0 L -2.88,5 L -2.88,-5 L 5.77,0 z "
         style="fill-rule:evenodd;stroke:black;stroke-width:1pt;marker-start:none"
         transform="scale(-0.2,-0.2)" />
    </marker>
    <marker
       inkscape:stockid="Dot_s"
       orient="auto"
       refY="0"
       refX="0"
       id="Dot_s"
       style="overflow:visible">
      <path
         id="path8050"
         d="M -2.5,-1 C -2.5,1.76 -4.74,4 -7.5,4 C -10.26,4 -12.5,1.76 -12.5,-1 C -12.5,-3.76 -10.26,-6 -7.5,-6 C -4.74,-6 -2.5,-3.76 -2.5,-1 z "
         style="fill-rule:evenodd;stroke:black;stroke-width:1pt;marker-start:none;marker-end:none"
         transform="matrix(0.2,0,0,0.2,1.48,0.2)" />
    </marker>
    <marker
       inkscape:stockid="Arrow1Sstart"
       orient="auto"
       refY="0"
       refX="0"
       id="Arrow1Sstart"
       style="overflow:visible">
      <path
         id="path8106"
         d="M 0,0 L 5,-5 L -12.5,0 L 5,5 L 0,0 z "
         style="fill-rule:evenodd;stroke:black;stroke-width:1pt;marker-start:none"
         transform="matrix(0.2,0,0,0.2,1.2,0)" />
    </marker>
    <marker
       inkscape:stockid="Arrow1Lstart"
       orient="auto"
       refY="0"
       refX="0"
       id="Arrow1Lstart"
       style="overflow:visible">
      <path
         id="path8118"
         d="M 0,0 L 5,-5 L -12.5,0 L 5,5 L 0,0 z "
         style="fill-rule:evenodd;stroke:black;stroke-width:1pt;marker-start:none"
         transform="matrix(0.8,0,0,0.8,10,0)" />
    </marker>
    <linearGradient
       id="linearGradient3872">
      <stop
         id="stop3874"
         offset="0"
         style="stop-color:white;stop-opacity:1;" />
      <stop
         id="stop3876"
         offset="1"
         style="stop-color:#ded1a1;stop-opacity:1;" />
    </linearGradient>
    <linearGradient
       id="linearGradient3147">
      <stop
         style="stop-color:#fffe6e;stop-opacity:1;"
         offset="0"
         id="stop3149" />
      <stop
         id="stop59107"
         offset="0.79487181"
         style="stop-color:#fffeb6;stop-opacity:0.49803922;" />
      <stop
         style="stop-color:white;stop-opacity:0;"
         offset="1"
         id="stop3151" />
    </linearGradient>
    <linearGradient
       inkscape:collect="always"
       id="linearGradient2977">
      <stop
         style="stop-color:#3073bd;stop-opacity:1;"
         offset="0"
         id="stop2979" />
      <stop
         style="stop-color:#3073bd;stop-opacity:0;"
         offset="1"
         id="stop2981" />
    </linearGradient>
    <linearGradient
       id="linearGradient3926">
      <stop
         style="stop-color:#dfedf4;stop-opacity:1;"
         offset="0"
         id="stop3928" />
      <stop
         style="stop-color:#dfedf4;stop-opacity:0.56;"
         offset="1"
         id="stop3930" />
    </linearGradient>
    <linearGradient
       id="linearGradient5574"
       inkscape:collect="always">
      <stop
         id="stop5576"
         offset="0"
         style="stop-color:#368ebc;stop-opacity:1;" />
      <stop
         id="stop5578"
         offset="1"
         style="stop-color:#368ebc;stop-opacity:0;" />
    </linearGradient>
    <linearGradient
       id="linearGradient6256">
      <stop
         style="stop-color:#30a3bd;stop-opacity:1;"
         offset="0"
         id="stop6258" />
      <stop
         style="stop-color:#3073bd;stop-opacity:0;"
         offset="1"
         id="stop6260" />
    </linearGradient>
    <linearGradient
       inkscape:collect="always"
       id="linearGradient5078">
      <stop
         style="stop-color:#72b1d5;stop-opacity:1;"
         offset="0"
         id="stop5080" />
      <stop
         style="stop-color:#72b1d5;stop-opacity:0;"
         offset="1"
         id="stop5082" />
    </linearGradient>
    <linearGradient
       inkscape:collect="always"
       id="linearGradient5070">
      <stop
         style="stop-color:#72b1d5;stop-opacity:1;"
         offset="0"
         id="stop5072" />
      <stop
         style="stop-color:#72b1d5;stop-opacity:1"
         offset="1"
         id="stop5074" />
    </linearGradient>
    <linearGradient
       inkscape:collect="always"
       id="linearGradient5045">
      <stop
         style="stop-color:#3073bd;stop-opacity:1;"
         offset="0"
         id="stop5047" />
      <stop
         style="stop-color:#3073bd;stop-opacity:0;"
         offset="1"
         id="stop5049" />
    </linearGradient>
    <linearGradient
       id="linearGradient4997">
      <stop
         style="stop-color:#3073bd;stop-opacity:1;"
         offset="0"
         id="stop4999" />
      <stop
         style="stop-color:white;stop-opacity:1;"
         offset="1"
         id="stop5001" />
    </linearGradient>
    <linearGradient
       id="linearGradient4989">
      <stop
         style="stop-color:#68f552;stop-opacity:1;"
         offset="0"
         id="stop4991" />
      <stop
         style="stop-color:#c7deeb;stop-opacity:0;"
         offset="1"
         id="stop4993" />
    </linearGradient>
    <linearGradient
       id="linearGradient4968">
      <stop
         style="stop-color:#3073bd;stop-opacity:1;"
         offset="0"
         id="stop4970" />
      <stop
         style="stop-color:#368ebc;stop-opacity:0;"
         offset="1"
         id="stop4972" />
    </linearGradient>
    <marker
       inkscape:stockid="Arrow2Send"
       orient="auto"
       refY="0"
       refX="0"
       id="Arrow2Send"
       style="overflow:visible">
      <path
         id="path4753"
         style="font-size:12px;fill-rule:evenodd;stroke-width:0.625;stroke-linejoin:round"
         d="M 8.7185878,4.0337352 L -2.2072895,0.016013256 L 8.7185884,-4.0017078 C 6.97309,-1.6296469 6.9831476,1.6157441 8.7185878,4.0337352 z "
         transform="matrix(-0.3,0,0,-0.3,0.69,0)" />
    </marker>
    <marker
       inkscape:stockid="Arrow2Mend"
       orient="auto"
       refY="0"
       refX="0"
       id="Arrow2Mend"
       style="overflow:visible">
      <path
         id="path4759"
         style="font-size:12px;fill-rule:evenodd;stroke-width:0.625;stroke-linejoin:round"
         d="M 8.7185878,4.0337352 L -2.2072895,0.016013256 L 8.7185884,-4.0017078 C 6.97309,-1.6296469 6.9831476,1.6157441 8.7185878,4.0337352 z "
         transform="scale(-0.6,-0.6)" />
    </marker>
    <marker
       inkscape:stockid="Arrow1Lend"
       orient="auto"
       refY="0"
       refX="0"
       id="Arrow1Lend"
       style="overflow:visible">
      <path
         id="path4783"
         d="M 0,0 L 5,-5 L -12.5,0 L 5,5 L 0,0 z "
         style="fill-rule:evenodd;stroke:black;stroke-width:1pt;marker-start:none"
         transform="matrix(-0.8,0,0,-0.8,-10,0)" />
    </marker>
    <linearGradient
       id="linearGradient3106">
      <stop
         id="stop3108"
         offset="0"
         style="stop-color:#70e400;stop-opacity:1" />
      <stop
         id="stop3110"
         offset="1"
         style="stop-color:#077926;stop-opacity:1" />
    </linearGradient>
    <linearGradient
       id="linearGradient2770">
      <stop
         style="stop-color:#077926;stop-opacity:1;"
         offset="0"
         id="stop2772" />
      <stop
         style="stop-color:#27a34d;stop-opacity:0"
         offset="1"
         id="stop2774" />
    </linearGradient>
    <linearGradient
       inkscape:collect="always"
       xlink:href="#linearGradient2770"
       id="linearGradient2776"
       x1="71.428574"
       y1="419.505"
       x2="70.326073"
       y2="79.505005"
       gradientUnits="userSpaceOnUse"
       gradientTransform="matrix(0.197287,0,0,0.220765,77.67754,219.8352)" />
    <linearGradient
       inkscape:collect="always"
       xlink:href="#linearGradient2770"
       id="linearGradient2793"
       x1="70.326073"
       y1="419.505"
       x2="512.53113"
       y2="419.505"
       gradientUnits="userSpaceOnUse"
       gradientTransform="matrix(0.197287,0,0,0.220765,77.67754,219.8352)" />
    <linearGradient
       inkscape:collect="always"
       xlink:href="#linearGradient2770"
       id="linearGradient2824"
       gradientUnits="userSpaceOnUse"
       gradientTransform="matrix(0.197287,0,0,0.220765,77.67754,219.8352)"
       x1="71.428574"
       y1="419.505"
       x2="70.326073"
       y2="79.505005" />
    <linearGradient
       inkscape:collect="always"
       xlink:href="#linearGradient2770"
       id="linearGradient2826"
       gradientUnits="userSpaceOnUse"
       gradientTransform="matrix(0.197287,0,0,0.220765,77.67754,219.8352)"
       x1="70.326073"
       y1="419.505"
       x2="512.53113"
       y2="419.505" />
    <linearGradient
       inkscape:collect="always"
       xlink:href="#linearGradient2770"
       id="linearGradient2840"
       gradientUnits="userSpaceOnUse"
       gradientTransform="matrix(0.197287,0,0,0.220765,77.67754,219.8352)"
       x1="71.428574"
       y1="419.505"
       x2="70.326073"
       y2="79.505005" />
    <linearGradient
       inkscape:collect="always"
       xlink:href="#linearGradient2770"
       id="linearGradient2842"
       gradientUnits="userSpaceOnUse"
       gradientTransform="matrix(0.197287,0,0,0.220765,77.67754,219.8352)"
       x1="70.326073"
       y1="419.505"
       x2="512.53113"
       y2="419.505" />
    <linearGradient
       inkscape:collect="always"
       xlink:href="#linearGradient2770"
       id="linearGradient2844"
       gradientUnits="userSpaceOnUse"
       gradientTransform="matrix(0.197287,0,0,0.220765,77.67754,219.8352)"
       x1="71.428574"
       y1="419.505"
       x2="70.326073"
       y2="79.505005" />
    <linearGradient
       inkscape:collect="always"
       xlink:href="#linearGradient2770"
       id="linearGradient2846"
       gradientUnits="userSpaceOnUse"
       gradientTransform="matrix(0.197287,0,0,0.220765,77.67754,219.8352)"
       x1="70.326073"
       y1="419.505"
       x2="512.53113"
       y2="419.505" />
    <linearGradient
       inkscape:collect="always"
       xlink:href="#linearGradient4968"
       id="linearGradient4974"
       x1="252.04944"
       y1="66.391586"
       x2="252.04944"
       y2="31.391586"
       gradientUnits="userSpaceOnUse"
       gradientTransform="matrix(1.03377,0,0,1,-8.807587,27.27412)" />
    <linearGradient
       inkscape:collect="always"
       xlink:href="#linearGradient4997"
       id="linearGradient5003"
       x1="82.657295"
       y1="251.8197"
       x2="82.657295"
       y2="213.24828"
       gradientUnits="userSpaceOnUse" />
    <linearGradient
       inkscape:collect="always"
       xlink:href="#linearGradient5070"
       id="linearGradient5076"
       x1="77.244392"
       y1="295.93964"
       x2="77.244392"
       y2="210.93964"
       gradientUnits="userSpaceOnUse"
       gradientTransform="matrix(1.170559,0,0,0.615297,677.1109,161.651)" />
    <linearGradient
       inkscape:collect="always"
       xlink:href="#linearGradient5078"
       id="linearGradient5084"
       x1="75.224083"
       y1="153.97729"
       x2="75.224083"
       y2="98.977295"
       gradientUnits="userSpaceOnUse"
       gradientTransform="matrix(1.162813,0,0,1.522321,678.0382,-120.5751)" />
    <linearGradient
       inkscape:collect="always"
       xlink:href="#linearGradient5070"
       id="linearGradient5657"
       gradientUnits="userSpaceOnUse"
       gradientTransform="matrix(0.947839,0,0,1.041165,272.7298,-7.384154)"
       x1="77.244392"
       y1="295.93964"
       x2="77.244392"
       y2="210.93964" />
    <linearGradient
       inkscape:collect="always"
       xlink:href="#linearGradient5045"
       id="linearGradient5659"
       gradientUnits="userSpaceOnUse"
       gradientTransform="matrix(0.624988,0,0,0.624988,411.6876,180.4477)"
       x1="162.24593"
       y1="266.65515"
       x2="162.24593"
       y2="216.65515" />
    <linearGradient
       inkscape:collect="always"
       xlink:href="#linearGradient5045"
       id="linearGradient5661"
       gradientUnits="userSpaceOnUse"
       gradientTransform="matrix(0.662489,0,0,0.662489,266.4481,169.3764)"
       x1="162.24593"
       y1="266.65515"
       x2="162.24593"
       y2="216.65515" />
    <linearGradient
       inkscape:collect="always"
       xlink:href="#linearGradient5045"
       id="linearGradient5663"
       gradientUnits="userSpaceOnUse"
       gradientTransform="matrix(0.639654,0,0,0.649989,339.3082,128.7811)"
       x1="162.24593"
       y1="266.65515"
       x2="162.24593"
       y2="216.65515" />
    <linearGradient
       inkscape:collect="always"
       xlink:href="#linearGradient5045"
       id="linearGradient5665"
       gradientUnits="userSpaceOnUse"
       gradientTransform="matrix(0.662489,0,0,0.662489,403.4481,77.94784)"
       x1="162.24593"
       y1="266.65515"
       x2="162.24593"
       y2="216.65515" />
    <linearGradient
       inkscape:collect="always"
       xlink:href="#linearGradient5070"
       id="linearGradient5711"
       gradientUnits="userSpaceOnUse"
       gradientTransform="matrix(1.164885,0,0,0.445941,677.5493,103.1988)"
       x1="77.244392"
       y1="295.93964"
       x2="77.244392"
       y2="210.93964" />
    <linearGradient
       inkscape:collect="always"
       xlink:href="#linearGradient5045"
       id="linearGradient3095"
       gradientUnits="userSpaceOnUse"
       gradientTransform="matrix(0.723089,0,0,0.723089,-447.8589,138.1146)"
       x1="162.24593"
       y1="266.65515"
       x2="162.24593"
       y2="216.65515" />
    <linearGradient
       inkscape:collect="always"
       xlink:href="#linearGradient5045"
       id="linearGradient3103"
       gradientUnits="userSpaceOnUse"
       gradientTransform="matrix(0.739023,0,0,0.723089,337.9148,-568.2832)"
       x1="162.24593"
       y1="266.65515"
       x2="162.24593"
       y2="216.65515" />
    <linearGradient
       inkscape:collect="always"
       xlink:href="#linearGradient5045"
       id="linearGradient3110"
       gradientUnits="userSpaceOnUse"
       gradientTransform="matrix(0.723089,0,0,0.723089,34.37276,192.7482)"
       x1="162.24593"
       y1="266.65515"
       x2="162.24593"
       y2="216.65515" />
    <linearGradient
       inkscape:collect="always"
       xlink:href="#linearGradient5045"
       id="linearGradient3117"
       gradientUnits="userSpaceOnUse"
       gradientTransform="matrix(0.771239,0,0,0.771239,-175.223,159.0781)"
       x1="162.24593"
       y1="266.65515"
       x2="162.24593"
       y2="216.65515" />
    <linearGradient
       inkscape:collect="always"
       xlink:href="#linearGradient5045"
       id="linearGradient3132"
       gradientUnits="userSpaceOnUse"
       gradientTransform="matrix(0.771239,0,0,0.771239,383.1379,-436.2325)"
       x1="162.24593"
       y1="266.65515"
       x2="162.24593"
       y2="216.65515" />
    <linearGradient
       inkscape:collect="always"
       xlink:href="#linearGradient5045"
       id="linearGradient3139"
       gradientUnits="userSpaceOnUse"
       gradientTransform="matrix(0.723089,0,0,0.723089,362.5598,-130.5819)"
       x1="162.24593"
       y1="266.65515"
       x2="162.24593"
       y2="216.65515" />
    <linearGradient
       inkscape:collect="always"
       xlink:href="#linearGradient5045"
       id="linearGradient3145"
       gradientUnits="userSpaceOnUse"
       gradientTransform="matrix(0.771238,0,0,0.771238,310.9647,-39.84166)"
       x1="162.24593"
       y1="266.65515"
       x2="162.24593"
       y2="216.65515" />
    <linearGradient
       inkscape:collect="always"
       xlink:href="#linearGradient5045"
       id="linearGradient3165"
       gradientUnits="userSpaceOnUse"
       gradientTransform="matrix(0.771239,0,0,0.771239,-175.223,159.0781)"
       x1="162.24593"
       y1="266.65515"
       x2="162.24593"
       y2="216.65515" />
    <linearGradient
       inkscape:collect="always"
       xlink:href="#linearGradient2977"
       id="linearGradient2146"
       gradientUnits="userSpaceOnUse"
       gradientTransform="translate(192.4163,113.1371)"
       x1="197.20895"
       y1="523.15765"
       x2="197.20895"
       y2="485.30051" />
    <linearGradient
       inkscape:collect="always"
       xlink:href="#linearGradient5574"
       id="linearGradient2148"
       gradientUnits="userSpaceOnUse"
       gradientTransform="matrix(0.627297,0,0,0.627297,297.5645,377.6961)"
       x1="62.634563"
       y1="238.17921"
       x2="194.4493"
       y2="238.17921" />
    <radialGradient
       inkscape:collect="always"
       xlink:href="#linearGradient3872"
       id="radialGradient14909"
       gradientUnits="userSpaceOnUse"
       gradientTransform="matrix(0.826135,0,0,0.6401631,57.068357,141.08611)"
       cx="303.8855"
       cy="259.84875"
       fx="303.8855"
       fy="259.84875"
       r="34.533283" />
    <linearGradient
       inkscape:collect="always"
       xlink:href="#linearGradient43041"
       id="linearGradient43047"
       x1="213.80072"
       y1="513.15753"
       x2="213.80072"
       y2="289.20343"
       gradientUnits="userSpaceOnUse"
       gradientTransform="translate(6e-7,-1.0665111e-5)" />
    <radialGradient
       inkscape:collect="always"
       xlink:href="#linearGradient3872"
       id="radialGradient51954"
       cx="-100"
       cy="226.03638"
       fx="-100"
       fy="226.03638"
       r="11.25"
       gradientUnits="userSpaceOnUse" />
    <radialGradient
       inkscape:collect="always"
       xlink:href="#linearGradient3872"
       id="radialGradient7716"
       gradientUnits="userSpaceOnUse"
       gradientTransform="matrix(0.826135,0,0,0.640154,57.06834,141.1199)"
       cx="-4.1709275"
       cy="391.1384"
       fx="-4.1709275"
       fy="391.1384"
       r="34.531693" />
    <radialGradient
       inkscape:collect="always"
       xlink:href="#linearGradient3872"
       id="radialGradient9773"
       gradientUnits="userSpaceOnUse"
       gradientTransform="matrix(0.826135,0,0,0.6401631,57.068357,141.08611)"
       cx="310.70975"
       cy="453.83554"
       fx="310.70975"
       fy="453.83554"
       r="34.533283" />
  </defs>
  <sodipodi:namedview
     id="base"
     pagecolor="#ffffff"
     bordercolor="#666666"
     borderopacity="1.0"
     gridtolerance="10000"
     guidetolerance="50"
     objecttolerance="10"
     inkscape:pageopacity="0.0"
     inkscape:pageshadow="2"
     inkscape:zoom="1.1160362"
     inkscape:cx="110.75825"
     inkscape:cy="147.54035"
     inkscape:document-units="px"
     inkscape:current-layer="layer6"
     inkscape:window-width="1014"
     inkscape:window-height="693"
     inkscape:window-x="0"
     inkscape:window-y="25"
     showguides="true"
     inkscape:guide-bbox="false"
     showgrid="true"
     inkscape:showpageshadow="false"
     showborder="false"
     inkscape:grid-bbox="true"
     inkscape:object-paths="false"
     inkscape:grid-points="true"
     width="340.01089px"
     height="409.95032px">
    <sodipodi:guide
       orientation="vertical"
       position="298.09978"
       id="guide6254" />
    <sodipodi:guide
       orientation="horizontal"
       position="348.57143"
       id="guide21606" />
  </sodipodi:namedview>
  <metadata
     id="metadata7">
    <rdf:RDF>
      <cc:Work
         rdf:about="">
        <dc:format>image/svg+xml</dc:format>
        <dc:type
           rdf:resource="http://purl.org/dc/dcmitype/StillImage" />
      </cc:Work>
    </rdf:RDF>
  </metadata>
  <g
     inkscape:groupmode="layer"
     id="layer7"
     inkscape:label="platformshadow"
     transform="translate(-152.4186,-438.3043)"
     style="display:inline" />
  <g
     inkscape:groupmode="layer"
     id="layer6"
     inkscape:label="platform"
     style="opacity:1;display:inline"
     transform="translate(-152.4186,-438.3043)">
    <rect
       style="opacity:1;fill:url(#linearGradient43047);fill-opacity:1;stroke:#000000;stroke-width:0.73721391000000003;stroke-linejoin:miter;stroke-miterlimit:4;stroke-dasharray:none;stroke-dashoffset:0;stroke-opacity:1;display:inline"
       id="rect7658"
       width="389.4353"
       height="233.48239"
       x="19.083065"
       y="279.30652"
       rx="23.308632"
       ry="33.692085"
       inkscape:export-filename="/home/pelletib/sb/sb50/jonas_doc50/src/resources/images/clustering/cmi_cluster.png"
       inkscape:export-xdpi="184.53"
       inkscape:export-ydpi="184.53" />
    <path
       style="opacity:1;fill:url(#radialGradient14909);fill-opacity:1;stroke:#000000;stroke-width:1.12072802000000005;stroke-linejoin:miter;stroke-miterlimit:4;stroke-dasharray:none;stroke-opacity:1;display:inline"
       d="M 264.16552,286.48657 C 296.81513,287.35828 329.9918,284.63404 362.27166,288.05999 C 387.84315,297.25209 376.20861,322.36289 378.844,339.92806 C 383.21714,357.44982 370.87127,378.43966 344.73583,374.36726 C 314.39767,373.51496 283.54093,376.19207 253.5715,372.79382 C 227.99998,363.60176 239.63451,338.49091 236.99911,320.92574 C 234.86867,305.60952 239.31676,285.81681 264.16552,286.48657 z"
       id="rect6621"
       inkscape:export-filename="/home/pelletib/sb/sb50/jonas_doc50/src/resources/images/clustering/cmi_cluster.png"
       inkscape:export-xdpi="184.53"
       inkscape:export-ydpi="184.53" />
    <flowRoot
       transform="matrix(0.504943,0,0,0.751011,132.78452,108.48201)"
       style="font-size:10px;font-style:normal;font-variant:normal;font-weight:normal;font-stretch:normal;text-align:center;line-height:125%;writing-mode:lr-tb;text-anchor:middle;opacity:1;fill:#000000;fill-opacity:1;display:inline;font-family:Bitstream Charter"
       id="flowRoot6623"
       xml:space="preserve"
       inkscape:export-filename="/home/pelletib/sb/sb50/jonas_doc50/src/resources/images/clustering/cmi_cluster.png"
       inkscape:export-xdpi="184.53"
       inkscape:export-ydpi="184.53"><flowRegion
         id="flowRegion6625"><rect
           style="font-size:10px;font-style:normal;font-variant:normal;font-weight:normal;font-stretch:normal;text-align:center;line-height:125%;writing-mode:lr-tb;text-anchor:middle;fill:#000000;fill-opacity:1;font-family:Bitstream Charter"
           y="235.65385"
           x="290.41885"
           height="19.511211"
           width="119.79375"
           id="rect6627" /></flowRegion><flowPara
         style="font-size:14.89941025px;font-style:normal;font-variant:normal;font-weight:bold;font-stretch:normal;text-align:center;line-height:125%;writing-mode:lr-tb;text-anchor:middle;fill:#000000;fill-opacity:1;font-family:Sans"
         id="flowPara6629">node 1</flowPara></flowRoot>    <flowRoot
       transform="matrix(0.504943,0,0,0.751011,15.898898,208.5663)"
       style="font-size:16.2388649px;font-style:normal;font-variant:normal;font-weight:bold;font-stretch:normal;text-align:center;line-height:125%;writing-mode:lr-tb;text-anchor:middle;opacity:1;fill:#4ca6fd;fill-opacity:1;display:inline;font-family:Bitstream Charter;-inkscape-font-specification:Bitstream Charter Bold"
       id="flowRoot6645"
       xml:space="preserve"
       inkscape:export-filename="/home/pelletib/sb/sb50/jonas_doc50/src/resources/images/clustering/cmi_cluster.png"
       inkscape:export-xdpi="184.53"
       inkscape:export-ydpi="184.53"><flowRegion
         id="flowRegion6647"><rect
           style="font-size:16.2388649px;font-style:normal;font-variant:normal;font-weight:bold;font-stretch:normal;text-align:center;line-height:125%;writing-mode:lr-tb;text-anchor:middle;fill:#4ca6fd;fill-opacity:1;font-family:Bitstream Charter;-inkscape-font-specification:Bitstream Charter Bold"
           y="235.65385"
           x="290.41885"
           height="45.162777"
           width="131.32808"
           id="rect6649" /></flowRegion><flowPara
         id="flowPara10941">Load-balancing</flowPara><flowPara
         id="flowPara10943">Fail-over</flowPara></flowRoot>    <image
       style="opacity:1;display:inline"
       y="302.37338"
       x="317.00629"
       id="image6653"
       height="14.168408"
       width="12.956868"
       sodipodi:absref="/home/pelletib/logo_easybeans.png"
       xlink:href="./easybeans-logo.png"
       inkscape:export-filename="/home/pelletib/sb/sb50/jonas_doc50/src/resources/images/clustering/cmi_cluster.png"
       inkscape:export-xdpi="184.53"
       inkscape:export-ydpi="184.53" />
    <flowRoot
       inkscape:export-ydpi="184.53"
       inkscape:export-xdpi="184.53"
       inkscape:export-filename="/home/pelletib/sb/sb50/jonas_doc50/src/resources/images/clustering/cmi_cluster.png"
       transform="matrix(1.443815,0,0,1.733265,-84.81541,-180.48395)"
       style="font-size:7.58565327px;font-style:normal;font-variant:normal;font-weight:bold;font-stretch:normal;text-align:start;line-height:125%;writing-mode:lr;text-anchor:start;opacity:1;fill:#000000;fill-opacity:1;stroke:none;stroke-opacity:1;display:inline;font-family:Bitstream Charter;-inkscape-font-specification:Bitstream Charter Bold"
       id="flowRoot3172"
       xml:space="preserve"><flowRegion
         id="flowRegion3174"><rect
           style="font-size:7.58565327px;font-style:normal;font-variant:normal;font-weight:bold;font-stretch:normal;text-align:start;line-height:125%;writing-mode:lr;text-anchor:start;fill:#000000;fill-opacity:1;stroke:none;stroke-opacity:1;font-family:Bitstream Charter;-inkscape-font-specification:Bitstream Charter Bold"
           y="389.19702"
           x="84.34774"
           height="20.310003"
           width="157.92908"
           id="rect3176" /></flowRegion><flowPara
         id="flowPara10975">EJB clustering with CMI/HA service</flowPara></flowRoot>    <path
       style="opacity:1;fill:url(#radialGradient7716);fill-opacity:1;stroke:#000000;stroke-width:0.77930628999999985;stroke-linejoin:miter;stroke-miterlimit:4;stroke-dasharray:none;stroke-opacity:1;display:inline"
       d="M 46.53121,363.59987 C 71.38897,364.1308 96.6159,362.47179 121.21476,364.55762 C 140.37425,369.77394 131.99305,385.18969 133.83047,395.83546 C 135.96879,406.2464 132.18742,420.92325 111.38856,419.41867 C 87.11742,418.89148 62.47896,420.54144 38.46647,418.46092 C 19.30698,413.24462 27.6882,397.82883 25.85073,387.18307 C 24.82584,376.90568 25.2214,363.33435 46.53121,363.59987 z"
       id="path7707"
       inkscape:export-filename="/home/pelletib/sb/sb50/jonas_doc50/src/resources/images/clustering/cmi_cluster.png"
       inkscape:export-xdpi="184.53"
       inkscape:export-ydpi="184.53"
       inkscape:transform-center-x="10.164005"
       inkscape:transform-center-y="-13.254054" />
    <path
       inkscape:connector-type="polyline"
       id="path7709"
       d="M 104.3892,416.75686 L 104.3892,416.75686"
       style="opacity:1;fill:none;fill-rule:evenodd;stroke:#000000;stroke-width:0.62729752px;stroke-linecap:butt;stroke-linejoin:miter;stroke-opacity:1;display:inline"
       inkscape:export-filename="/home/pelletib/sb/sb50/jonas_doc50/src/resources/images/clustering/cmi_cluster.png"
       inkscape:export-xdpi="184.53"
       inkscape:export-ydpi="184.53"
       inkscape:transform-center-x="-33.459158"
       inkscape:transform-center-y="11.942819" />
    <image
       style="opacity:1;display:inline"
       xlink:href="./cmiv2.png"
       sodipodi:absref="/home/pelletib/doc/web/JOnAS/logos/cmiv2.png"
       width="9.7002459"
       height="23.528255"
       id="image4725"
       x="48.606552"
       y="365.96033"
       inkscape:transform-center-x="5.4733699"
       inkscape:transform-center-y="-27.089577"
       inkscape:export-filename="/home/pelletib/sb/sb50/jonas_doc50/src/resources/images/clustering/cmi_cluster.png"
       inkscape:export-xdpi="184.53"
       inkscape:export-ydpi="184.53" />
    <flowRoot
       style="opacity:1;display:inline"
       xml:space="preserve"
       id="flowRoot4730"
       transform="matrix(0.634272,0,0,0.634272,-80.373187,439.5216)"
       inkscape:transform-center-x="5.2804414"
       inkscape:transform-center-y="-5.9787268"
       inkscape:export-filename="/home/pelletib/sb/sb50/jonas_doc50/src/resources/images/clustering/cmi_cluster.png"
       inkscape:export-xdpi="184.53"
       inkscape:export-ydpi="184.53"><flowRegion
         id="flowRegion4732"><rect
           id="rect4734"
           width="67.21022"
           height="34.966476"
           x="182.78978"
           y="-72.754471" /></flowRegion><flowPara
         id="flowPara4736">EJB client</flowPara></flowRoot>    <rect
       style="opacity:0.53023257;fill:#f9f7f2;fill-opacity:1;fill-rule:nonzero;stroke:none;stroke-width:1;stroke-linecap:square;stroke-linejoin:miter;stroke-miterlimit:4;stroke-dasharray:1, 2;stroke-dashoffset:0;stroke-opacity:1"
       id="rect8560"
       width="39.475735"
       height="40.774624"
       x="86.119614"
       y="372.38855"
       rx="12.173487"
       ry="11.225034"
       inkscape:export-filename="/home/pelletib/sb/sb50/jonas_doc50/src/resources/images/clustering/cmi_cluster.png"
       inkscape:export-xdpi="184.53"
       inkscape:export-ydpi="184.53" />
    <flowRoot
       inkscape:export-ydpi="184.53"
       inkscape:export-xdpi="184.53"
       inkscape:export-filename="/home/pelletib/sb/sb50/jonas_doc50/src/resources/images/clustering/cmi_cluster.png"
       xml:space="preserve"
       id="flowRoot8562"
       style="font-size:12.99109173px;font-style:normal;font-variant:normal;font-weight:normal;font-stretch:normal;text-align:center;line-height:125%;writing-mode:lr-tb;text-anchor:middle;fill:#000000;fill-opacity:1;display:inline;font-family:Bitstream Charter;-inkscape-font-specification:Bitstream Charter"
       transform="matrix(0.504943,0,0,0.751011,-82.422246,208.13479)"><flowRegion
         id="flowRegion8564"><rect
           id="rect8566"
           width="170.14557"
           height="19.958622"
           x="290.41885"
           y="235.65385"
           style="font-size:12.99109173px;font-style:normal;font-variant:normal;font-weight:normal;font-stretch:normal;text-align:center;line-height:125%;writing-mode:lr-tb;text-anchor:middle;fill:#000000;fill-opacity:1;font-family:Bitstream Charter;-inkscape-font-specification:Bitstream Charter" /></flowRegion><flowPara
         id="flowPara8568"
         style="font-size:12.99109173px;font-style:normal;font-variant:normal;font-weight:normal;font-stretch:normal;text-align:center;line-height:125%;writing-mode:lr-tb;text-anchor:middle;fill:#000000;fill-opacity:1;font-family:Bitstream Charter;-inkscape-font-specification:Bitstream Charter">CMI proxy</flowPara></flowRoot>    <rect
       ry="11.225034"
       rx="23.289118"
       y="328.03741"
       x="244.4631"
       height="40.774624"
       width="75.521095"
       id="rect8592"
       style="opacity:0.53023257;fill:#f9f7f2;fill-opacity:1;fill-rule:nonzero;stroke:none;stroke-width:1;stroke-linecap:square;stroke-linejoin:miter;stroke-miterlimit:4;stroke-dasharray:1, 2;stroke-dashoffset:0;stroke-opacity:1"
       inkscape:export-filename="/home/pelletib/sb/sb50/jonas_doc50/src/resources/images/clustering/cmi_cluster.png"
       inkscape:export-xdpi="184.53"
       inkscape:export-ydpi="184.53" />
    <flowRoot
       transform="matrix(0.504943,0,0,0.751011,92.51808,162.57659)"
       style="font-size:16.2388649px;font-style:normal;font-variant:normal;font-weight:normal;font-stretch:normal;text-align:center;line-height:125%;writing-mode:lr-tb;text-anchor:middle;fill:#000000;fill-opacity:1;display:inline;font-family:Bitstream Charter;-inkscape-font-specification:Bitstream Charter"
       id="flowRoot8594"
       xml:space="preserve"
       inkscape:export-filename="/home/pelletib/sb/sb50/jonas_doc50/src/resources/images/clustering/cmi_cluster.png"
       inkscape:export-xdpi="184.53"
       inkscape:export-ydpi="184.53"><flowRegion
         id="flowRegion8596"><rect
           style="font-size:16.2388649px;font-style:normal;font-variant:normal;font-weight:normal;font-stretch:normal;text-align:center;line-height:125%;writing-mode:lr-tb;text-anchor:middle;fill:#000000;fill-opacity:1;font-family:Bitstream Charter;-inkscape-font-specification:Bitstream Charter"
           y="235.65385"
           x="290.41885"
           height="19.958622"
           width="170.14557"
           id="rect8598" /></flowRegion><flowPara
         id="flowPara8602">EJB container</flowPara></flowRoot>    <g
       transform="matrix(0.5640299,0,0,0.5610413,279.96901,105.51367)"
       id="g4881"
       style="fill:#ece5cc;fill-opacity:1"
       inkscape:export-filename="/home/pelletib/sb/sb50/jonas_doc50/src/resources/images/clustering/cmi_cluster.png"
       inkscape:export-xdpi="184.53"
       inkscape:export-ydpi="184.53">
      <rect
         style="opacity:1;fill:#ece5cc;fill-opacity:1;fill-rule:nonzero;stroke:#000000;stroke-width:0.90736812;stroke-linecap:square;stroke-linejoin:miter;stroke-miterlimit:4;stroke-dasharray:none;stroke-dashoffset:0;stroke-opacity:1"
         id="rect4879"
         width="55.145947"
         height="63.984776"
         x="96.437698"
         y="397.75797"
         rx="27.572973"
         ry="13.644953" />
      <path
         transform="matrix(0.3318519,0,0,0.1635445,58.620079,350.57754)"
         d="M 277.14285,345.21933 A 80,58.57143 0 1 1 117.14285,345.21933 A 80,58.57143 0 1 1 277.14285,345.21933 z"
         sodipodi:ry="58.57143"
         sodipodi:rx="80"
         sodipodi:cy="345.21933"
         sodipodi:cx="197.14285"
         id="path4869"
         style="opacity:1;fill:#ece5cc;fill-opacity:1;fill-rule:nonzero;stroke:#000000;stroke-width:4.29249573;stroke-linecap:round;stroke-linejoin:miter;stroke-miterlimit:4;stroke-dasharray:none;stroke-dashoffset:0;stroke-opacity:1"
         sodipodi:type="arc"
         inkscape:export-filename="/home/pelletib/sb/sb50/jonas_doc50/src/resources/images/clustering/httpcluster.png"
         inkscape:export-xdpi="148.8"
         inkscape:export-ydpi="148.8" />
    </g>
    <flowRoot
       inkscape:export-ydpi="184.53"
       inkscape:export-xdpi="184.53"
       inkscape:export-filename="/home/pelletib/sb/sb50/jonas_doc50/src/resources/images/clustering/cmi_cluster.png"
       xml:space="preserve"
       id="flowRoot4926"
       style="font-size:11.79573917px;font-style:normal;font-variant:normal;font-weight:normal;font-stretch:normal;text-align:center;line-height:125%;writing-mode:lr-tb;text-anchor:middle;fill:#000000;fill-opacity:1;stroke:none;stroke-width:1px;stroke-linecap:butt;stroke-linejoin:miter;stroke-opacity:1;font-family:Bitstream Charter;-inkscape-font-specification:Bitstream Charter"
       transform="matrix(0.678211,0,0,0.678211,217.90465,11.93117)"><flowRegion
         id="flowRegion4928"><rect
           style="font-size:11.79573917px;font-style:normal;font-variant:normal;font-weight:normal;font-stretch:normal;text-align:center;line-height:125%;writing-mode:lr-tb;text-anchor:middle;font-family:Bitstream Charter;-inkscape-font-specification:Bitstream Charter"
           id="rect4930"
           width="39.395947"
           height="32.324879"
           x="174.75639"
           y="485.6666" /></flowRegion><flowPara
         id="flowPara4936">CMI </flowPara><flowPara
         id="flowPara4938">registry</flowPara></flowRoot>    <path
       inkscape:export-ydpi="184.53"
       inkscape:export-xdpi="184.53"
       inkscape:export-filename="/home/pelletib/sb/sb50/jonas_doc50/src/resources/images/clustering/cmi_cluster.png"
       id="path9733"
       d="M 264.16552,410.40786 C 296.81513,411.27958 329.9918,408.55534 362.27166,411.98128 C 387.84315,421.17338 376.20861,446.28418 378.844,463.84936 C 383.21714,481.37111 370.87127,502.36096 344.73583,498.28855 C 314.39767,497.43626 283.54093,500.11337 253.5715,496.71511 C 227.99998,487.52305 239.63451,462.4122 236.99911,444.84704 C 234.86867,429.53082 239.31676,409.73811 264.16552,410.40786 z"
       style="opacity:1;fill:url(#radialGradient9773);fill-opacity:1;stroke:#000000;stroke-width:1.12072802000000005;stroke-linejoin:miter;stroke-miterlimit:4;stroke-dasharray:none;stroke-opacity:1;display:inline" />
    <flowRoot
       inkscape:export-ydpi="184.53"
       inkscape:export-xdpi="184.53"
       inkscape:export-filename="/home/pelletib/sb/sb50/jonas_doc50/src/resources/images/clustering/cmi_cluster.png"
       xml:space="preserve"
       id="flowRoot9735"
       style="font-size:10px;font-style:normal;font-variant:normal;font-weight:normal;font-stretch:normal;text-align:center;line-height:125%;writing-mode:lr-tb;text-anchor:middle;opacity:1;fill:#000000;fill-opacity:1;display:inline;font-family:Bitstream Charter"
       transform="matrix(0.504943,0,0,0.751011,134.78452,232.48201)"><flowRegion
         id="flowRegion9737"><rect
           id="rect9739"
           width="119.79375"
           height="19.511211"
           x="290.41885"
           y="235.65385"
           style="font-size:10px;font-style:normal;font-variant:normal;font-weight:normal;font-stretch:normal;text-align:center;line-height:125%;writing-mode:lr-tb;text-anchor:middle;fill:#000000;fill-opacity:1;font-family:Bitstream Charter" /></flowRegion><flowPara
         id="flowPara9741"
         style="font-size:14.89941025px;font-style:normal;font-variant:normal;font-weight:bold;font-stretch:normal;text-align:center;line-height:125%;writing-mode:lr-tb;text-anchor:middle;fill:#000000;fill-opacity:1;font-family:Sans">node 2</flowPara></flowRoot>    <image
       inkscape:export-ydpi="184.53"
       inkscape:export-xdpi="184.53"
       inkscape:export-filename="/home/pelletib/sb/sb50/jonas_doc50/src/resources/images/clustering/cmi_cluster.png"
       xlink:href="./logo_jonas2.png"
       sodipodi:absref="/home/pelletib/logo_jonas.png"
       width="25.091618"
       height="21.916809"
       id="image9743"
       x="290.21411"
       y="422.3566"
       style="opacity:1;display:inline" />
    <image
       inkscape:export-ydpi="184.53"
       inkscape:export-xdpi="184.53"
       inkscape:export-filename="/home/pelletib/sb/sb50/jonas_doc50/src/resources/images/clustering/cmi_cluster.png"
       xlink:href="./easybeans-logo.png"
       sodipodi:absref="/home/pelletib/logo_easybeans.png"
       width="12.956868"
       height="14.168408"
       id="image9745"
       x="319.00629"
       y="426.37338"
       style="opacity:1;display:inline" />
    <rect
       style="opacity:0.53023257;fill:#f9f7f2;fill-opacity:1;fill-rule:nonzero;stroke:none;stroke-width:1;stroke-linecap:square;stroke-linejoin:miter;stroke-miterlimit:4;stroke-dasharray:1, 2;stroke-dashoffset:0;stroke-opacity:1"
       id="rect9747"
       width="74.625061"
       height="40.774624"
       x="244.4631"
       y="452.03741"
       rx="23.0128"
       ry="11.225034"
       inkscape:export-filename="/home/pelletib/sb/sb50/jonas_doc50/src/resources/images/clustering/cmi_cluster.png"
       inkscape:export-xdpi="184.53"
       inkscape:export-ydpi="184.53" />
    <flowRoot
       inkscape:export-ydpi="184.53"
       inkscape:export-xdpi="184.53"
       inkscape:export-filename="/home/pelletib/sb/sb50/jonas_doc50/src/resources/images/clustering/cmi_cluster.png"
       xml:space="preserve"
       id="flowRoot9749"
       style="font-size:16.2388649px;font-style:normal;font-variant:normal;font-weight:normal;font-stretch:normal;text-align:center;line-height:125%;writing-mode:lr-tb;text-anchor:middle;fill:#000000;fill-opacity:1;display:inline;font-family:Bitstream Charter;-inkscape-font-specification:Bitstream Charter"
       transform="matrix(0.504943,0,0,0.751011,92.070063,286.57659)"><flowRegion
         id="flowRegion9751"><rect
           id="rect9753"
           width="170.14557"
           height="19.958622"
           x="290.41885"
           y="235.65385"
           style="font-size:16.2388649px;font-style:normal;font-variant:normal;font-weight:normal;font-stretch:normal;text-align:center;line-height:125%;writing-mode:lr-tb;text-anchor:middle;fill:#000000;fill-opacity:1;font-family:Bitstream Charter;-inkscape-font-specification:Bitstream Charter" /></flowRegion><flowPara
         id="flowPara9755">EJB container</flowPara></flowRoot>    <g
       style="fill:#ece5cc;fill-opacity:1"
       id="g9757"
       transform="matrix(0.5640299,0,0,0.5610413,279.96901,229.51367)"
       inkscape:export-filename="/home/pelletib/sb/sb50/jonas_doc50/src/resources/images/clustering/cmi_cluster.png"
       inkscape:export-xdpi="184.53"
       inkscape:export-ydpi="184.53">
      <rect
         ry="13.644953"
         rx="27.572973"
         y="397.75797"
         x="96.437698"
         height="63.984776"
         width="55.145947"
         id="rect9759"
         style="opacity:1;fill:#ece5cc;fill-opacity:1;fill-rule:nonzero;stroke:#000000;stroke-width:0.90736812;stroke-linecap:square;stroke-linejoin:miter;stroke-miterlimit:4;stroke-dasharray:none;stroke-dashoffset:0;stroke-opacity:1" />
      <path
         inkscape:export-ydpi="148.8"
         inkscape:export-xdpi="148.8"
         inkscape:export-filename="/home/pelletib/sb/sb50/jonas_doc50/src/resources/images/clustering/httpcluster.png"
         sodipodi:type="arc"
         style="opacity:1;fill:#ece5cc;fill-opacity:1;fill-rule:nonzero;stroke:#000000;stroke-width:4.29249573;stroke-linecap:round;stroke-linejoin:miter;stroke-miterlimit:4;stroke-dasharray:none;stroke-dashoffset:0;stroke-opacity:1"
         id="path9761"
         sodipodi:cx="197.14285"
         sodipodi:cy="345.21933"
         sodipodi:rx="80"
         sodipodi:ry="58.57143"
         d="M 277.14285,345.21933 A 80,58.57143 0 1 1 117.14285,345.21933 A 80,58.57143 0 1 1 277.14285,345.21933 z"
         transform="matrix(0.3318519,0,0,0.1635445,58.620079,350.57754)" />
    </g>
    <flowRoot
       transform="matrix(0.678211,0,0,0.678211,217.90465,135.93117)"
       style="font-size:11.79573917px;font-style:normal;font-variant:normal;font-weight:normal;font-stretch:normal;text-align:center;line-height:125%;writing-mode:lr-tb;text-anchor:middle;fill:#000000;fill-opacity:1;stroke:none;stroke-width:1px;stroke-linecap:butt;stroke-linejoin:miter;stroke-opacity:1;font-family:Bitstream Charter;-inkscape-font-specification:Bitstream Charter"
       id="flowRoot9763"
       xml:space="preserve"
       inkscape:export-filename="/home/pelletib/sb/sb50/jonas_doc50/src/resources/images/clustering/cmi_cluster.png"
       inkscape:export-xdpi="184.53"
       inkscape:export-ydpi="184.53"><flowRegion
         id="flowRegion9765"><rect
           y="485.6666"
           x="174.75639"
           height="32.324879"
           width="39.395947"
           id="rect9767"
           style="font-size:11.79573917px;font-style:normal;font-variant:normal;font-weight:normal;font-stretch:normal;text-align:center;line-height:125%;writing-mode:lr-tb;text-anchor:middle;font-family:Bitstream Charter;-inkscape-font-specification:Bitstream Charter" /></flowRegion><flowPara
         id="flowPara9769">CMI </flowPara><flowPara
         id="flowPara9771">registry</flowPara></flowRoot>    <image
       style="opacity:1;display:inline"
       y="299.44058"
       x="288.74847"
       id="image9777"
       height="21.916809"
       width="25.091618"
       sodipodi:absref="/home/pelletib/logo_jonas.png"
       xlink:href="./logo_jonas2.png"
       inkscape:export-filename="/home/pelletib/sb/sb50/jonas_doc50/src/resources/images/clustering/cmi_cluster.png"
       inkscape:export-xdpi="184.53"
       inkscape:export-ydpi="184.53" />
    <flowRoot
       inkscape:export-ydpi="184.53"
       inkscape:export-xdpi="184.53"
       inkscape:export-filename="/home/pelletib/sb/sb50/jonas_doc50/src/resources/images/clustering/cmi_cluster.png"
       xml:space="preserve"
       id="flowRoot10945"
       style="font-size:16.2388649px;font-style:normal;font-variant:normal;font-weight:bold;font-stretch:normal;text-align:center;line-height:125%;writing-mode:lr-tb;text-anchor:middle;opacity:1;fill:#4ca6fd;fill-opacity:1;display:inline;font-family:Bitstream Charter;-inkscape-font-specification:Bitstream Charter Bold"
       transform="matrix(0.504943,0,0,0.751011,195.2682,200.76526)"><flowRegion
         id="flowRegion10947"><rect
           id="rect10949"
           width="131.32808"
           height="45.162777"
           x="290.41885"
           y="235.65385"
           style="font-size:16.2388649px;font-style:normal;font-variant:normal;font-weight:bold;font-stretch:normal;text-align:center;line-height:125%;writing-mode:lr-tb;text-anchor:middle;fill:#4ca6fd;fill-opacity:1;font-family:Bitstream Charter;-inkscape-font-specification:Bitstream Charter Bold" /></flowRegion><flowPara
         id="flowPara10955">Registry replication</flowPara></flowRoot>    <flowRoot
       transform="matrix(0.504943,0,0,0.751011,119.67388,207.10114)"
       style="font-size:16.2388649px;font-style:normal;font-variant:normal;font-weight:bold;font-stretch:normal;text-align:center;line-height:125%;writing-mode:lr-tb;text-anchor:middle;opacity:1;fill:#4ca6fd;fill-opacity:1;display:inline;font-family:Bitstream Charter;-inkscape-font-specification:Bitstream Charter Bold"
       id="flowRoot10957"
       xml:space="preserve"
       inkscape:export-filename="/home/pelletib/sb/sb50/jonas_doc50/src/resources/images/clustering/cmi_cluster.png"
       inkscape:export-xdpi="184.53"
       inkscape:export-ydpi="184.53"><flowRegion
         id="flowRegion10959"><rect
           style="font-size:16.2388649px;font-style:normal;font-variant:normal;font-weight:bold;font-stretch:normal;text-align:center;line-height:125%;writing-mode:lr-tb;text-anchor:middle;fill:#4ca6fd;fill-opacity:1;font-family:Bitstream Charter;-inkscape-font-specification:Bitstream Charter Bold"
           y="235.65385"
           x="290.41885"
           height="45.162777"
           width="131.32808"
           id="rect10961" /></flowRegion><flowPara
         id="flowPara10965">SFSB replication</flowPara></flowRoot>    <path
       style="fill:#000000;fill-opacity:1;fill-rule:evenodd;stroke:#73b1d0;stroke-width:2;stroke-linecap:butt;stroke-linejoin:miter;stroke-miterlimit:4;stroke-dasharray:none;stroke-opacity:1;display:inline"
       d="M 265.743,368.69955 L 265.4262,450.74915"
       id="path10969"
       inkscape:connector-type="polyline"
       sodipodi:nodetypes="cc"
       inkscape:export-filename="/home/pelletib/sb/sb50/jonas_doc50/src/resources/images/clustering/cmi_cluster.png"
       inkscape:export-xdpi="184.53"
       inkscape:export-ydpi="184.53" />
    <path
       inkscape:connector-type="polyline"
       id="path10971"
       d="M 351.10941,365.53161 L 351.4262,452.64991"
       style="fill:#000000;fill-opacity:1;fill-rule:evenodd;stroke:#73b1d0;stroke-width:2;stroke-linecap:butt;stroke-linejoin:miter;stroke-miterlimit:4;stroke-dasharray:none;stroke-opacity:1;display:inline"
       sodipodi:nodetypes="cc"
       inkscape:export-filename="/home/pelletib/sb/sb50/jonas_doc50/src/resources/images/clustering/cmi_cluster.png"
       inkscape:export-xdpi="184.53"
       inkscape:export-ydpi="184.53" />
    <path
       style="fill:none;fill-opacity:1;fill-rule:evenodd;stroke:#4295c0;stroke-width:2;stroke-linecap:butt;stroke-linejoin:miter;marker-start:none;stroke-miterlimit:4;stroke-dasharray:none;stroke-opacity:0.89019608"
       d="M 243.27881,348.06058 C 213.96854,347.28812 168.432,394.24794 134.05303,393.71835 C 168.65621,394.80971 218.44164,473.27099 244.54599,474.09111"
       id="path19430"
       sodipodi:nodetypes="ccc"
       inkscape:export-filename="/home/pelletib/sb/sb50/jonas_doc50/src/resources/images/clustering/cmi_cluster.png"
       inkscape:export-xdpi="184.53"
       inkscape:export-ydpi="184.53" />
  </g>
  <g
     inkscape:groupmode="layer"
     id="layer3"
     inkscape:label="module"
     style="opacity:1;display:inline"
     transform="translate(-152.4186,-438.3043)" />
  <g
     inkscape:label="background"
     inkscape:groupmode="layer"
     id="layer1"
     style="opacity:1;display:none"
     transform="translate(-152.4186,-438.3043)" />
  <g
     inkscape:groupmode="layer"
     id="layer4"
     inkscape:label="shadow"
     transform="translate(-152.4186,-438.3043)"
     style="display:none" />
  <g
     inkscape:groupmode="layer"
     id="layer5"
     inkscape:label="Text"
     style="opacity:1;display:none"
     transform="translate(-152.4186,-438.3043)">
    <rect
       style="fill:url(#linearGradient3103);fill-opacity:1;stroke:none;stroke-width:0.41879246;stroke-linecap:round;stroke-linejoin:miter;stroke-miterlimit:4;stroke-dasharray:none;stroke-dashoffset:0;stroke-opacity:1"
       id="rect5277"
       width="72.230949"
       height="41.318073"
       x="457.81827"
       y="-396.12665"
       rx="11.79997"
       ry="14.346707"
       inkscape:export-filename="/home/pelletib/doc/web/Jasmine/jasmine_schema2.png"
       inkscape:export-xdpi="121.78332"
       inkscape:export-ydpi="121.78332"
       transform="matrix(0.305323,0.952249,-0.952249,0.305323,0,0)" />
    <flowRoot
       xml:space="preserve"
       id="flowRoot5279"
       style="font-size:10.39293671px;font-style:normal;font-variant:normal;font-weight:normal;font-stretch:normal;text-align:start;line-height:125%;writing-mode:lr-tb;text-anchor:start;fill:white;fill-opacity:1;font-family:Sans"
       transform="matrix(0.173613,0.541469,-0.616258,0.197593,944.9234,60.9428)"
       inkscape:export-filename="/home/pelletib/doc/web/Jasmine/jasmine_schema2.png"
       inkscape:export-xdpi="121.78332"
       inkscape:export-ydpi="121.78332"><flowRegion
         id="flowRegion5281"><rect
           id="rect5283"
           width="130.79105"
           height="47.037045"
           x="191.42857"
           y="755.2193"
           style="font-size:10.39293671px;font-style:normal;font-variant:normal;font-weight:normal;font-stretch:normal;text-align:start;line-height:125%;writing-mode:lr-tb;text-anchor:start;fill:white;fill-opacity:1;font-family:Sans" /></flowRegion><flowPara
         id="flowPara5285"
         style="font-size:16px;font-style:normal;font-variant:normal;font-weight:bold;font-stretch:normal;text-align:center;line-height:125%;writing-mode:lr-tb;text-anchor:middle;fill:white;fill-opacity:1;font-family:Sans">Self</flowPara><flowPara
         style="font-size:16px;font-style:normal;font-variant:normal;font-weight:bold;font-stretch:normal;text-align:center;line-height:125%;writing-mode:lr-tb;text-anchor:middle;fill:white;fill-opacity:1;font-family:Sans"
         id="flowPara6104">management</flowPara></flowRoot>    <rect
       ry="14.346697"
       rx="11.79996"
       y="310.271"
       x="-330.54062"
       height="41.318039"
       width="70.673622"
       id="rect5301"
       style="fill:url(#linearGradient3095);fill-opacity:1;stroke:none;stroke-width:0.41879246;stroke-linecap:round;stroke-linejoin:miter;stroke-miterlimit:4;stroke-dasharray:none;stroke-dashoffset:0;stroke-opacity:1"
       transform="matrix(0.207123,-0.978315,0.978315,0.207123,0,0)"
       inkscape:export-filename="/home/pelletib/doc/web/Jasmine/jasmine_schema2.png"
       inkscape:export-xdpi="121.78332"
       inkscape:export-ydpi="121.78332" />
    <flowRoot
       transform="matrix(0.117774,-0.55629,0.633127,0.134042,-248.5709,378.3823)"
       style="font-size:10.39293671px;font-style:normal;font-variant:normal;font-weight:normal;font-stretch:normal;text-align:start;line-height:125%;writing-mode:lr-tb;text-anchor:start;fill:white;fill-opacity:1;font-family:Sans"
       id="flowRoot5303"
       xml:space="preserve"
       inkscape:export-filename="/home/pelletib/doc/web/Jasmine/jasmine_schema2.png"
       inkscape:export-xdpi="121.78332"
       inkscape:export-ydpi="121.78332"><flowRegion
         id="flowRegion5305"><rect
           style="font-size:10.39293671px;font-style:normal;font-variant:normal;font-weight:normal;font-stretch:normal;text-align:start;line-height:125%;writing-mode:lr-tb;text-anchor:start;fill:white;fill-opacity:1;font-family:Sans"
           y="755.2193"
           x="191.42857"
           height="177.14285"
           width="320"
           id="rect5307" /></flowRegion><flowPara
         style="font-size:16px;font-style:normal;font-variant:normal;font-weight:bold;font-stretch:normal;text-align:start;line-height:125%;writing-mode:lr-tb;text-anchor:start;fill:white;fill-opacity:1;font-family:Sans"
         id="flowPara5309">Design</flowPara></flowRoot>    <rect
       style="fill:url(#linearGradient3110);fill-opacity:1;stroke:none;stroke-width:0.41879246;stroke-linecap:round;stroke-linejoin:miter;stroke-miterlimit:4;stroke-dasharray:none;stroke-dashoffset:0;stroke-opacity:1"
       id="rect5623"
       width="70.673676"
       height="41.318069"
       x="151.69115"
       y="364.90472"
       rx="11.799969"
       ry="14.346707"
       inkscape:export-filename="/home/pelletib/doc/web/Jasmine/jasmine_schema2.png"
       inkscape:export-xdpi="121.78332"
       inkscape:export-ydpi="121.78332"
       transform="matrix(0.913079,-0.407783,0.407783,0.913079,0,0)" />
    <flowRoot
       xml:space="preserve"
       id="flowRoot5641"
       style="font-size:10.39293671px;font-style:normal;font-variant:normal;font-weight:normal;font-stretch:normal;text-align:start;line-height:125%;writing-mode:lr-tb;text-anchor:start;fill:white;fill-opacity:1;font-family:Sans"
       transform="matrix(0.519196,-0.231874,0.263901,0.590909,9.638648,-125.5459)"
       inkscape:export-filename="/home/pelletib/doc/web/Jasmine/jasmine_schema2.png"
       inkscape:export-xdpi="121.78332"
       inkscape:export-ydpi="121.78332"><flowRegion
         id="flowRegion5643"><rect
           id="rect5645"
           width="320"
           height="177.14285"
           x="191.42857"
           y="755.2193"
           style="font-size:10.39293671px;font-style:normal;font-variant:normal;font-weight:normal;font-stretch:normal;text-align:start;line-height:125%;writing-mode:lr-tb;text-anchor:start;fill:white;fill-opacity:1;font-family:Sans" /></flowRegion><flowPara
         id="flowPara5647"
         style="font-size:16px;font-style:normal;font-variant:normal;font-weight:bold;font-stretch:normal;text-align:start;line-height:125%;writing-mode:lr-tb;text-anchor:start;fill:white;fill-opacity:1;font-family:Sans">Deploy</flowPara></flowRoot>    <rect
       ry="14.346704"
       rx="11.799966"
       y="41.574673"
       x="479.87796"
       height="41.318058"
       width="70.67366"
       id="rect6092"
       style="fill:url(#linearGradient3139);fill-opacity:1;stroke:none;stroke-width:0.41879246;stroke-linecap:round;stroke-linejoin:miter;stroke-miterlimit:4;stroke-dasharray:none;stroke-dashoffset:0;stroke-opacity:1"
       inkscape:export-filename="/home/pelletib/doc/web/Jasmine/jasmine_schema2.png"
       inkscape:export-xdpi="121.78332"
       inkscape:export-ydpi="121.78332"
       transform="matrix(0.906038,0.423196,-0.423196,0.906038,0,0)" />
    <flowRoot
       transform="matrix(0.515192,0.240638,-0.273876,0.586352,526.3453,-233.3105)"
       style="font-size:10.39293671px;font-style:normal;font-variant:normal;font-weight:normal;font-stretch:normal;text-align:start;line-height:125%;writing-mode:lr-tb;text-anchor:start;fill:white;fill-opacity:1;font-family:Sans"
       id="flowRoot6094"
       xml:space="preserve"
       inkscape:export-filename="/home/pelletib/doc/web/Jasmine/jasmine_schema2.png"
       inkscape:export-xdpi="121.78332"
       inkscape:export-ydpi="121.78332"><flowRegion
         id="flowRegion6096"><rect
           style="font-size:10.39293671px;font-style:normal;font-variant:normal;font-weight:normal;font-stretch:normal;text-align:start;line-height:125%;writing-mode:lr-tb;text-anchor:start;fill:white;fill-opacity:1;font-family:Sans"
           y="755.2193"
           x="191.42857"
           height="177.14285"
           width="320"
           id="rect6098" /></flowRegion><flowPara
         style="font-size:16px;font-style:normal;font-variant:normal;font-weight:bold;font-stretch:normal;text-align:start;line-height:125%;writing-mode:lr-tb;text-anchor:start;fill:white;fill-opacity:1;font-family:Sans"
         id="flowPara6100">Monitoring</flowPara></flowRoot>    <g
       id="g3158"
       transform="matrix(0.99796,-6.384161e-2,6.384161e-2,0.99796,-16.60163,16.36349)"
       inkscape:export-filename="/home/pelletib/doc/web/Jasmine/jasmine_schema2.png"
       inkscape:export-xdpi="121.78332"
       inkscape:export-ydpi="121.78332">
      <rect
         transform="matrix(0.710756,-0.703438,0.703438,0.710756,0,0)"
         ry="14.346704"
         rx="11.799966"
         y="342.69815"
         x="-50.092552"
         height="44.069378"
         width="75.37973"
         id="rect6135"
         style="fill:url(#linearGradient3165);fill-opacity:1;stroke:none;stroke-width:0.41879246;stroke-linecap:round;stroke-linejoin:miter;stroke-miterlimit:4;stroke-dasharray:none;stroke-dashoffset:0;stroke-opacity:1" />
      <flowRoot
         transform="matrix(0.431062,-0.426624,0.485551,0.490603,-213.2404,-20.55266)"
         style="font-size:10.39293671px;font-style:normal;font-variant:normal;font-weight:normal;font-stretch:normal;text-align:start;line-height:125%;writing-mode:lr-tb;text-anchor:start;fill:white;fill-opacity:1;font-family:Sans"
         id="flowRoot6137"
         xml:space="preserve"><flowRegion
           id="flowRegion6139"><rect
             style="font-size:10.39293671px;font-style:normal;font-variant:normal;font-weight:normal;font-stretch:normal;text-align:start;line-height:125%;writing-mode:lr-tb;text-anchor:start;fill:white;fill-opacity:1;font-family:Sans"
             y="755.2193"
             x="191.42857"
             height="177.14285"
             width="320"
             id="rect6141" /></flowRegion><flowPara
           style="font-size:16px;font-style:normal;font-variant:normal;font-weight:bold;font-stretch:normal;text-align:start;line-height:125%;writing-mode:lr-tb;text-anchor:start;fill:white;fill-opacity:1;font-family:Sans"
           id="flowPara6143">JMX</flowPara></flowRoot>    </g>
    <rect
       ry="14.346708"
       rx="11.79997"
       y="-252.61234"
       x="508.2684"
       height="44.069393"
       width="75.379753"
       id="rect6156"
       style="fill:url(#linearGradient3132);fill-opacity:1;stroke:none;stroke-width:0.41879246;stroke-linecap:round;stroke-linejoin:miter;stroke-miterlimit:4;stroke-dasharray:none;stroke-dashoffset:0;stroke-opacity:1"
       transform="matrix(0.639823,0.768522,-0.768522,0.639823,0,0)"
       inkscape:export-filename="/home/pelletib/doc/web/Jasmine/jasmine_schema2.png"
       inkscape:export-xdpi="121.78332"
       inkscape:export-ydpi="121.78332" />
    <flowRoot
       transform="matrix(0.388043,0.466097,-0.530476,0.441641,849.0098,-167.8717)"
       style="font-size:10.39293671px;font-style:normal;font-variant:normal;font-weight:normal;font-stretch:normal;text-align:start;line-height:125%;writing-mode:lr-tb;text-anchor:start;fill:white;fill-opacity:1;font-family:Sans"
       id="flowRoot6158"
       xml:space="preserve"
       inkscape:export-filename="/home/pelletib/doc/web/Jasmine/jasmine_schema2.png"
       inkscape:export-xdpi="121.78332"
       inkscape:export-ydpi="121.78332"><flowRegion
         id="flowRegion6160"><rect
           style="font-size:10.39293671px;font-style:normal;font-variant:normal;font-weight:normal;font-stretch:normal;text-align:start;line-height:125%;writing-mode:lr-tb;text-anchor:start;fill:white;fill-opacity:1;font-family:Sans"
           y="755.2193"
           x="191.42857"
           height="177.14285"
           width="320"
           id="rect6162" /></flowRegion><flowPara
         style="font-size:16px;font-style:normal;font-variant:normal;font-weight:bold;font-stretch:normal;text-align:start;line-height:125%;writing-mode:lr-tb;text-anchor:start;fill:white;fill-opacity:1;font-family:Sans"
         id="flowPara6164">SNMP</flowPara></flowRoot>  </g>
  <g
     inkscape:groupmode="layer"
     id="layer9"
     inkscape:label="JAMSINe::BG"
     transform="translate(-152.4186,-438.3043)"
     style="display:inline" />
  <g
     inkscape:groupmode="layer"
     id="layer10"
     inkscape:label="JASMINe:Core"
     style="display:inline"
     transform="translate(-64.1685,-358.0283)" />
  <g
     inkscape:groupmode="layer"
     id="layer12"
     inkscape:label="JASMINe::Modules"
     style="display:inline"
     transform="translate(-64.1685,-358.0283)" />
  <g
     inkscape:groupmode="layer"
     id="layer2"
     inkscape:label="JASMINe:Control Loop"
     transform="translate(-152.4186,-438.3043)"
     style="display:inline" />
  <g
     inkscape:groupmode="layer"
     id="layer8"
     inkscape:label="JASMINe::interfaces"
     transform="translate(-152.4186,-438.3043)"
     style="display:inline" />
  <g
     inkscape:groupmode="layer"
     id="layer11"
     inkscape:label="JASMINe::GUI"
     style="display:inline"
     transform="translate(-64.1685,-358.0283)" />
  <g
     inkscape:groupmode="layer"
     id="layer13"
     inkscape:label="JASMINe"
     style="display:none"
     transform="translate(-64.1685,-358.0283)">
    <g
       inkscape:groupmode="layer"
       id="layer19"
       inkscape:label="Background" />
    <g
       inkscape:groupmode="layer"
       id="layer18"
       inkscape:label="Core" />
    <g
       inkscape:groupmode="layer"
       id="layer17"
       inkscape:label="Modules" />
    <g
       inkscape:groupmode="layer"
       id="layer16"
       inkscape:label="Control Loop" />
    <g
       inkscape:groupmode="layer"
       id="layer15"
       inkscape:label="Interfaces" />
    <g
       inkscape:groupmode="layer"
       id="layer14"
       inkscape:label="GUI" />
  </g>
</svg>
