<?xml version="1.0" encoding="UTF-8" standalone="no"?>
<!-- Created with Inkscape (http://www.inkscape.org/) -->
<svg
   xmlns:dc="http://purl.org/dc/elements/1.1/"
   xmlns:cc="http://creativecommons.org/ns#"
   xmlns:rdf="http://www.w3.org/1999/02/22-rdf-syntax-ns#"
   xmlns:svg="http://www.w3.org/2000/svg"
   xmlns="http://www.w3.org/2000/svg"
   xmlns:xlink="http://www.w3.org/1999/xlink"
   xmlns:sodipodi="http://sodipodi.sourceforge.net/DTD/sodipodi-0.dtd"
   xmlns:inkscape="http://www.inkscape.org/namespaces/inkscape"
   width="422.60434"
   height="477.7511"
   id="svg2"
   sodipodi:version="0.32"
   inkscape:version="0.46"
   sodipodi:docname="httpcluster.svg"
   inkscape:output_extension="org.inkscape.output.svg.inkscape"
   version="1.0">
  <defs
     id="defs4">
    <marker
       inkscape:stockid="Arrow2Mend"
       orient="auto"
       refY="0"
       refX="0"
       id="Arrow2Mend"
       style="overflow:visible">
      <path
         id="path4061"
         style="font-size:12px;fill-rule:evenodd;stroke-width:0.625;stroke-linejoin:round"
         d="M 8.7185878,4.0337352 L -2.2072895,0.016013256 L 8.7185884,-4.0017078 C 6.97309,-1.6296469 6.9831476,1.6157441 8.7185878,4.0337352 z"
         transform="scale(-0.6,-0.6)" />
    </marker>
    <marker
       inkscape:stockid="Arrow2Lend"
       orient="auto"
       refY="0"
       refX="0"
       id="Arrow2Lend"
       style="overflow:visible">
      <path
         id="path4055"
         style="font-size:12px;fill-rule:evenodd;stroke-width:0.625;stroke-linejoin:round"
         d="M 8.7185878,4.0337352 L -2.2072895,0.016013256 L 8.7185884,-4.0017078 C 6.97309,-1.6296469 6.9831476,1.6157441 8.7185878,4.0337352 z"
         transform="matrix(-1.1,0,0,-1.1,-1.1,0)" />
    </marker>
    <linearGradient
       id="linearGradient3338">
      <stop
         id="stop3340"
         offset="0"
         style="stop-color:#606233;stop-opacity:1;" />
      <stop
         id="stop3342"
         offset="1"
         style="stop-color:#f1f19d;stop-opacity:0" />
    </linearGradient>
    <linearGradient
       id="linearGradient3155">
      <stop
         style="stop-color:#fbff93;stop-opacity:1;"
         offset="0"
         id="stop3157" />
      <stop
         style="stop-color:#f1f19d;stop-opacity:0"
         offset="1"
         id="stop3159" />
    </linearGradient>
    <inkscape:perspective
       sodipodi:type="inkscape:persp3d"
       inkscape:vp_x="0 : 526.18109 : 1"
       inkscape:vp_y="0 : 1000 : 0"
       inkscape:vp_z="744.09448 : 526.18109 : 1"
       inkscape:persp3d-origin="372.04724 : 350.78739 : 1"
       id="perspective10" />
    <linearGradient
       inkscape:collect="always"
       xlink:href="#linearGradient3155"
       id="linearGradient3213"
       gradientUnits="userSpaceOnUse"
       gradientTransform="matrix(1.7298748,0,0,1.8129381,299.81904,-162.90397)"
       x1="371.75055"
       y1="378.36871"
       x2="371.75055"
       y2="458.09897" />
    <linearGradient
       inkscape:collect="always"
       xlink:href="#linearGradient3155"
       id="linearGradient3332"
       gradientUnits="userSpaceOnUse"
       gradientTransform="matrix(1.347298,0,0,1.8129381,161.42834,507.36784)"
       x1="218.52426"
       y1="358.97278"
       x2="219.95284"
       y2="437.17294" />
    <linearGradient
       inkscape:collect="always"
       xlink:href="#linearGradient3338"
       id="linearGradient3336"
       gradientUnits="userSpaceOnUse"
       gradientTransform="matrix(1.347298,0,0,1.8129381,146.53967,480.00811)"
       x1="52.41188"
       y1="388.59494"
       x2="52.41188"
       y2="465.42746" />
    <linearGradient
       inkscape:collect="always"
       xlink:href="#linearGradient3155"
       id="linearGradient3452"
       gradientUnits="userSpaceOnUse"
       gradientTransform="matrix(1.7298748,0,0,1.8129381,-198.20054,157.58119)"
       x1="371.75052"
       y1="297.55652"
       x2="371.75052"
       y2="358.91843" />
    <linearGradient
       inkscape:collect="always"
       xlink:href="#linearGradient3155"
       id="linearGradient3466"
       gradientUnits="userSpaceOnUse"
       gradientTransform="matrix(2.1828298,0,0,1.8129381,-838.63357,498.21113)"
       x1="437.86118"
       y1="-84.38887"
       x2="437.86118"
       y2="-28.346294" />
    <linearGradient
       inkscape:collect="always"
       xlink:href="#linearGradient3155"
       id="linearGradient3481"
       gradientUnits="userSpaceOnUse"
       gradientTransform="matrix(2.1828298,0,0,1.8129381,16.902817,-162.90413)"
       x1="523.27338"
       y1="378.3688"
       x2="523.27338"
       y2="443.81326" />
    <linearGradient
       inkscape:collect="always"
       xlink:href="#linearGradient3155"
       id="linearGradient4522"
       gradientUnits="userSpaceOnUse"
       gradientTransform="matrix(2.1828298,0,0,1.8129381,-838.63357,255.27717)"
       x1="437.86118"
       y1="49.611271"
       x2="437.86118"
       y2="108.02428" />
    <linearGradient
       inkscape:collect="always"
       xlink:href="#linearGradient3155"
       id="linearGradient4596"
       gradientUnits="userSpaceOnUse"
       gradientTransform="matrix(2.1828298,0,0,1.8129381,-838.63357,12.34331)"
       x1="437.86118"
       y1="183.61136"
       x2="437.86118"
       y2="229.24257" />
    <linearGradient
       inkscape:collect="always"
       xlink:href="#linearGradient3155"
       id="linearGradient4598"
       gradientUnits="userSpaceOnUse"
       gradientTransform="matrix(2.1828298,0,0,1.8129381,-838.63357,-230.59052)"
       x1="437.86118"
       y1="317.61142"
       x2="437.86118"
       y2="373.69437" />
    <linearGradient
       inkscape:collect="always"
       xlink:href="#linearGradient3155"
       id="linearGradient4679"
       gradientUnits="userSpaceOnUse"
       gradientTransform="matrix(1.7298748,0,0,1.8129381,117.14285,-87.847215)"
       x1="371.75052"
       y1="297.55652"
       x2="371.75052"
       y2="358.91843" />
    <linearGradient
       inkscape:collect="always"
       xlink:href="#linearGradient3155"
       id="linearGradient4749"
       gradientUnits="userSpaceOnUse"
       gradientTransform="matrix(2.1828298,0,0,1.8129381,-440.71985,278.44987)"
       x1="255.56857"
       y1="36.829422"
       x2="255.56857"
       y2="88.831383" />
    <linearGradient
       inkscape:collect="always"
       xlink:href="#linearGradient3155"
       id="linearGradient4751"
       gradientUnits="userSpaceOnUse"
       gradientTransform="matrix(2.1828298,0,0,1.8129381,-440.71985,35.515905)"
       x1="255.56857"
       y1="170.82956"
       x2="255.56857"
       y2="225.20195" />
    <linearGradient
       inkscape:collect="always"
       xlink:href="#linearGradient3155"
       id="linearGradient4753"
       gradientUnits="userSpaceOnUse"
       gradientTransform="matrix(2.1828298,0,0,1.8129381,-440.71985,-207.41795)"
       x1="255.56857"
       y1="304.82965"
       x2="255.56857"
       y2="358.54208" />
    <linearGradient
       inkscape:collect="always"
       xlink:href="#linearGradient3155"
       id="linearGradient4755"
       gradientUnits="userSpaceOnUse"
       gradientTransform="matrix(2.1828298,0,0,1.8129381,-440.71985,-450.35178)"
       x1="255.56857"
       y1="438.82971"
       x2="255.56857"
       y2="496.93295" />
  </defs>
  <sodipodi:namedview
     id="base"
     pagecolor="#ffffff"
     bordercolor="#666666"
     borderopacity="1.0"
     gridtolerance="10000"
     guidetolerance="10"
     objecttolerance="10"
     inkscape:pageopacity="0.0"
     inkscape:pageshadow="2"
     inkscape:zoom="1.4"
     inkscape:cx="218.48464"
     inkscape:cy="263.81275"
     inkscape:document-units="px"
     inkscape:current-layer="g4616"
     showgrid="false"
     inkscape:window-width="1278"
     inkscape:window-height="729"
     inkscape:window-x="0"
     inkscape:window-y="25" />
  <metadata
     id="metadata7">
    <rdf:RDF>
      <cc:Work
         rdf:about="">
        <dc:format>image/svg+xml</dc:format>
        <dc:type
           rdf:resource="http://purl.org/dc/dcmitype/StillImage" />
      </cc:Work>
    </rdf:RDF>
  </metadata>
  <g
     inkscape:label="Layer 1"
     inkscape:groupmode="layer"
     id="layer1"
     transform="translate(-294.97898,-135.46823)">
    <g
       id="g4672"
       transform="translate(0,14.157758)"
       inkscape:export-filename="/home/pelletib/sb/sb50/jonas_doc50/src/resources/images/clustering/httpcluster.png"
       inkscape:export-xdpi="148.8"
       inkscape:export-ydpi="148.8">
      <path
         inkscape:export-ydpi="148.8"
         inkscape:export-xdpi="148.8"
         inkscape:export-filename="/home/pelletib/sb/sb50/jonas_doc50/src/resources/images/clustering/httpfarm.png"
         transform="matrix(0.5780766,0,0,0.5515909,227.26144,169.76617)"
         d="M 277.14285,345.21933 A 80,58.57143 0 1 1 117.14285,345.21933 A 80,58.57143 0 1 1 277.14285,345.21933 z"
         sodipodi:ry="58.57143"
         sodipodi:rx="80"
         sodipodi:cy="345.21933"
         sodipodi:cx="197.14285"
         id="path2383"
         style="opacity:1;fill:url(#linearGradient4679);fill-opacity:1;fill-rule:nonzero;stroke:none;stroke-width:7;stroke-linecap:round;stroke-linejoin:miter;stroke-miterlimit:4;stroke-dasharray:none;stroke-dashoffset:0;stroke-opacity:0.75862068"
         sodipodi:type="arc" />
      <flowRoot
         inkscape:export-ydpi="148.8"
         inkscape:export-xdpi="148.8"
         inkscape:export-filename="/home/pelletib/sb/sb50/jonas_doc50/src/resources/images/clustering/httpfarm.png"
         transform="translate(136.88525,-134.12068)"
         style="font-size:12px;font-style:normal;font-weight:normal;fill:#000000;fill-opacity:1;stroke:none;stroke-width:1px;stroke-linecap:butt;stroke-linejoin:miter;stroke-opacity:1;font-family:Bitstream Vera Sans"
         id="flowRoot3163"
         xml:space="preserve"><flowRegion
           id="flowRegion3165"><rect
             y="485.6666"
             x="174.75639"
             height="72.73098"
             width="130.30968"
             id="rect3167" /></flowRegion><flowPara
           id="flowPara3169">Apache/jk</flowPara></flowRoot>    </g>
    <path
       inkscape:connector-type="polyline"
       id="path5857"
       d="M 382.9848,358.92115 L 552.1027,171.54421"
       style="fill:none;fill-rule:evenodd;stroke:#000000;stroke-width:1px;stroke-linecap:butt;stroke-linejoin:miter;marker-start:none;marker-end:url(#Arrow2Mend);stroke-opacity:1;display:inline"
       inkscape:export-filename="/home/pelletib/sb/sb50/jonas_doc50/src/resources/images/clustering/httpcluster.png"
       inkscape:export-xdpi="148.8"
       inkscape:export-ydpi="148.8" />
    <g
       id="g4616">
      <path
         inkscape:export-ydpi="148.8"
         inkscape:export-xdpi="148.8"
         inkscape:export-filename="/home/pelletib/sb/sb50/jonas_doc50/src/resources/images/clustering/httpcluster.png"
         sodipodi:type="arc"
         style="opacity:1;fill:url(#linearGradient4749);fill-opacity:1;fill-rule:nonzero;stroke:none;stroke-width:7;stroke-linecap:round;stroke-linejoin:miter;stroke-miterlimit:4;stroke-dasharray:none;stroke-dashoffset:0;stroke-opacity:0.75862068000000005"
         id="path3187"
         sodipodi:cx="197.14285"
         sodipodi:cy="345.21933"
         sodipodi:rx="80"
         sodipodi:ry="58.57143"
         d="M 277.14285,345.21933 A 80,58.57143 0 1 1 117.14285,345.21933 A 80,58.57143 0 1 1 277.14285,345.21933 z"
         transform="matrix(0.458121,0,0,0.5515909,496.88197,-18.122205)" />
      <flowRoot
         inkscape:export-ydpi="148.8"
         inkscape:export-xdpi="148.8"
         inkscape:export-filename="/home/pelletib/sb/sb50/jonas_doc50/src/resources/images/clustering/httpcluster.png"
         xml:space="preserve"
         id="flowRoot3189"
         style="font-size:12px;font-style:normal;font-weight:normal;text-align:center;line-height:125%;writing-mode:lr-tb;text-anchor:middle;fill:#000000;fill-opacity:1;stroke:none;stroke-width:1px;stroke-linecap:butt;stroke-linejoin:miter;stroke-opacity:1;font-family:Bitstream Vera Sans"
         transform="translate(393.38866,-328.36647)"><flowRegion
           id="flowRegion3191"><rect
             style="text-align:center;line-height:125%;writing-mode:lr-tb;text-anchor:middle"
             id="rect3193"
             width="39.395947"
             height="32.324879"
             x="174.75639"
             y="485.6666" /></flowRegion><flowPara
           id="flowPara3195">JOnAS</flowPara><flowPara
           id="flowPara3215">1</flowPara></flowRoot>      <rect
         inkscape:export-ydpi="148.8"
         inkscape:export-xdpi="148.8"
         inkscape:export-filename="/home/pelletib/sb/sb50/jonas_doc50/src/resources/images/clustering/httpcluster.png"
         ry="11.363761"
         rx="9.9815187"
         y="135.80891"
         x="519.10834"
         height="75.069725"
         width="111.4354"
         id="rect3494"
         style="opacity:0.38497656;fill:none;fill-opacity:1;fill-rule:nonzero;stroke:#000000;stroke-width:0.68137574;stroke-linecap:round;stroke-linejoin:miter;stroke-miterlimit:4;stroke-dasharray:none;stroke-dashoffset:0;stroke-opacity:1" />
      <flowRoot
         inkscape:export-ydpi="148.8"
         inkscape:export-xdpi="148.8"
         inkscape:export-filename="/home/pelletib/sb/sb50/jonas_doc50/src/resources/images/clustering/httpcluster.png"
         transform="translate(302.68827,-347.62404)"
         style="font-size:10px;font-style:normal;font-variant:normal;font-weight:normal;font-stretch:normal;text-align:center;line-height:125%;writing-mode:lr-tb;text-anchor:middle;fill:#000000;fill-opacity:1;stroke:none;stroke-width:1px;stroke-linecap:butt;stroke-linejoin:miter;stroke-opacity:1;font-family:Bitstream Charter;-inkscape-font-specification:Bitstream Charter"
         id="flowRoot3496"
         xml:space="preserve"><flowRegion
           id="flowRegion3498"><rect
             y="485.6666"
             x="174.75639"
             height="72.73098"
             width="130.30968"
             id="rect3500"
             style="font-size:10px;font-style:normal;font-variant:normal;font-weight:normal;font-stretch:normal;text-align:center;line-height:125%;writing-mode:lr-tb;text-anchor:middle;font-family:Bitstream Charter;-inkscape-font-specification:Bitstream Charter" /></flowRegion><flowPara
           id="flowPara3506">Node 1</flowPara></flowRoot>      <path
         transform="matrix(0.458121,0,0,0.5515909,496.88197,115.87779)"
         d="M 277.14285,345.21933 A 80,58.57143 0 1 1 117.14285,345.21933 A 80,58.57143 0 1 1 277.14285,345.21933 z"
         sodipodi:ry="58.57143"
         sodipodi:rx="80"
         sodipodi:cy="345.21933"
         sodipodi:cx="197.14285"
         id="path4500"
         style="opacity:1;fill:url(#linearGradient4751);fill-opacity:1;fill-rule:nonzero;stroke:none;stroke-width:7;stroke-linecap:round;stroke-linejoin:miter;stroke-miterlimit:4;stroke-dasharray:none;stroke-dashoffset:0;stroke-opacity:0.75862068000000005"
         sodipodi:type="arc"
         inkscape:export-filename="/home/pelletib/sb/sb50/jonas_doc50/src/resources/images/clustering/httpcluster.png"
         inkscape:export-xdpi="148.8"
         inkscape:export-ydpi="148.8" />
      <flowRoot
         transform="translate(393.38866,-194.36647)"
         style="font-size:12px;font-style:normal;font-weight:normal;text-align:center;line-height:125%;writing-mode:lr-tb;text-anchor:middle;fill:#000000;fill-opacity:1;stroke:none;stroke-width:1px;stroke-linecap:butt;stroke-linejoin:miter;stroke-opacity:1;font-family:Bitstream Vera Sans"
         id="flowRoot4502"
         xml:space="preserve"
         inkscape:export-filename="/home/pelletib/sb/sb50/jonas_doc50/src/resources/images/clustering/httpcluster.png"
         inkscape:export-xdpi="148.8"
         inkscape:export-ydpi="148.8"><flowRegion
           id="flowRegion4504"><rect
             y="485.6666"
             x="174.75639"
             height="32.324879"
             width="39.395947"
             id="rect4506"
             style="text-align:center;line-height:125%;writing-mode:lr-tb;text-anchor:middle" /></flowRegion><flowPara
           id="flowPara4524">JOnAS</flowPara><flowPara
           id="flowPara4526">2</flowPara></flowRoot>      <rect
         style="opacity:0.38497656;fill:none;fill-opacity:1;fill-rule:nonzero;stroke:#000000;stroke-width:0.68137574;stroke-linecap:round;stroke-linejoin:miter;stroke-miterlimit:4;stroke-dasharray:none;stroke-dashoffset:0;stroke-opacity:1"
         id="rect4512"
         width="111.4354"
         height="75.069725"
         x="519.10834"
         y="269.8089"
         rx="9.9815187"
         ry="11.363761"
         inkscape:export-filename="/home/pelletib/sb/sb50/jonas_doc50/src/resources/images/clustering/httpcluster.png"
         inkscape:export-xdpi="148.8"
         inkscape:export-ydpi="148.8" />
      <flowRoot
         xml:space="preserve"
         id="flowRoot4514"
         style="font-size:10px;font-style:normal;font-variant:normal;font-weight:normal;font-stretch:normal;text-align:center;line-height:125%;writing-mode:lr-tb;text-anchor:middle;fill:#000000;fill-opacity:1;stroke:none;stroke-width:1px;stroke-linecap:butt;stroke-linejoin:miter;stroke-opacity:1;font-family:Bitstream Charter;-inkscape-font-specification:Bitstream Charter"
         transform="translate(302.68827,-213.62404)"
         inkscape:export-filename="/home/pelletib/sb/sb50/jonas_doc50/src/resources/images/clustering/httpcluster.png"
         inkscape:export-xdpi="148.8"
         inkscape:export-ydpi="148.8"><flowRegion
           id="flowRegion4516"><rect
             style="font-size:10px;font-style:normal;font-variant:normal;font-weight:normal;font-stretch:normal;text-align:center;line-height:125%;writing-mode:lr-tb;text-anchor:middle;font-family:Bitstream Charter;-inkscape-font-specification:Bitstream Charter"
             id="rect4518"
             width="130.30968"
             height="72.73098"
             x="174.75639"
             y="485.6666" /></flowRegion><flowPara
           id="flowPara4528">Node 2</flowPara></flowRoot>      <path
         transform="matrix(0.7916629,0,0,0.7874994,369.58034,16.713998)"
         d="M 285.87317,282.55319 A 10.606602,55.558388 0 1 1 264.65997,282.55319 A 10.606602,55.558388 0 1 1 285.87317,282.55319 z"
         sodipodi:ry="55.558388"
         sodipodi:rx="10.606602"
         sodipodi:cy="282.55319"
         sodipodi:cx="275.26657"
         id="path4530"
         style="opacity:0.38497656;fill:none;fill-opacity:1;fill-rule:nonzero;stroke:#000000;stroke-width:3;stroke-linecap:square;stroke-linejoin:miter;stroke-miterlimit:4;stroke-dasharray:none;stroke-dashoffset:0;stroke-opacity:1"
         sodipodi:type="arc"
         inkscape:export-filename="/home/pelletib/sb/sb50/jonas_doc50/src/resources/images/clustering/httpcluster.png"
         inkscape:export-xdpi="148.8"
         inkscape:export-ydpi="148.8" />
      <flowRoot
         xml:space="preserve"
         id="flowRoot4532"
         style="font-size:10px;font-style:normal;font-variant:normal;font-weight:normal;font-stretch:normal;text-align:center;line-height:125%;writing-mode:lr-tb;text-anchor:middle;fill:#000000;fill-opacity:1;stroke:none;stroke-width:1px;stroke-linecap:butt;stroke-linejoin:miter;stroke-opacity:1;font-family:Bitstream Charter;-inkscape-font-specification:Bitstream Charter"
         transform="translate(418.85581,-256.71031)"
         inkscape:export-filename="/home/pelletib/sb/sb50/jonas_doc50/src/resources/images/clustering/httpcluster.png"
         inkscape:export-xdpi="148.8"
         inkscape:export-ydpi="148.8"><flowRegion
           id="flowRegion4534"><rect
             style="font-size:10px;font-style:normal;font-variant:normal;font-weight:normal;font-stretch:normal;text-align:center;line-height:125%;writing-mode:lr-tb;text-anchor:middle;font-family:Bitstream Charter;-inkscape-font-specification:Bitstream Charter"
             id="rect4536"
             width="130.30968"
             height="72.73098"
             x="174.75639"
             y="485.6666" /></flowRegion><flowPara
           id="flowPara4608">Session replication: dom1</flowPara></flowRoot>      <path
         transform="matrix(0.458121,0,0,0.5515909,496.88197,249.87779)"
         d="M 277.14285,345.21933 A 80,58.57143 0 1 1 117.14285,345.21933 A 80,58.57143 0 1 1 277.14285,345.21933 z"
         sodipodi:ry="58.57143"
         sodipodi:rx="80"
         sodipodi:cy="345.21933"
         sodipodi:cx="197.14285"
         id="path4542"
         style="opacity:1;fill:url(#linearGradient4753);fill-opacity:1;fill-rule:nonzero;stroke:none;stroke-width:7;stroke-linecap:round;stroke-linejoin:miter;stroke-miterlimit:4;stroke-dasharray:none;stroke-dashoffset:0;stroke-opacity:0.75862068000000005"
         sodipodi:type="arc"
         inkscape:export-filename="/home/pelletib/sb/sb50/jonas_doc50/src/resources/images/clustering/httpcluster.png"
         inkscape:export-xdpi="148.8"
         inkscape:export-ydpi="148.8" />
      <flowRoot
         transform="translate(393.38866,-60.36647)"
         style="font-size:12px;font-style:normal;font-weight:normal;text-align:center;line-height:125%;writing-mode:lr-tb;text-anchor:middle;fill:#000000;fill-opacity:1;stroke:none;stroke-width:1px;stroke-linecap:butt;stroke-linejoin:miter;stroke-opacity:1;font-family:Bitstream Vera Sans"
         id="flowRoot4544"
         xml:space="preserve"
         inkscape:export-filename="/home/pelletib/sb/sb50/jonas_doc50/src/resources/images/clustering/httpcluster.png"
         inkscape:export-xdpi="148.8"
         inkscape:export-ydpi="148.8"><flowRegion
           id="flowRegion4546"><rect
             y="485.6666"
             x="174.75639"
             height="32.324879"
             width="39.395947"
             id="rect4548"
             style="text-align:center;line-height:125%;writing-mode:lr-tb;text-anchor:middle" /></flowRegion><flowPara
           id="flowPara4600">JOnAS</flowPara><flowPara
           id="flowPara4602">3</flowPara></flowRoot>      <rect
         style="opacity:0.38497656;fill:none;fill-opacity:1;fill-rule:nonzero;stroke:#000000;stroke-width:0.68137574;stroke-linecap:round;stroke-linejoin:miter;stroke-miterlimit:4;stroke-dasharray:none;stroke-dashoffset:0;stroke-opacity:1"
         id="rect4554"
         width="111.4354"
         height="75.069725"
         x="519.10834"
         y="403.8089"
         rx="9.9815187"
         ry="11.363761"
         inkscape:export-filename="/home/pelletib/sb/sb50/jonas_doc50/src/resources/images/clustering/httpcluster.png"
         inkscape:export-xdpi="148.8"
         inkscape:export-ydpi="148.8" />
      <flowRoot
         xml:space="preserve"
         id="flowRoot4556"
         style="font-size:10px;font-style:normal;font-variant:normal;font-weight:normal;font-stretch:normal;text-align:center;line-height:125%;writing-mode:lr-tb;text-anchor:middle;fill:#000000;fill-opacity:1;stroke:none;stroke-width:1px;stroke-linecap:butt;stroke-linejoin:miter;stroke-opacity:1;font-family:Bitstream Charter;-inkscape-font-specification:Bitstream Charter"
         transform="translate(302.68827,-79.62404)"
         inkscape:export-filename="/home/pelletib/sb/sb50/jonas_doc50/src/resources/images/clustering/httpcluster.png"
         inkscape:export-xdpi="148.8"
         inkscape:export-ydpi="148.8"><flowRegion
           id="flowRegion4558"><rect
             style="font-size:10px;font-style:normal;font-variant:normal;font-weight:normal;font-stretch:normal;text-align:center;line-height:125%;writing-mode:lr-tb;text-anchor:middle;font-family:Bitstream Charter;-inkscape-font-specification:Bitstream Charter"
             id="rect4560"
             width="130.30968"
             height="72.73098"
             x="174.75639"
             y="485.6666" /></flowRegion><flowPara
           id="flowPara4604">Node 3</flowPara></flowRoot>      <path
         inkscape:export-ydpi="148.8"
         inkscape:export-xdpi="148.8"
         inkscape:export-filename="/home/pelletib/sb/sb50/jonas_doc50/src/resources/images/clustering/httpcluster.png"
         sodipodi:type="arc"
         style="opacity:1;fill:url(#linearGradient4755);fill-opacity:1;fill-rule:nonzero;stroke:none;stroke-width:7;stroke-linecap:round;stroke-linejoin:miter;stroke-miterlimit:4;stroke-dasharray:none;stroke-dashoffset:0;stroke-opacity:0.75862068000000005"
         id="path4564"
         sodipodi:cx="197.14285"
         sodipodi:cy="345.21933"
         sodipodi:rx="80"
         sodipodi:ry="58.57143"
         d="M 277.14285,345.21933 A 80,58.57143 0 1 1 117.14285,345.21933 A 80,58.57143 0 1 1 277.14285,345.21933 z"
         transform="matrix(0.458121,0,0,0.5515909,496.88197,383.87779)" />
      <flowRoot
         inkscape:export-ydpi="148.8"
         inkscape:export-xdpi="148.8"
         inkscape:export-filename="/home/pelletib/sb/sb50/jonas_doc50/src/resources/images/clustering/httpcluster.png"
         xml:space="preserve"
         id="flowRoot4566"
         style="font-size:12px;font-style:normal;font-weight:normal;text-align:center;line-height:125%;writing-mode:lr-tb;text-anchor:middle;fill:#000000;fill-opacity:1;stroke:none;stroke-width:1px;stroke-linecap:butt;stroke-linejoin:miter;stroke-opacity:1;font-family:Bitstream Vera Sans"
         transform="translate(393.38866,73.63353)"><flowRegion
           id="flowRegion4568"><rect
             style="text-align:center;line-height:125%;writing-mode:lr-tb;text-anchor:middle"
             id="rect4570"
             width="39.395947"
             height="32.324879"
             x="174.75639"
             y="485.6666" /></flowRegion><flowPara
           id="flowPara4610">JOnAS</flowPara><flowPara
           id="flowPara4612">4</flowPara></flowRoot>      <rect
         inkscape:export-ydpi="148.8"
         inkscape:export-xdpi="148.8"
         inkscape:export-filename="/home/pelletib/sb/sb50/jonas_doc50/src/resources/images/clustering/httpcluster.png"
         ry="11.363761"
         rx="9.9815187"
         y="537.8089"
         x="519.10834"
         height="75.069725"
         width="111.4354"
         id="rect4576"
         style="opacity:0.38497656;fill:none;fill-opacity:1;fill-rule:nonzero;stroke:#000000;stroke-width:0.68137574;stroke-linecap:round;stroke-linejoin:miter;stroke-miterlimit:4;stroke-dasharray:none;stroke-dashoffset:0;stroke-opacity:1" />
      <flowRoot
         inkscape:export-ydpi="148.8"
         inkscape:export-xdpi="148.8"
         inkscape:export-filename="/home/pelletib/sb/sb50/jonas_doc50/src/resources/images/clustering/httpcluster.png"
         transform="translate(302.68827,54.37596)"
         style="font-size:10px;font-style:normal;font-variant:normal;font-weight:normal;font-stretch:normal;text-align:center;line-height:125%;writing-mode:lr-tb;text-anchor:middle;fill:#000000;fill-opacity:1;stroke:none;stroke-width:1px;stroke-linecap:butt;stroke-linejoin:miter;stroke-opacity:1;font-family:Bitstream Charter;-inkscape-font-specification:Bitstream Charter"
         id="flowRoot4578"
         xml:space="preserve"><flowRegion
           id="flowRegion4580"><rect
             y="485.6666"
             x="174.75639"
             height="72.73098"
             width="130.30968"
             id="rect4582"
             style="font-size:10px;font-style:normal;font-variant:normal;font-weight:normal;font-stretch:normal;text-align:center;line-height:125%;writing-mode:lr-tb;text-anchor:middle;font-family:Bitstream Charter;-inkscape-font-specification:Bitstream Charter" /></flowRegion><flowPara
           id="flowPara4614">Node 4</flowPara></flowRoot>      <path
         sodipodi:type="arc"
         style="opacity:0.38497656;fill:none;fill-opacity:1;fill-rule:nonzero;stroke:#000000;stroke-width:3;stroke-linecap:square;stroke-linejoin:miter;stroke-miterlimit:4;stroke-dasharray:none;stroke-dashoffset:0;stroke-opacity:1"
         id="path4586"
         sodipodi:cx="275.26657"
         sodipodi:cy="282.55319"
         sodipodi:rx="10.606602"
         sodipodi:ry="55.558388"
         d="M 285.87317,282.55319 A 10.606602,55.558388 0 1 1 264.65997,282.55319 A 10.606602,55.558388 0 1 1 285.87317,282.55319 z"
         transform="matrix(0.7916629,0,0,0.7874994,369.58034,284.714)"
         inkscape:export-filename="/home/pelletib/sb/sb50/jonas_doc50/src/resources/images/clustering/httpcluster.png"
         inkscape:export-xdpi="148.8"
         inkscape:export-ydpi="148.8" />
      <flowRoot
         inkscape:export-ydpi="148.8"
         inkscape:export-xdpi="148.8"
         inkscape:export-filename="/home/pelletib/sb/sb50/jonas_doc50/src/resources/images/clustering/httpcluster.png"
         transform="translate(418.85581,11.28969)"
         style="font-size:10px;font-style:normal;font-variant:normal;font-weight:normal;font-stretch:normal;text-align:center;line-height:125%;writing-mode:lr-tb;text-anchor:middle;fill:#000000;fill-opacity:1;stroke:none;stroke-width:1px;stroke-linecap:butt;stroke-linejoin:miter;stroke-opacity:1;font-family:Bitstream Charter;-inkscape-font-specification:Bitstream Charter"
         id="flowRoot4588"
         xml:space="preserve"><flowRegion
           id="flowRegion4590"><rect
             y="485.6666"
             x="174.75639"
             height="72.73098"
             width="130.30968"
             id="rect4592"
             style="font-size:10px;font-style:normal;font-variant:normal;font-weight:normal;font-stretch:normal;text-align:center;line-height:125%;writing-mode:lr-tb;text-anchor:middle;font-family:Bitstream Charter;-inkscape-font-specification:Bitstream Charter" /></flowRegion><flowPara
           id="flowPara4606">Session replication: dom2</flowPara></flowRoot>      <flowRoot
         xml:space="preserve"
         id="flowRoot14745"
         style="font-size:10px;font-style:normal;font-variant:normal;font-weight:normal;font-stretch:normal;text-align:center;line-height:125%;writing-mode:lr-tb;text-anchor:middle;fill:#000000;fill-opacity:1;stroke:none;stroke-width:1px;stroke-linecap:butt;stroke-linejoin:miter;stroke-opacity:1;font-family:Bitstream Charter;-inkscape-font-specification:Bitstream Charter"
         transform="translate(183.14153,-159.4246)"
         inkscape:export-filename="/home/pelletib/sb/sb50/jonas_doc50/src/resources/images/clustering/httpcluster.png"
         inkscape:export-xdpi="148.8"
         inkscape:export-ydpi="148.8"><flowRegion
           id="flowRegion14747"><rect
             style="font-size:10px;font-style:normal;font-variant:normal;font-weight:normal;font-stretch:normal;text-align:center;line-height:125%;writing-mode:lr-tb;text-anchor:middle;font-family:Bitstream Charter;-inkscape-font-specification:Bitstream Charter"
             id="rect14749"
             width="130.30968"
             height="72.73098"
             x="174.75639"
             y="485.6666" /></flowRegion><flowPara
           id="flowPara14753">AJP</flowPara></flowRoot>      <flowRoot
         inkscape:export-ydpi="148.8"
         inkscape:export-xdpi="148.8"
         inkscape:export-filename="/home/pelletib/sb/sb50/jonas_doc50/src/resources/images/clustering/httpcluster.png"
         transform="translate(180.28439,-80.138887)"
         style="font-size:10px;font-style:normal;font-variant:normal;font-weight:normal;font-stretch:normal;text-align:center;line-height:125%;writing-mode:lr-tb;text-anchor:middle;fill:#000000;fill-opacity:1;stroke:none;stroke-width:1px;stroke-linecap:butt;stroke-linejoin:miter;stroke-opacity:1;font-family:Bitstream Charter;-inkscape-font-specification:Bitstream Charter"
         id="flowRoot14755"
         xml:space="preserve"><flowRegion
           id="flowRegion14757"><rect
             y="485.6666"
             x="174.75639"
             height="72.73098"
             width="130.30968"
             id="rect14759"
             style="font-size:10px;font-style:normal;font-variant:normal;font-weight:normal;font-stretch:normal;text-align:center;line-height:125%;writing-mode:lr-tb;text-anchor:middle;font-family:Bitstream Charter;-inkscape-font-specification:Bitstream Charter" /></flowRegion><flowPara
           id="flowPara14761">AJP</flowPara></flowRoot>    </g>
    <path
       inkscape:export-ydpi="148.8"
       inkscape:export-xdpi="148.8"
       inkscape:export-filename="/home/pelletib/sb/sb50/jonas_doc50/src/resources/images/clustering/httpcluster.png"
       style="fill:none;fill-rule:evenodd;stroke:#000000;stroke-width:1px;stroke-linecap:butt;stroke-linejoin:miter;marker-start:none;marker-end:url(#Arrow2Mend);stroke-opacity:1;display:inline"
       d="M 382.9848,358.92115 L 552.1027,305.8945"
       id="path4681"
       inkscape:connector-type="polyline" />
    <path
       inkscape:connector-type="polyline"
       id="path4683"
       d="M 383.40723,388.72701 L 552.1027,445.29555"
       style="fill:none;fill-rule:evenodd;stroke:#000000;stroke-width:1px;stroke-linecap:butt;stroke-linejoin:miter;marker-start:none;marker-end:url(#Arrow2Mend);stroke-opacity:1;display:inline"
       inkscape:export-filename="/home/pelletib/sb/sb50/jonas_doc50/src/resources/images/clustering/httpcluster.png"
       inkscape:export-xdpi="148.8"
       inkscape:export-ydpi="148.8" />
    <path
       inkscape:export-ydpi="148.8"
       inkscape:export-xdpi="148.8"
       inkscape:export-filename="/home/pelletib/sb/sb50/jonas_doc50/src/resources/images/clustering/httpcluster.png"
       style="fill:none;fill-rule:evenodd;stroke:#000000;stroke-width:1px;stroke-linecap:butt;stroke-linejoin:miter;marker-start:none;marker-end:url(#Arrow2Mend);stroke-opacity:1;display:inline"
       d="M 383.40723,388.72701 L 552.1027,578.63569"
       id="path4685"
       inkscape:connector-type="polyline" />
  </g>
</svg>
