<?xml version="1.0" encoding="UTF-8" standalone="no"?>
<!-- Created with Inkscape (http://www.inkscape.org/) -->
<svg
   xmlns:dc="http://purl.org/dc/elements/1.1/"
   xmlns:cc="http://creativecommons.org/ns#"
   xmlns:rdf="http://www.w3.org/1999/02/22-rdf-syntax-ns#"
   xmlns:svg="http://www.w3.org/2000/svg"
   xmlns="http://www.w3.org/2000/svg"
   xmlns:xlink="http://www.w3.org/1999/xlink"
   xmlns:sodipodi="http://sodipodi.sourceforge.net/DTD/sodipodi-0.dtd"
   xmlns:inkscape="http://www.inkscape.org/namespaces/inkscape"
   width="744.09448"
   height="1052.3622"
   id="svg2"
   sodipodi:version="0.32"
   inkscape:version="0.46"
   sodipodi:docbase="/home/pelletib/doc/web/demo"
   sodipodi:docname="sampleCluster2.svg"
   version="1.0"
   inkscape:output_extension="org.inkscape.output.svg.inkscape">
  <defs
     id="defs4">
    <linearGradient
       inkscape:collect="always"
       id="linearGradient6721">
      <stop
         style="stop-color:#c8ede2;stop-opacity:1;"
         offset="0"
         id="stop6723" />
      <stop
         style="stop-color:#c4ece0;stop-opacity:1"
         offset="1"
         id="stop6725" />
    </linearGradient>
    <linearGradient
       inkscape:collect="always"
       id="linearGradient6713">
      <stop
         style="stop-color:#98ddc9;stop-opacity:1;"
         offset="0"
         id="stop6715" />
      <stop
         style="stop-color:#def4ee;stop-opacity:1"
         offset="1"
         id="stop6717" />
    </linearGradient>
    <linearGradient
       id="linearGradient6707">
      <stop
         id="stop6709"
         offset="0"
         style="stop-color:#49c39f;stop-opacity:1;" />
      <stop
         id="stop6711"
         offset="1"
         style="stop-color:#b8d7e7;stop-opacity:1" />
    </linearGradient>
    <linearGradient
       id="linearGradient6102">
      <stop
         id="stop6104"
         offset="0"
         style="stop-color:#4999c3;stop-opacity:1;" />
      <stop
         id="stop6106"
         offset="1"
         style="stop-color:#d8e9f2;stop-opacity:1" />
    </linearGradient>
    <inkscape:perspective
       sodipodi:type="inkscape:persp3d"
       inkscape:vp_x="0 : 526.18109 : 1"
       inkscape:vp_y="0 : 1000 : 0"
       inkscape:vp_z="744.09448 : 526.18109 : 1"
       inkscape:persp3d-origin="372.04724 : 350.78739 : 1"
       id="perspective6074" />
    <linearGradient
       id="linearGradient4820">
      <stop
         style="stop-color:#00a9ff;stop-opacity:1;"
         offset="0"
         id="stop4822" />
      <stop
         id="stop4828"
         offset="0.5"
         style="stop-color:#ff0b00;stop-opacity:0.90588236;" />
      <stop
         style="stop-color:#c1bd45;stop-opacity:0.81568629;"
         offset="1"
         id="stop4824" />
    </linearGradient>
    <linearGradient
       id="linearGradient3921">
      <stop
         id="stop3923"
         offset="0"
         style="stop-color:#3e92bf;stop-opacity:1;" />
      <stop
         id="stop3925"
         offset="1"
         style="stop-color:#3e92bf;stop-opacity:1;" />
    </linearGradient>
    <linearGradient
       id="linearGradient3014">
      <stop
         style="stop-color:#4597c1;stop-opacity:1;"
         offset="0"
         id="stop3016" />
      <stop
         style="stop-color:#4597c1;stop-opacity:0.5;"
         offset="1"
         id="stop3018" />
    </linearGradient>
    <linearGradient
       inkscape:collect="always"
       id="linearGradient3718">
      <stop
         style="stop-color:#3e92bf;stop-opacity:1;"
         offset="0"
         id="stop3720" />
      <stop
         style="stop-color:#3e92bf;stop-opacity:0;"
         offset="1"
         id="stop3722" />
    </linearGradient>
    <linearGradient
       inkscape:collect="always"
       id="linearGradient3656">
      <stop
         style="stop-color:#70afcf;stop-opacity:1;"
         offset="0"
         id="stop3658" />
      <stop
         style="stop-color:white;stop-opacity:1"
         offset="1"
         id="stop3660" />
    </linearGradient>
    <marker
       inkscape:stockid="DiamondM"
       orient="auto"
       refY="0.0"
       refX="0.0"
       id="DiamondM"
       style="overflow:visible">
      <path
         id="path3460"
         d="M 0,-7.0710768 L -7.0710894,0 L 0,7.0710589 L 7.0710462,0 L 0,-7.0710768 z "
         style="fill-rule:evenodd;stroke:#000000;stroke-width:1.0pt;marker-start:none"
         transform="scale(0.4)" />
    </marker>
    <marker
       inkscape:stockid="Dot_l"
       orient="auto"
       refY="0.0"
       refX="0.0"
       id="Dot_l"
       style="overflow:visible">
      <path
         id="path3481"
         d="M -2.5,-1.0 C -2.5,1.7600000 -4.7400000,4.0 -7.5,4.0 C -10.260000,4.0 -12.5,1.7600000 -12.5,-1.0 C -12.5,-3.7600000 -10.260000,-6.0 -7.5,-6.0 C -4.7400000,-6.0 -2.5,-3.7600000 -2.5,-1.0 z "
         style="fill-rule:evenodd;stroke:#000000;stroke-width:1.0pt;marker-start:none;marker-end:none"
         transform="scale(0.8) translate(7.4, 1)" />
    </marker>
    <linearGradient
       inkscape:collect="always"
       id="linearGradient3324">
      <stop
         style="stop-color:#4e9cc4;stop-opacity:1;"
         offset="0"
         id="stop3326" />
      <stop
         style="stop-color:white;stop-opacity:1"
         offset="1"
         id="stop3328" />
    </linearGradient>
    <marker
       inkscape:stockid="DiamondS"
       orient="auto"
       refY="0"
       refX="0"
       id="DiamondS"
       style="overflow:visible">
      <path
         id="path8157"
         d="M 0,-7.0710768 L -7.0710894,0 L 0,7.0710589 L 7.0710462,0 L 0,-7.0710768 z "
         style="fill-rule:evenodd;stroke:black;stroke-width:1pt;marker-start:none"
         transform="scale(0.2,0.2)" />
    </marker>
    <marker
       inkscape:stockid="SemiCircleIn"
       orient="auto"
       refY="0"
       refX="0"
       id="SemiCircleIn"
       style="overflow:visible">
      <path
         id="path8127"
         d="M -0.37450702,-0.04569258 C -0.37450702,2.7143074 1.865493,4.9543074 4.625493,4.9543074 L 4.625493,-5.0456926 C 1.865493,-5.0456926 -0.37450702,-2.8056926 -0.37450702,-0.04569258 z "
         style="fill-rule:evenodd;stroke:black;stroke-width:1pt;marker-start:none;marker-end:none"
         transform="scale(0.6,0.6)" />
    </marker>
    <marker
       inkscape:stockid="StopS"
       orient="auto"
       refY="0"
       refX="0"
       id="StopS"
       style="overflow:visible">
      <path
         id="path8130"
         d="M 0,5.65 L 0,-5.65"
         style="fill:none;fill-opacity:0.75;fill-rule:evenodd;stroke:black;stroke-width:1pt"
         transform="scale(0.2,0.2)" />
    </marker>
    <marker
       inkscape:stockid="StopM"
       orient="auto"
       refY="0"
       refX="0"
       id="StopM"
       style="overflow:visible">
      <path
         id="path8133"
         d="M 0,5.65 L 0,-5.65"
         style="fill:none;fill-opacity:0.75;fill-rule:evenodd;stroke:black;stroke-width:1pt"
         transform="scale(0.4,0.4)" />
    </marker>
    <marker
       inkscape:stockid="StopL"
       orient="auto"
       refY="0"
       refX="0"
       id="StopL"
       style="overflow:visible">
      <path
         id="path8136"
         d="M 0,5.65 L 0,-5.65"
         style="fill:none;fill-opacity:0.75;fill-rule:evenodd;stroke:black;stroke-width:1pt"
         transform="scale(0.8,0.8)" />
    </marker>
    <marker
       inkscape:stockid="TriangleOutS"
       orient="auto"
       refY="0"
       refX="0"
       id="TriangleOutS"
       style="overflow:visible">
      <path
         id="path8139"
         d="M 5.77,0 L -2.88,5 L -2.88,-5 L 5.77,0 z "
         style="fill-rule:evenodd;stroke:black;stroke-width:1pt;marker-start:none"
         transform="scale(0.2,0.2)" />
    </marker>
    <marker
       inkscape:stockid="TriangleOutM"
       orient="auto"
       refY="0"
       refX="0"
       id="TriangleOutM"
       style="overflow:visible">
      <path
         id="path8142"
         d="M 5.77,0 L -2.88,5 L -2.88,-5 L 5.77,0 z "
         style="fill-rule:evenodd;stroke:black;stroke-width:1pt;marker-start:none"
         transform="scale(0.4,0.4)" />
    </marker>
    <marker
       inkscape:stockid="Arrow1Send"
       orient="auto"
       refY="0"
       refX="0"
       id="Arrow1Send"
       style="overflow:visible">
      <path
         id="path8228"
         d="M 0,0 L 5,-5 L -12.5,0 L 5,5 L 0,0 z "
         style="fill-rule:evenodd;stroke:black;stroke-width:1pt;marker-start:none"
         transform="matrix(-0.2,0,0,-0.2,-1.2,0)" />
    </marker>
    <marker
       inkscape:stockid="Arrow1Mend"
       orient="auto"
       refY="0"
       refX="0"
       id="Arrow1Mend"
       style="overflow:visible">
      <path
         id="path8234"
         d="M 0,0 L 5,-5 L -12.5,0 L 5,5 L 0,0 z "
         style="fill-rule:evenodd;stroke:black;stroke-width:1pt;marker-start:none"
         transform="matrix(-0.4,0,0,-0.4,-4,0)" />
    </marker>
    <marker
       inkscape:stockid="Arrow2Lend"
       orient="auto"
       refY="0"
       refX="0"
       id="Arrow2Lend"
       style="overflow:visible">
      <path
         id="path8222"
         style="font-size:12px;fill-rule:evenodd;stroke-width:0.625;stroke-linejoin:round"
         d="M 8.7185878,4.0337352 L -2.2072895,0.016013256 L 8.7185884,-4.0017078 C 6.97309,-1.6296469 6.9831476,1.6157441 8.7185878,4.0337352 z "
         transform="matrix(-1.1,0,0,-1.1,-1.1,0)" />
    </marker>
    <marker
       inkscape:stockid="Arrow1Lend"
       orient="auto"
       refY="0"
       refX="0"
       id="Arrow1Lend"
       style="overflow:visible">
      <path
         id="path8240"
         d="M 0,0 L 5,-5 L -12.5,0 L 5,5 L 0,0 z "
         style="fill-rule:evenodd;stroke:black;stroke-width:1pt;marker-start:none"
         transform="matrix(-0.8,0,0,-0.8,-10,0)" />
    </marker>
    <marker
       inkscape:stockid="Arrow2Mend"
       orient="auto"
       refY="0"
       refX="0"
       id="Arrow2Mend"
       style="overflow:visible">
      <path
         id="path8216"
         style="font-size:12px;fill-rule:evenodd;stroke-width:0.625;stroke-linejoin:round"
         d="M 8.7185878,4.0337352 L -2.2072895,0.016013256 L 8.7185884,-4.0017078 C 6.97309,-1.6296469 6.9831476,1.6157441 8.7185878,4.0337352 z "
         transform="scale(-0.6,-0.6)" />
    </marker>
    <linearGradient
       id="linearGradient7998">
      <stop
         style="stop-color:#4999c3;stop-opacity:1;"
         offset="0"
         id="stop8000" />
      <stop
         style="stop-color:#dfedf4;stop-opacity:1"
         offset="1"
         id="stop8002" />
    </linearGradient>
    <linearGradient
       id="linearGradient5574"
       inkscape:collect="always">
      <stop
         id="stop5576"
         offset="0"
         style="stop-color:#368ebc;stop-opacity:1;" />
      <stop
         id="stop5578"
         offset="1"
         style="stop-color:#368ebc;stop-opacity:0;" />
    </linearGradient>
    <linearGradient
       inkscape:collect="always"
       id="linearGradient5560">
      <stop
         style="stop-color:#368ebc;stop-opacity:1;"
         offset="0"
         id="stop5562" />
      <stop
         style="stop-color:#368ebc;stop-opacity:0;"
         offset="1"
         id="stop5564" />
    </linearGradient>
    <linearGradient
       id="linearGradient2843">
      <stop
         style="stop-color:aqua;stop-opacity:1;"
         offset="0"
         id="stop2845" />
      <stop
         style="stop-color:aqua;stop-opacity:0;"
         offset="1"
         id="stop2847" />
    </linearGradient>
    <linearGradient
       inkscape:collect="always"
       xlink:href="#linearGradient5560"
       id="linearGradient5570"
       x1="186.8833"
       y1="258.88736"
       x2="342.43665"
       y2="258.88736"
       gradientUnits="userSpaceOnUse"
       gradientTransform="translate(-28.78938,-10.6066)" />
    <linearGradient
       inkscape:collect="always"
       xlink:href="#linearGradient5574"
       id="linearGradient5572"
       x1="186.8833"
       y1="258.88736"
       x2="342.43665"
       y2="258.88736"
       gradientUnits="userSpaceOnUse"
       gradientTransform="translate(-28.78938,-10.6066)" />
    <linearGradient
       inkscape:collect="always"
       xlink:href="#linearGradient5560"
       id="linearGradient6286"
       gradientUnits="userSpaceOnUse"
       gradientTransform="translate(-28.78938,-10.6066)"
       x1="198.50008"
       y1="334.6488"
       x2="338.39603"
       y2="334.6488" />
    <linearGradient
       inkscape:collect="always"
       xlink:href="#linearGradient5574"
       id="linearGradient6288"
       gradientUnits="userSpaceOnUse"
       gradientTransform="translate(-28.78938,-10.6066)"
       x1="198.50008"
       y1="334.6488"
       x2="338.39603"
       y2="334.6488" />
    <linearGradient
       inkscape:collect="always"
       xlink:href="#linearGradient5560"
       id="linearGradient6318"
       gradientUnits="userSpaceOnUse"
       gradientTransform="translate(-28.78938,-10.6066)"
       x1="186.8833"
       y1="258.88736"
       x2="342.43665"
       y2="258.88736" />
    <linearGradient
       inkscape:collect="always"
       xlink:href="#linearGradient5574"
       id="linearGradient6320"
       gradientUnits="userSpaceOnUse"
       gradientTransform="translate(-28.78938,-10.6066)"
       x1="186.8833"
       y1="258.88736"
       x2="342.43665"
       y2="258.88736" />
    <linearGradient
       inkscape:collect="always"
       xlink:href="#linearGradient5560"
       id="linearGradient6322"
       gradientUnits="userSpaceOnUse"
       gradientTransform="translate(-28.78938,-10.6066)"
       x1="186.8833"
       y1="258.88736"
       x2="342.43665"
       y2="258.88736" />
    <linearGradient
       inkscape:collect="always"
       xlink:href="#linearGradient5574"
       id="linearGradient6324"
       gradientUnits="userSpaceOnUse"
       gradientTransform="translate(-28.78938,-10.6066)"
       x1="186.8833"
       y1="258.88736"
       x2="342.43665"
       y2="258.88736" />
    <linearGradient
       inkscape:collect="always"
       xlink:href="#linearGradient5560"
       id="linearGradient6360"
       gradientUnits="userSpaceOnUse"
       gradientTransform="translate(-28.78938,-10.6066)"
       x1="62.634563"
       y1="238.17921"
       x2="194.4493"
       y2="238.17921" />
    <linearGradient
       inkscape:collect="always"
       xlink:href="#linearGradient5574"
       id="linearGradient6362"
       gradientUnits="userSpaceOnUse"
       gradientTransform="translate(-28.78938,-10.6066)"
       x1="62.634563"
       y1="238.17921"
       x2="194.4493"
       y2="238.17921" />
    <linearGradient
       inkscape:collect="always"
       xlink:href="#linearGradient5574"
       id="linearGradient6366"
       gradientUnits="userSpaceOnUse"
       gradientTransform="translate(-28.78938,-10.6066)"
       x1="197.995"
       y1="238.43176"
       x2="335.36557"
       y2="238.43176" />
    <linearGradient
       inkscape:collect="always"
       xlink:href="#linearGradient5560"
       id="linearGradient6368"
       gradientUnits="userSpaceOnUse"
       gradientTransform="translate(-28.78938,-10.6066)"
       x1="197.995"
       y1="238.43176"
       x2="335.36557"
       y2="238.43176" />
    <linearGradient
       inkscape:collect="always"
       xlink:href="#linearGradient5560"
       id="linearGradient6384"
       gradientUnits="userSpaceOnUse"
       gradientTransform="translate(-28.78938,-10.6066)"
       x1="64.149796"
       y1="336.16403"
       x2="191.41884"
       y2="336.16403" />
    <linearGradient
       inkscape:collect="always"
       xlink:href="#linearGradient5574"
       id="linearGradient6386"
       gradientUnits="userSpaceOnUse"
       gradientTransform="translate(-28.78938,-10.6066)"
       x1="64.149796"
       y1="336.16403"
       x2="191.41884"
       y2="336.16403" />
    <linearGradient
       inkscape:collect="always"
       xlink:href="#linearGradient5574"
       id="linearGradient6697"
       gradientUnits="userSpaceOnUse"
       gradientTransform="matrix(0.878297,0,0,1.07309,106.2325,-34.54267)"
       x1="62.634563"
       y1="238.17921"
       x2="194.4493"
       y2="238.17921" />
    <linearGradient
       inkscape:collect="always"
       xlink:href="#linearGradient5574"
       id="linearGradient7600"
       x1="313.84503"
       y1="359.00119"
       x2="313.80121"
       y2="287.64514"
       gradientUnits="userSpaceOnUse"
       gradientTransform="matrix(0.878297,0,0,1.07309,131.5181,-23.16083)" />
    <linearGradient
       inkscape:collect="always"
       xlink:href="#linearGradient5574"
       id="linearGradient2092"
       gradientUnits="userSpaceOnUse"
       gradientTransform="matrix(0.900645,0,0,1.101977,124.1999,134.0473)"
       x1="313.84503"
       y1="359.00119"
       x2="313.80127"
       y2="272.88184" />
    <linearGradient
       inkscape:collect="always"
       xlink:href="#linearGradient5574"
       id="linearGradient2094"
       gradientUnits="userSpaceOnUse"
       gradientTransform="matrix(0.900645,0,0,1.101977,98.2709,122.359)"
       x1="62.634563"
       y1="238.17921"
       x2="194.4493"
       y2="238.17921" />
    <linearGradient
       inkscape:collect="always"
       xlink:href="#linearGradient5574"
       id="linearGradient2122"
       gradientUnits="userSpaceOnUse"
       gradientTransform="matrix(0.811445,0,0,0.922463,304.4844,20.50391)"
       x1="313.84503"
       y1="359.00119"
       x2="313.81833"
       y2="283.2218" />
    <linearGradient
       inkscape:collect="always"
       xlink:href="#linearGradient5574"
       id="linearGradient2124"
       gradientUnits="userSpaceOnUse"
       gradientTransform="matrix(0.811445,0,0,0.922463,281.1234,10.7197)"
       x1="62.634563"
       y1="238.17921"
       x2="194.4493"
       y2="238.17921" />
    <linearGradient
       inkscape:collect="always"
       xlink:href="#linearGradient5574"
       id="linearGradient2354"
       gradientUnits="userSpaceOnUse"
       gradientTransform="matrix(1.677241,0,0,0.578539,-416.1203,124.8297)"
       x1="313.84503"
       y1="359.00119"
       x2="314.00858"
       y2="256.83356" />
    <linearGradient
       inkscape:collect="always"
       xlink:href="#linearGradient5574"
       id="linearGradient2356"
       gradientUnits="userSpaceOnUse"
       gradientTransform="matrix(1.677241,0,0,0.578539,-464.4073,118.6934)"
       x1="62.634563"
       y1="238.17921"
       x2="194.4493"
       y2="238.17921" />
    <linearGradient
       inkscape:collect="always"
       xlink:href="#linearGradient5574"
       id="linearGradient2358"
       gradientUnits="userSpaceOnUse"
       gradientTransform="matrix(1.588396,0,0,0.405713,-355.8086,226.7087)"
       x1="313.84503"
       y1="359.00119"
       x2="314.04102"
       y2="237.59361" />
    <linearGradient
       inkscape:collect="always"
       xlink:href="#linearGradient5574"
       id="linearGradient2360"
       gradientUnits="userSpaceOnUse"
       gradientTransform="matrix(1.588396,0,0,0.405713,-401.5377,222.4054)"
       x1="62.634563"
       y1="238.17921"
       x2="194.4493"
       y2="238.17921" />
    <linearGradient
       inkscape:collect="always"
       xlink:href="#linearGradient5574"
       id="linearGradient2400"
       gradientUnits="userSpaceOnUse"
       gradientTransform="matrix(1.677241,0,0,0.578539,-416.1203,124.8297)"
       x1="313.84503"
       y1="359.00119"
       x2="314.00858"
       y2="252.57657" />
    <linearGradient
       inkscape:collect="always"
       xlink:href="#linearGradient5574"
       id="linearGradient2402"
       gradientUnits="userSpaceOnUse"
       gradientTransform="matrix(1.677241,0,0,0.578539,-464.4073,118.6934)"
       x1="62.634563"
       y1="238.17921"
       x2="194.4493"
       y2="238.17921" />
    <linearGradient
       inkscape:collect="always"
       xlink:href="#linearGradient5574"
       id="linearGradient2404"
       gradientUnits="userSpaceOnUse"
       gradientTransform="matrix(1.588396,0,0,0.405713,-355.8086,226.7087)"
       x1="313.84503"
       y1="359.00119"
       x2="314.04102"
       y2="228.48802" />
    <linearGradient
       inkscape:collect="always"
       xlink:href="#linearGradient5574"
       id="linearGradient2406"
       gradientUnits="userSpaceOnUse"
       gradientTransform="matrix(1.588396,0,0,0.405713,-401.5377,222.4054)"
       x1="62.634563"
       y1="238.17921"
       x2="194.4493"
       y2="238.17921" />
    <linearGradient
       inkscape:collect="always"
       xlink:href="#linearGradient3324"
       id="linearGradient3330"
       x1="-212.02496"
       y1="359.94892"
       x2="-211.98309"
       y2="503.02939"
       gradientUnits="userSpaceOnUse" />
    <linearGradient
       inkscape:collect="always"
       xlink:href="#linearGradient5574"
       id="linearGradient3600"
       gradientUnits="userSpaceOnUse"
       gradientTransform="matrix(1.286258,0,0,0.406459,-749.2291,428.2815)"
       x1="313.84503"
       y1="359.00119"
       x2="314.01883"
       y2="207.52025" />
    <linearGradient
       inkscape:collect="always"
       xlink:href="#linearGradient5574"
       id="linearGradient3602"
       gradientUnits="userSpaceOnUse"
       gradientTransform="matrix(1.286258,0,0,0.406459,-786.2598,423.9703)"
       x1="62.634563"
       y1="238.17921"
       x2="194.4493"
       y2="238.17921" />
    <linearGradient
       inkscape:collect="always"
       xlink:href="#linearGradient5574"
       id="linearGradient3613"
       gradientUnits="userSpaceOnUse"
       gradientTransform="matrix(1.588396,0,0,0.405713,-355.8086,226.7087)"
       x1="313.84503"
       y1="359.00119"
       x2="314.04102"
       y2="240.6288" />
    <linearGradient
       inkscape:collect="always"
       xlink:href="#linearGradient5574"
       id="linearGradient3615"
       gradientUnits="userSpaceOnUse"
       gradientTransform="matrix(1.588396,0,0,0.405713,-401.5377,222.4054)"
       x1="62.634563"
       y1="238.17921"
       x2="194.4493"
       y2="238.17921" />
    <linearGradient
       inkscape:collect="always"
       xlink:href="#linearGradient5574"
       id="linearGradient3626"
       gradientUnits="userSpaceOnUse"
       gradientTransform="matrix(1.677241,0,0,0.578539,-416.1203,124.8297)"
       x1="313.84503"
       y1="359.00119"
       x2="314.00858"
       y2="258.96207" />
    <linearGradient
       inkscape:collect="always"
       xlink:href="#linearGradient5574"
       id="linearGradient3628"
       gradientUnits="userSpaceOnUse"
       gradientTransform="matrix(1.677241,0,0,0.578539,-464.4073,118.6934)"
       x1="62.634563"
       y1="238.17921"
       x2="194.4493"
       y2="238.17921" />
    <linearGradient
       inkscape:collect="always"
       xlink:href="#linearGradient5574"
       id="linearGradient3648"
       gradientUnits="userSpaceOnUse"
       gradientTransform="matrix(1.270357,0,0,0.406501,-744.2342,474.4164)"
       x1="313.84503"
       y1="359.00119"
       x2="314.01749"
       y2="437.76315" />
    <linearGradient
       inkscape:collect="always"
       xlink:href="#linearGradient5574"
       id="linearGradient3650"
       gradientUnits="userSpaceOnUse"
       gradientTransform="matrix(1.270357,0,0,0.406501,-780.8071,470.1048)"
       x1="62.634563"
       y1="238.17921"
       x2="194.4493"
       y2="238.17921" />
    <linearGradient
       inkscape:collect="always"
       xlink:href="#linearGradient3656"
       id="linearGradient3688"
       gradientUnits="userSpaceOnUse"
       gradientTransform="matrix(1.362745,0,0,0.795324,13.39994,151.5019)"
       x1="-123.00717"
       y1="774.06222"
       x2="-122.96973"
       y2="657.08441" />
    <linearGradient
       inkscape:collect="always"
       xlink:href="#linearGradient3718"
       id="linearGradient3732"
       gradientUnits="userSpaceOnUse"
       gradientTransform="translate(0,-6.282391)"
       x1="-614.63916"
       y1="890.46814"
       x2="-614.79437"
       y2="794.21783" />
    <linearGradient
       inkscape:collect="always"
       xlink:href="#linearGradient6713"
       id="linearGradient6719"
       x1="167.43973"
       y1="281.56427"
       x2="169.20255"
       y2="645.92651"
       gradientUnits="userSpaceOnUse" />
    <linearGradient
       inkscape:collect="always"
       xlink:href="#linearGradient6721"
       id="linearGradient6732"
       gradientUnits="userSpaceOnUse"
       x1="529.50879"
       y1="279.66437"
       x2="529.50879"
       y2="642.90082"
       gradientTransform="translate(2.0591673e-7,-2.5965879e-6)" />
    <linearGradient
       inkscape:collect="always"
       xlink:href="#linearGradient5574"
       id="linearGradient6743"
       gradientUnits="userSpaceOnUse"
       gradientTransform="matrix(0.900645,0,0,1.101977,124.1999,134.0473)"
       x1="313.84503"
       y1="359.00119"
       x2="313.80127"
       y2="272.88184" />
    <linearGradient
       inkscape:collect="always"
       xlink:href="#linearGradient5574"
       id="linearGradient6745"
       gradientUnits="userSpaceOnUse"
       gradientTransform="matrix(0.900645,0,0,1.101977,98.270902,122.359)"
       x1="62.634563"
       y1="238.17921"
       x2="194.4493"
       y2="238.17921" />
  </defs>
  <sodipodi:namedview
     id="base"
     pagecolor="#ffffff"
     bordercolor="#666666"
     borderopacity="1.0"
     gridtolerance="10000"
     guidetolerance="10"
     objecttolerance="10"
     inkscape:pageopacity="0.0"
     inkscape:pageshadow="2"
     inkscape:zoom="0.20301834"
     inkscape:cx="-95.120734"
     inkscape:cy="341.19604"
     inkscape:document-units="px"
     inkscape:current-layer="layer4"
     inkscape:window-width="1014"
     inkscape:window-height="714"
     inkscape:window-x="0"
     inkscape:window-y="25"
     showgrid="false" />
  <metadata
     id="metadata7">
    <rdf:RDF>
      <cc:Work
         rdf:about="">
        <dc:format>image/svg+xml</dc:format>
        <dc:type
           rdf:resource="http://purl.org/dc/dcmitype/StillImage" />
      </cc:Work>
    </rdf:RDF>
  </metadata>
  <g
     inkscape:groupmode="layer"
     id="layer3"
     inkscape:label="modules"
     style="display:inline">
    <rect
       inkscape:export-ydpi="100.07"
       inkscape:export-xdpi="100.07"
       inkscape:export-filename="/home/pelletib/sb/sb50/jonas_doc/src/resources/images/clustering/sampleCluster2.png"
       ry="28.809412"
       rx="37.556881"
       y="281.89362"
       x="-24.331795"
       height="363.70355"
       width="366.83463"
       id="rect2412"
       style="opacity:0.57894736000000002;fill:url(#linearGradient6719);fill-opacity:1;stroke:#ffffff;stroke-width:0.65869939000000000;stroke-linejoin:miter;stroke-miterlimit:4;stroke-dasharray:none;stroke-dashoffset:0;stroke-opacity:1;display:inline" />
    <flowRoot
       inkscape:export-ydpi="100.07"
       inkscape:export-xdpi="100.07"
       inkscape:export-filename="/home/pelletib/sb/sb50/jonas_doc/src/resources/images/clustering/sampleCluster2.png"
       transform="matrix(3.21718,0,0,5.448443,-117.94379,-1552.9249)"
       style="opacity:1;fill:#2c7d4a;fill-opacity:1;display:inline"
       id="flowRoot2416"
       xml:space="preserve"
       inkscape:transform-center-x="52.662076"
       inkscape:transform-center-y="-72.197103"><flowRegion
         id="flowRegion2418"><rect
           style="fill:#2c7d4a;fill-opacity:1"
           y="389.19702"
           x="84.34774"
           height="14.339717"
           width="24.515364"
           id="rect2420" /></flowRegion><flowPara
         style="font-size:10px;font-style:italic;font-variant:normal;font-weight:normal;font-stretch:normal;text-align:start;line-height:125%;writing-mode:lr-tb;text-anchor:start;fill:#2c7d4a;fill-opacity:1;font-family:Sans"
         id="flowPara2422">WEB</flowPara></flowRoot>    <path
       inkscape:export-ydpi="100.07"
       inkscape:export-xdpi="100.07"
       inkscape:export-filename="/home/pelletib/sb/sb50/jonas_doc/src/resources/images/clustering/sampleCluster2.png"
       style="opacity:1;fill:none;fill-rule:evenodd;stroke:#000000;stroke-width:1px;stroke-linecap:butt;stroke-linejoin:miter;marker-end:url(#Arrow2Lend);stroke-opacity:1;display:inline"
       d="M 502.43063,511.61588 C 539.7088,511.87751 554.3718,511.58403 558.23596,511.30802"
       id="path4637"
       sodipodi:nodetypes="cc" />
  </g>
  <g
     inkscape:groupmode="layer"
     id="layer2"
     inkscape:label="background"
     style="display:inline" />
  <g
     inkscape:groupmode="layer"
     id="layer4"
     inkscape:label="ear">
    <g
       id="g3569"
       inkscape:export-filename="/home/pelletib/sb/sb50/jonas_doc/src/resources/images/clustering/sampleCluster2.png"
       inkscape:export-xdpi="100.07"
       inkscape:export-ydpi="100.07">
      <rect
         ry="0"
         rx="0.44354331"
         y="221.69391"
         x="-41.775578"
         height="449.26303"
         width="731.38361"
         id="rect3557"
         style="fill:none;fill-opacity:1;stroke:#65a8cb;stroke-width:2.19400001;stroke-linejoin:miter;stroke-miterlimit:4;stroke-dasharray:none;stroke-opacity:1" />
      <flowRoot
         inkscape:export-ydpi="72.910004"
         inkscape:export-xdpi="72.910004"
         inkscape:export-filename="/home/pelletib/doc/web/demo/clusterdemoarchitecture500.png"
         xml:space="preserve"
         id="flowRoot8006"
         style="opacity:1;fill:#3f93bf;fill-opacity:1;display:inline"
         transform="matrix(1.716196,0,0,3.214078,53.07498,-1034.394)"><flowRegion
           id="flowRegion8008"><rect
             id="rect8010"
             width="200.01019"
             height="45.961941"
             x="84.34774"
             y="389.19702"
             style="fill:#3f93bf;fill-opacity:1" /></flowRegion><flowPara
           id="flowPara8012"
           style="font-size:14px;font-style:italic;font-variant:normal;font-weight:bold;font-stretch:normal;text-align:start;line-height:125%;writing-mode:lr-tb;text-anchor:start;fill:#3f93bf;fill-opacity:1;font-family:Sans">sampleCluster2.ear</flowPara></flowRoot>    </g>
    <rect
       ry="0"
       rx="0.11619965"
       y="471.69775"
       x="-364.75034"
       height="200.34303"
       width="191.60817"
       id="rect3578"
       style="fill:none;fill-opacity:1;stroke:#65a8cb;stroke-width:2.05386782;stroke-linejoin:miter;stroke-miterlimit:4;stroke-dasharray:none;stroke-opacity:1"
       inkscape:export-filename="/home/pelletib/sb/sb50/jonas_doc/src/resources/images/clustering/sampleCluster2.png"
       inkscape:export-xdpi="100.07"
       inkscape:export-ydpi="100.07" />
    <flowRoot
       inkscape:export-ydpi="100.07"
       inkscape:export-xdpi="100.07"
       inkscape:export-filename="/home/pelletib/sb/sb50/jonas_doc/src/resources/images/clustering/sampleCluster2.png"
       xml:space="preserve"
       id="flowRoot3580"
       style="fill:#3f93bf;fill-opacity:1;display:inline"
       transform="matrix(1.721875,0,0,3.037398,-493.3704,-708.5384)"><flowRegion
         id="flowRegion3582"><rect
           id="rect3584"
           width="200.01019"
           height="45.961941"
           x="84.34774"
           y="389.19702"
           style="fill:#3f93bf;fill-opacity:1" /></flowRegion><flowPara
         id="flowPara3586"
         style="font-size:14px;font-style:italic;font-variant:normal;font-weight:bold;font-stretch:normal;text-align:start;line-height:125%;writing-mode:lr-tb;text-anchor:start;fill:#3f93bf;fill-opacity:1;font-family:Sans">java client</flowPara></flowRoot>    <rect
       style="opacity:0.57894736;fill:url(#linearGradient6732);fill-opacity:1;stroke:#ffffff;stroke-width:0.56493604;stroke-linejoin:miter;stroke-miterlimit:4;stroke-dasharray:none;stroke-dashoffset:0;stroke-opacity:1;display:inline"
       id="rect7988"
       width="270.6004"
       height="362.67151"
       x="386.8201"
       y="282.40967"
       rx="35.537483"
       ry="30.547762"
       inkscape:export-filename="/home/pelletib/sb/sb50/jonas_doc/src/resources/images/clustering/sampleCluster2.png"
       inkscape:export-xdpi="100.07"
       inkscape:export-ydpi="100.07" />
    <rect
       rx="45.371216"
       ry="46.589447"
       y="468.87543"
       x="556.63422"
       height="93.178894"
       width="98.444771"
       id="rect4607"
       style="opacity:1;fill:url(#linearGradient6743);fill-opacity:1;stroke:url(#linearGradient6745);stroke-width:0.78902102;stroke-linejoin:miter;stroke-miterlimit:4;stroke-dasharray:none;stroke-opacity:1;display:inline"
       inkscape:export-filename="/home/pelletib/sb/sb50/jonas_doc/src/resources/images/clustering/sampleCluster2.png"
       inkscape:export-xdpi="100.07"
       inkscape:export-ydpi="100.07" />
    <flowRoot
       transform="matrix(1.2147453,0,0,2.3069676,181.2374,-48.592863)"
       style="font-size:10px;font-style:normal;font-variant:normal;font-weight:normal;font-stretch:normal;text-align:center;line-height:125%;writing-mode:lr-tb;text-anchor:middle;opacity:1;fill:#ffffff;display:inline;font-family:Bitstream Charter;-inkscape-font-specification:Bitstream Charter"
       id="flowRoot4609"
       xml:space="preserve"
       inkscape:export-filename="/home/pelletib/sb/sb50/jonas_doc/src/resources/images/clustering/sampleCluster2.png"
       inkscape:export-xdpi="100.07"
       inkscape:export-ydpi="100.07"><flowRegion
         id="flowRegion4611"><rect
           style="font-size:10px;font-style:normal;font-variant:normal;font-weight:normal;font-stretch:normal;text-align:center;line-height:125%;writing-mode:lr-tb;text-anchor:middle;fill:#ffffff;font-family:Bitstream Charter;-inkscape-font-specification:Bitstream Charter"
           y="235.65385"
           x="290.41885"
           height="19.511211"
           width="119.79375"
           id="rect4613" /></flowRegion><flowPara
         id="flowPara4639">myStateFulInner</flowPara></flowRoot>    <flowRoot
       inkscape:export-ydpi="100.07"
       inkscape:export-xdpi="100.07"
       inkscape:export-filename="/home/pelletib/sb/sb50/jonas_doc/src/resources/images/clustering/sampleCluster2.png"
       xml:space="preserve"
       id="flowRoot4625"
       style="font-size:10px;font-style:normal;font-variant:normal;font-weight:normal;font-stretch:normal;text-align:center;line-height:125%;writing-mode:lr-tb;text-anchor:middle;opacity:1;display:inline;font-family:Bitstream Charter"
       transform="matrix(0.974356,0,0,1.449797,265.47663,134.01798)"><flowRegion
         id="flowRegion4627"><rect
           id="rect4629"
           width="119.79375"
           height="19.511211"
           x="290.41885"
           y="235.65385"
           style="font-size:10px;font-style:normal;font-variant:normal;font-weight:normal;font-stretch:normal;text-align:center;line-height:125%;writing-mode:lr-tb;text-anchor:middle;font-family:Bitstream Charter" /></flowRegion><flowPara
         id="flowPara4631"
         style="font-size:14.26243496px;font-style:normal;font-variant:normal;font-weight:bold;font-stretch:normal;text-align:center;line-height:125%;writing-mode:lr-tb;text-anchor:middle;fill:#ffffff;fill-opacity:1;font-family:Sans">SFSB</flowPara></flowRoot>    <flowRoot
       xml:space="preserve"
       id="flowRoot7662"
       style="opacity:1;fill:#2c7d4a;fill-opacity:1;display:inline"
       transform="matrix(3.9791,0,0,5.187213,155.08135,-1455.1227)"
       inkscape:export-filename="/home/pelletib/sb/sb50/jonas_doc/src/resources/images/clustering/sampleCluster2.png"
       inkscape:export-xdpi="100.07"
       inkscape:export-ydpi="100.07"><flowRegion
         id="flowRegion7664"><rect
           id="rect7666"
           width="24.515364"
           height="14.339717"
           x="84.34774"
           y="389.19702"
           style="fill:#2c7d4a;fill-opacity:1" /></flowRegion><flowPara
         id="flowPara7668"
         style="font-size:10px;font-style:italic;font-variant:normal;font-weight:normal;font-stretch:normal;text-align:start;line-height:125%;writing-mode:lr-tb;text-anchor:start;fill:#2c7d4a;fill-opacity:1;font-family:Sans">EJB</flowPara></flowRoot>  </g>
  <g
     inkscape:label="figure"
     inkscape:groupmode="layer"
     id="layer1"
     style="opacity:1;display:inline">
    <rect
       rx="44.245426"
       ry="45.368099"
       y="316.71161"
       x="407.5152"
       height="90.736198"
       width="96.002068"
       id="rect6621"
       style="fill:url(#linearGradient7600);fill-opacity:1;stroke:url(#linearGradient6697);stroke-width:0.76888967;stroke-linejoin:miter;stroke-miterlimit:4;stroke-dasharray:none;stroke-opacity:1"
       inkscape:export-filename="/home/pelletib/sb/sb50/jonas_doc/src/resources/images/clustering/sampleCluster2.png"
       inkscape:export-xdpi="100.07"
       inkscape:export-ydpi="100.07" />
    <flowRoot
       transform="matrix(0.974356,0,0,1.449797,112.3677,-4.135814)"
       style="font-size:10px;font-style:normal;font-variant:normal;font-weight:normal;font-stretch:normal;text-align:center;line-height:125%;writing-mode:lr-tb;text-anchor:middle;font-family:Bitstream Charter"
       id="flowRoot6623"
       xml:space="preserve"
       inkscape:export-filename="/home/pelletib/sb/sb50/jonas_doc/src/resources/images/clustering/sampleCluster2.png"
       inkscape:export-xdpi="100.07"
       inkscape:export-ydpi="100.07"><flowRegion
         id="flowRegion6625"><rect
           style="font-size:10px;font-style:normal;font-variant:normal;font-weight:normal;font-stretch:normal;text-align:center;line-height:125%;writing-mode:lr-tb;text-anchor:middle;font-family:Bitstream Charter"
           y="235.65385"
           x="290.41885"
           height="19.511211"
           width="119.79375"
           id="rect6627" /></flowRegion><flowPara
         style="font-size:14.26243496px;font-style:normal;font-variant:normal;font-weight:normal;font-stretch:normal;text-align:center;line-height:125%;writing-mode:lr-tb;text-anchor:middle;fill:white;fill-opacity:1;font-family:Sans"
         id="flowPara6629">myEjb1</flowPara></flowRoot>    <flowRoot
       inkscape:export-ydpi="100.07"
       inkscape:export-xdpi="100.07"
       inkscape:export-filename="/home/pelletib/sb/sb50/jonas_doc/src/resources/images/clustering/sampleCluster2.png"
       xml:space="preserve"
       id="flowRoot2050"
       style="font-size:13.46193695px;font-style:normal;font-variant:normal;font-weight:normal;font-stretch:normal;text-align:center;line-height:125%;writing-mode:lr-tb;text-anchor:middle;font-family:Bitstream Charter"
       transform="matrix(0.974356,0,0,1.449797,114.3677,15.86419)"><flowRegion
         id="flowRegion2052"><rect
           id="rect2054"
           width="119.79375"
           height="19.511211"
           x="290.41885"
           y="235.65385"
           style="font-size:13.46193695px;font-style:normal;font-variant:normal;font-weight:normal;font-stretch:normal;text-align:center;line-height:125%;writing-mode:lr-tb;text-anchor:middle;font-family:Bitstream Charter" /></flowRegion><flowPara
         id="flowPara2056"
         style="font-size:13.46193695px;font-style:normal;font-variant:normal;font-weight:normal;font-stretch:normal;text-align:center;line-height:125%;writing-mode:lr-tb;text-anchor:middle;fill:white;fill-opacity:1;font-family:Bitstream Charter">getInfoProps()</flowPara></flowRoot>    <flowRoot
       inkscape:export-ydpi="100.07"
       inkscape:export-xdpi="100.07"
       inkscape:export-filename="/home/pelletib/sb/sb50/jonas_doc/src/resources/images/clustering/sampleCluster2.png"
       xml:space="preserve"
       id="flowRoot2058"
       style="font-size:10px;font-style:normal;font-variant:normal;font-weight:normal;font-stretch:normal;text-align:center;line-height:125%;writing-mode:lr-tb;text-anchor:middle;font-family:Bitstream Charter"
       transform="matrix(0.974356,0,0,1.449797,112.3677,-24.13581)"><flowRegion
         id="flowRegion2060"><rect
           id="rect2062"
           width="119.79375"
           height="19.511211"
           x="290.41885"
           y="235.65385"
           style="font-size:10px;font-style:normal;font-variant:normal;font-weight:normal;font-stretch:normal;text-align:center;line-height:125%;writing-mode:lr-tb;text-anchor:middle;font-family:Bitstream Charter" /></flowRegion><flowPara
         id="flowPara2064"
         style="font-size:14.26243496px;font-style:normal;font-variant:normal;font-weight:bold;font-stretch:normal;text-align:center;line-height:125%;writing-mode:lr-tb;text-anchor:middle;fill:white;fill-opacity:1;font-family:Sans">SSB</flowPara></flowRoot>    <rect
       inkscape:export-ydpi="100.07"
       inkscape:export-xdpi="100.07"
       inkscape:export-filename="/home/pelletib/sb/sb50/jonas_doc/src/resources/images/clustering/sampleCluster2.png"
       style="fill:url(#linearGradient2092);fill-opacity:1;stroke:url(#linearGradient2094);stroke-width:0.78902102;stroke-linejoin:miter;stroke-miterlimit:4;stroke-dasharray:none;stroke-opacity:1"
       id="rect2066"
       width="98.444771"
       height="93.178894"
       x="407.21951"
       y="483.06946"
       ry="46.589447"
       rx="45.371216" />
    <flowRoot
       inkscape:export-ydpi="100.07"
       inkscape:export-xdpi="100.07"
       inkscape:export-filename="/home/pelletib/sb/sb50/jonas_doc/src/resources/images/clustering/sampleCluster2.png"
       xml:space="preserve"
       id="flowRoot2068"
       style="font-size:10px;font-style:normal;font-variant:normal;font-weight:normal;font-stretch:normal;text-align:center;line-height:125%;writing-mode:lr-tb;text-anchor:middle;font-family:Bitstream Charter"
       transform="matrix(0.974356,0,0,1.449797,116.0619,168.212)"><flowRegion
         id="flowRegion2070"><rect
           id="rect2072"
           width="119.79375"
           height="19.511211"
           x="290.41885"
           y="235.65385"
           style="font-size:10px;font-style:normal;font-variant:normal;font-weight:normal;font-stretch:normal;text-align:center;line-height:125%;writing-mode:lr-tb;text-anchor:middle;font-family:Bitstream Charter" /></flowRegion><flowPara
         id="flowPara2074"
         style="font-size:14.26243496px;font-style:normal;font-variant:normal;font-weight:normal;font-stretch:normal;text-align:center;line-height:125%;writing-mode:lr-tb;text-anchor:middle;fill:white;fill-opacity:1;font-family:Sans">myStateFul</flowPara></flowRoot>    <flowRoot
       transform="matrix(0.974356,0,0,1.449797,116.0619,196.212)"
       style="font-size:13.46193695px;font-style:normal;font-variant:normal;font-weight:normal;font-stretch:normal;text-align:center;line-height:125%;writing-mode:lr-tb;text-anchor:middle;font-family:Bitstream Charter"
       id="flowRoot2076"
       xml:space="preserve"
       inkscape:export-filename="/home/pelletib/sb/sb50/jonas_doc/src/resources/images/clustering/sampleCluster2.png"
       inkscape:export-xdpi="100.07"
       inkscape:export-ydpi="100.07"><flowRegion
         id="flowRegion2078"><rect
           style="font-size:13.46193695px;font-style:normal;font-variant:normal;font-weight:normal;font-stretch:normal;text-align:center;line-height:125%;writing-mode:lr-tb;text-anchor:middle;font-family:Bitstream Charter"
           y="235.65385"
           x="290.41885"
           height="19.511211"
           width="119.79375"
           id="rect2080" /></flowRegion><flowPara
         style="font-size:13.46193695px;font-style:normal;font-variant:normal;font-weight:normal;font-stretch:normal;text-align:center;line-height:125%;writing-mode:lr-tb;text-anchor:middle;fill:white;fill-opacity:1;font-family:Bitstream Charter"
         id="flowPara2082">log()</flowPara></flowRoot>    <flowRoot
       transform="matrix(0.974356,0,0,1.449797,116.0619,148.212)"
       style="font-size:10px;font-style:normal;font-variant:normal;font-weight:normal;font-stretch:normal;text-align:center;line-height:125%;writing-mode:lr-tb;text-anchor:middle;font-family:Bitstream Charter"
       id="flowRoot2084"
       xml:space="preserve"
       inkscape:export-filename="/home/pelletib/sb/sb50/jonas_doc/src/resources/images/clustering/sampleCluster2.png"
       inkscape:export-xdpi="100.07"
       inkscape:export-ydpi="100.07"><flowRegion
         id="flowRegion2086"><rect
           style="font-size:10px;font-style:normal;font-variant:normal;font-weight:normal;font-stretch:normal;text-align:center;line-height:125%;writing-mode:lr-tb;text-anchor:middle;font-family:Bitstream Charter"
           y="235.65385"
           x="290.41885"
           height="19.511211"
           width="119.79375"
           id="rect2088" /></flowRegion><flowPara
         style="font-size:14.26243496px;font-style:normal;font-variant:normal;font-weight:bold;font-stretch:normal;text-align:center;line-height:125%;writing-mode:lr-tb;text-anchor:middle;fill:white;fill-opacity:1;font-family:Sans"
         id="flowPara2090">SFSB</flowPara></flowRoot>    <rect
       rx="48.042866"
       ry="47.872765"
       y="312.66977"
       x="559.47333"
       height="95.745529"
       width="101.0114"
       id="rect2096"
       style="fill:url(#linearGradient2122);fill-opacity:1;stroke:url(#linearGradient2124);stroke-width:0.68521899;stroke-linejoin:miter;stroke-miterlimit:4;stroke-dasharray:none;stroke-opacity:1"
       inkscape:export-filename="/home/pelletib/sb/sb50/jonas_doc/src/resources/images/clustering/sampleCluster2.png"
       inkscape:export-xdpi="100.07"
       inkscape:export-ydpi="100.07" />
    <flowRoot
       transform="matrix(0.974356,0,0,1.449797,266.3677,-4.13581)"
       style="font-size:10px;font-style:normal;font-variant:normal;font-weight:normal;font-stretch:normal;text-align:center;line-height:125%;writing-mode:lr-tb;text-anchor:middle;font-family:Bitstream Charter"
       id="flowRoot2098"
       xml:space="preserve"
       inkscape:export-filename="/home/pelletib/sb/sb50/jonas_doc/src/resources/images/clustering/sampleCluster2.png"
       inkscape:export-xdpi="100.07"
       inkscape:export-ydpi="100.07"><flowRegion
         id="flowRegion2100"><rect
           style="font-size:10px;font-style:normal;font-variant:normal;font-weight:normal;font-stretch:normal;text-align:center;line-height:125%;writing-mode:lr-tb;text-anchor:middle;font-family:Bitstream Charter"
           y="235.65385"
           x="290.41885"
           height="19.511211"
           width="119.79375"
           id="rect2102" /></flowRegion><flowPara
         style="font-size:14.26243496px;font-style:normal;font-variant:normal;font-weight:normal;font-stretch:normal;text-align:center;line-height:125%;writing-mode:lr-tb;text-anchor:middle;fill:white;fill-opacity:1;font-family:Sans"
         id="flowPara2104">myEntity</flowPara></flowRoot>    <flowRoot
       inkscape:export-ydpi="100.07"
       inkscape:export-xdpi="100.07"
       inkscape:export-filename="/home/pelletib/sb/sb50/jonas_doc/src/resources/images/clustering/sampleCluster2.png"
       xml:space="preserve"
       id="flowRoot2106"
       style="font-size:13.46193696;font-style:normal;font-variant:normal;font-weight:normal;font-stretch:normal;text-align:center;line-height:125%;writing-mode:lr;text-anchor:middle;font-family:Bitstream Charter"
       transform="matrix(0.974356,0,0,1.449797,266.3677,25.8642)"><flowRegion
         id="flowRegion2108"><rect
           id="rect2110"
           width="119.79375"
           height="19.511211"
           x="290.41885"
           y="235.65385"
           style="font-size:13.46193696;font-style:normal;font-variant:normal;font-weight:normal;font-stretch:normal;text-align:center;line-height:125%;writing-mode:lr;text-anchor:middle;font-family:Bitstream Charter" /></flowRegion><flowPara
         id="flowPara2112"
         style="font-size:13.46193696;font-style:normal;font-variant:normal;font-weight:normal;font-stretch:normal;text-align:center;line-height:125%;writing-mode:lr;text-anchor:middle;fill:white;fill-opacity:1;font-family:Bitstream Charter">jonasName</flowPara><flowPara
         style="font-size:13.46193696;font-style:normal;font-variant:normal;font-weight:normal;font-stretch:normal;text-align:center;line-height:125%;writing-mode:lr;text-anchor:middle;fill:white;fill-opacity:1;font-family:Bitstream Charter"
         id="flowPara2130">number</flowPara></flowRoot>    <flowRoot
       inkscape:export-ydpi="100.07"
       inkscape:export-xdpi="100.07"
       inkscape:export-filename="/home/pelletib/sb/sb50/jonas_doc/src/resources/images/clustering/sampleCluster2.png"
       xml:space="preserve"
       id="flowRoot2114"
       style="font-size:10px;font-style:normal;font-variant:normal;font-weight:normal;font-stretch:normal;text-align:center;line-height:125%;writing-mode:lr-tb;text-anchor:middle;font-family:Bitstream Charter"
       transform="matrix(0.974356,0,0,1.449797,266.3677,-24.13581)"><flowRegion
         id="flowRegion2116"><rect
           id="rect2118"
           width="119.79375"
           height="19.511211"
           x="290.41885"
           y="235.65385"
           style="font-size:10px;font-style:normal;font-variant:normal;font-weight:normal;font-stretch:normal;text-align:center;line-height:125%;writing-mode:lr-tb;text-anchor:middle;font-family:Bitstream Charter" /></flowRegion><flowPara
         id="flowPara2120"
         style="font-size:14.26243496px;font-style:normal;font-variant:normal;font-weight:bold;font-stretch:normal;text-align:center;line-height:125%;writing-mode:lr-tb;text-anchor:middle;fill:white;fill-opacity:1;font-family:Sans">CMP2</flowPara></flowRoot>    <rect
       inkscape:export-ydpi="100.07"
       inkscape:export-xdpi="100.07"
       inkscape:export-filename="/home/pelletib/sb/sb50/jonas_doc/src/resources/images/clustering/sampleCluster2.png"
       style="fill:url(#linearGradient3626);fill-opacity:1;stroke:url(#linearGradient3628);stroke-width:0.78017026;stroke-linejoin:miter;stroke-miterlimit:4;stroke-dasharray:none;stroke-opacity:1"
       id="rect2136"
       width="183.33046"
       height="48.918961"
       x="110.93786"
       y="308.06644"
       ry="24.45948"
       rx="84.493332" />
    <flowRoot
       inkscape:export-ydpi="100.07"
       inkscape:export-xdpi="100.07"
       inkscape:export-filename="/home/pelletib/sb/sb50/jonas_doc/src/resources/images/clustering/sampleCluster2.png"
       xml:space="preserve"
       id="flowRoot2138"
       style="font-size:10px;font-style:normal;font-variant:normal;font-weight:normal;font-stretch:normal;text-align:center;line-height:125%;writing-mode:lr-tb;text-anchor:middle;font-family:Bitstream Charter"
       transform="matrix(0.974389,0,0,1.116713,-135.644,60.8801)"><flowRegion
         id="flowRegion2140"><rect
           id="rect2142"
           width="119.79375"
           height="19.511211"
           x="290.41885"
           y="235.65385"
           style="font-size:10px;font-style:normal;font-variant:normal;font-weight:normal;font-stretch:normal;text-align:center;line-height:125%;writing-mode:lr-tb;text-anchor:middle;font-family:Bitstream Charter" /></flowRegion><flowPara
         id="flowPara2144"
         style="font-size:14.26243496px;font-style:normal;font-variant:normal;font-weight:normal;font-stretch:normal;text-align:center;line-height:125%;writing-mode:lr-tb;text-anchor:middle;fill:white;fill-opacity:1;font-family:Sans">sessionServlet</flowPara></flowRoot>    <flowRoot
       transform="matrix(0.974389,0,0,1.116713,-137.644,45.475)"
       style="font-size:10px;font-style:normal;font-variant:normal;font-weight:normal;font-stretch:normal;text-align:center;line-height:125%;writing-mode:lr-tb;text-anchor:middle;font-family:Bitstream Charter"
       id="flowRoot2154"
       xml:space="preserve"
       inkscape:export-filename="/home/pelletib/sb/sb50/jonas_doc/src/resources/images/clustering/sampleCluster2.png"
       inkscape:export-xdpi="100.07"
       inkscape:export-ydpi="100.07"><flowRegion
         id="flowRegion2156"><rect
           style="font-size:10px;font-style:normal;font-variant:normal;font-weight:normal;font-stretch:normal;text-align:center;line-height:125%;writing-mode:lr-tb;text-anchor:middle;font-family:Bitstream Charter"
           y="235.65385"
           x="290.41885"
           height="19.511211"
           width="119.79375"
           id="rect2158" /></flowRegion><flowPara
         style="font-size:14.26243496px;font-style:normal;font-variant:normal;font-weight:bold;font-stretch:normal;text-align:center;line-height:125%;writing-mode:lr-tb;text-anchor:middle;fill:white;fill-opacity:1;font-family:Sans"
         id="flowPara2160">servlet</flowPara></flowRoot>    <rect
       rx="0"
       ry="17.152725"
       y="355.20731"
       x="143.33081"
       height="34.30545"
       width="173.61923"
       id="rect2166"
       style="fill:url(#linearGradient3613);fill-opacity:1;stroke:url(#linearGradient3615);stroke-width:0.63579041;stroke-linejoin:miter;stroke-miterlimit:4;stroke-dasharray:none;stroke-opacity:1"
       inkscape:export-filename="/home/pelletib/sb/sb50/jonas_doc/src/resources/images/clustering/sampleCluster2.png"
       inkscape:export-xdpi="100.07"
       inkscape:export-ydpi="100.07" />
    <flowRoot
       transform="matrix(0.915348,0,0,0.993542,-84.8098,135.3178)"
       style="font-size:10px;font-style:normal;font-variant:normal;font-weight:normal;font-stretch:normal;text-align:center;line-height:125%;writing-mode:lr-tb;text-anchor:middle;font-family:Bitstream Charter"
       id="flowRoot2168"
       xml:space="preserve"
       inkscape:export-filename="/home/pelletib/sb/sb50/jonas_doc/src/resources/images/clustering/sampleCluster2.png"
       inkscape:export-xdpi="100.07"
       inkscape:export-ydpi="100.07"><flowRegion
         id="flowRegion2170"><rect
           style="font-size:10px;font-style:normal;font-variant:normal;font-weight:normal;font-stretch:normal;text-align:center;line-height:125%;writing-mode:lr-tb;text-anchor:middle;font-family:Bitstream Charter"
           y="235.65385"
           x="290.41885"
           height="19.511211"
           width="119.79375"
           id="rect2172" /></flowRegion><flowPara
         style="font-size:14.26243496px;font-style:normal;font-variant:normal;font-weight:normal;font-stretch:normal;text-align:center;line-height:125%;writing-mode:lr-tb;text-anchor:middle;fill:white;fill-opacity:1;font-family:Sans"
         id="flowPara2174">sessionRsp.jsp</flowPara></flowRoot>    <flowRoot
       inkscape:export-ydpi="100.07"
       inkscape:export-xdpi="100.07"
       inkscape:export-filename="/home/pelletib/sb/sb50/jonas_doc/src/resources/images/clustering/sampleCluster2.png"
       xml:space="preserve"
       id="flowRoot2176"
       style="font-size:10px;font-style:normal;font-variant:normal;font-weight:normal;font-stretch:normal;text-align:center;line-height:125%;writing-mode:lr-tb;text-anchor:middle;font-family:Bitstream Charter"
       transform="matrix(0.915348,0,0,0.993542,-86.8098,121.6118)"><flowRegion
         id="flowRegion2178"><rect
           id="rect2180"
           width="119.79375"
           height="19.511211"
           x="290.41885"
           y="235.65385"
           style="font-size:10px;font-style:normal;font-variant:normal;font-weight:normal;font-stretch:normal;text-align:center;line-height:125%;writing-mode:lr-tb;text-anchor:middle;font-family:Bitstream Charter" /></flowRegion><flowPara
         id="flowPara2182"
         style="font-size:14.26243496px;font-style:normal;font-variant:normal;font-weight:bold;font-stretch:normal;text-align:center;line-height:125%;writing-mode:lr-tb;text-anchor:middle;fill:white;fill-opacity:1;font-family:Sans">JSP</flowPara></flowRoot>    <rect
       inkscape:export-ydpi="100.07"
       inkscape:export-xdpi="100.07"
       inkscape:export-filename="/home/pelletib/sb/sb50/jonas_doc/src/resources/images/clustering/sampleCluster2.png"
       style="fill:url(#linearGradient3600);fill-opacity:1;stroke:url(#linearGradient3602);stroke-width:0.5726614;stroke-linejoin:miter;stroke-miterlimit:4;stroke-dasharray:none;stroke-opacity:1"
       id="rect3593"
       width="140.59415"
       height="34.36858"
       x="-345.03351"
       y="557.01654"
       ry="17.18429"
       rx="7.388495" />
    <g
       id="g2316"
       transform="translate(0,94)"
       inkscape:export-filename="/home/pelletib/sb/sb50/jonas_doc/src/resources/images/clustering/sampleCluster2.png"
       inkscape:export-xdpi="100.07"
       inkscape:export-ydpi="100.07">
      <rect
         inkscape:export-ydpi="72.910004"
         inkscape:export-xdpi="72.910004"
         inkscape:export-filename="/home/pelletib/doc/web/demo/clusterdemoarchitecture500.png"
         style="fill:url(#linearGradient2354);fill-opacity:1;stroke:url(#linearGradient2356);stroke-width:0.78017026;stroke-linejoin:miter;stroke-miterlimit:4;stroke-dasharray:none;stroke-opacity:1"
         id="rect2318"
         width="183.33046"
         height="48.918961"
         x="110.93786"
         y="308.06644"
         ry="24.45948"
         rx="84.493332" />
      <flowRoot
         inkscape:export-ydpi="72.910004"
         inkscape:export-xdpi="72.910004"
         inkscape:export-filename="/home/pelletib/doc/web/demo/clusterdemoarchitecture500.png"
         xml:space="preserve"
         id="flowRoot2320"
         style="font-size:10px;font-style:normal;font-variant:normal;font-weight:normal;font-stretch:normal;text-align:center;line-height:125%;writing-mode:lr-tb;text-anchor:middle;font-family:Bitstream Charter"
         transform="matrix(0.974389,0,0,1.116713,-157.644,60.8801)"><flowRegion
           id="flowRegion2322"><rect
             id="rect2324"
             width="164.02614"
             height="18.408497"
             x="290.41885"
             y="235.65385"
             style="font-size:10px;font-style:normal;font-variant:normal;font-weight:normal;font-stretch:normal;text-align:center;line-height:125%;writing-mode:lr-tb;text-anchor:middle;font-family:Bitstream Charter" /></flowRegion><flowPara
           id="flowPara2326"
           style="font-size:14.26243496px;font-style:normal;font-variant:normal;font-weight:normal;font-stretch:normal;text-align:center;line-height:125%;writing-mode:lr-tb;text-anchor:middle;fill:white;fill-opacity:1;font-family:Sans">releaseSessionServlet</flowPara></flowRoot>      <flowRoot
         transform="matrix(0.974389,0,0,1.116713,-137.644,45.475)"
         style="font-size:10px;font-style:normal;font-variant:normal;font-weight:normal;font-stretch:normal;text-align:center;line-height:125%;writing-mode:lr-tb;text-anchor:middle;font-family:Bitstream Charter"
         id="flowRoot2328"
         xml:space="preserve"
         inkscape:export-filename="/home/pelletib/doc/web/demo/clusterdemoarchitecture500.png"
         inkscape:export-xdpi="72.910004"
         inkscape:export-ydpi="72.910004"><flowRegion
           id="flowRegion2330"><rect
             style="font-size:10px;font-style:normal;font-variant:normal;font-weight:normal;font-stretch:normal;text-align:center;line-height:125%;writing-mode:lr-tb;text-anchor:middle;font-family:Bitstream Charter"
             y="235.65385"
             x="290.41885"
             height="19.511211"
             width="119.79375"
             id="rect2332" /></flowRegion><flowPara
           style="font-size:14.26243496px;font-style:normal;font-variant:normal;font-weight:bold;font-stretch:normal;text-align:center;line-height:125%;writing-mode:lr-tb;text-anchor:middle;fill:white;fill-opacity:1;font-family:Sans"
           id="flowPara2334">servlet</flowPara></flowRoot>      <rect
         rx="0"
         ry="17.152725"
         y="355.20731"
         x="143.33081"
         height="34.30545"
         width="173.61923"
         id="rect2336"
         style="fill:url(#linearGradient2358);fill-opacity:1;stroke:url(#linearGradient2360);stroke-width:0.63579041;stroke-linejoin:miter;stroke-miterlimit:4;stroke-dasharray:none;stroke-opacity:1"
         inkscape:export-filename="/home/pelletib/doc/web/demo/clusterdemoarchitecture500.png"
         inkscape:export-xdpi="72.910004"
         inkscape:export-ydpi="72.910004" />
      <flowRoot
         transform="matrix(0.915348,0,0,0.993542,-124.8098,135.3178)"
         style="font-size:10px;font-style:normal;font-variant:normal;font-weight:normal;font-stretch:normal;text-align:center;line-height:125%;writing-mode:lr-tb;text-anchor:middle;font-family:Bitstream Charter"
         id="flowRoot2338"
         xml:space="preserve"
         inkscape:export-filename="/home/pelletib/doc/web/demo/clusterdemoarchitecture500.png"
         inkscape:export-xdpi="72.910004"
         inkscape:export-ydpi="72.910004"><flowRegion
           id="flowRegion2340"><rect
             style="font-size:10px;font-style:normal;font-variant:normal;font-weight:normal;font-stretch:normal;text-align:center;line-height:125%;writing-mode:lr-tb;text-anchor:middle;font-family:Bitstream Charter"
             y="235.65385"
             x="290.41885"
             height="20.750631"
             width="188.40395"
             id="rect2342" /></flowRegion><flowPara
           style="font-size:14.26243496px;font-style:normal;font-variant:normal;font-weight:normal;font-stretch:normal;text-align:center;line-height:125%;writing-mode:lr-tb;text-anchor:middle;fill:white;fill-opacity:1;font-family:Sans"
           id="flowPara2344">releaseSessionRsp.jsp</flowPara></flowRoot>      <flowRoot
         inkscape:export-ydpi="72.910004"
         inkscape:export-xdpi="72.910004"
         inkscape:export-filename="/home/pelletib/doc/web/demo/clusterdemoarchitecture500.png"
         xml:space="preserve"
         id="flowRoot2346"
         style="font-size:10px;font-style:normal;font-variant:normal;font-weight:normal;font-stretch:normal;text-align:center;line-height:125%;writing-mode:lr-tb;text-anchor:middle;font-family:Bitstream Charter"
         transform="matrix(0.915348,0,0,0.993542,-86.8098,121.6118)"><flowRegion
           id="flowRegion2348"><rect
             id="rect2350"
             width="119.79375"
             height="19.511211"
             x="290.41885"
             y="235.65385"
             style="font-size:10px;font-style:normal;font-variant:normal;font-weight:normal;font-stretch:normal;text-align:center;line-height:125%;writing-mode:lr-tb;text-anchor:middle;font-family:Bitstream Charter" /></flowRegion><flowPara
           id="flowPara2352"
           style="font-size:14.26243496px;font-style:normal;font-variant:normal;font-weight:bold;font-stretch:normal;text-align:center;line-height:125%;writing-mode:lr-tb;text-anchor:middle;fill:white;fill-opacity:1;font-family:Sans">JSP</flowPara></flowRoot>    </g>
    <g
       transform="translate(0,188)"
       id="g2362"
       inkscape:export-filename="/home/pelletib/sb/sb50/jonas_doc/src/resources/images/clustering/sampleCluster2.png"
       inkscape:export-xdpi="100.07"
       inkscape:export-ydpi="100.07">
      <rect
         rx="84.493332"
         ry="24.45948"
         y="308.06644"
         x="110.93786"
         height="48.918961"
         width="183.33046"
         id="rect2364"
         style="fill:url(#linearGradient2400);fill-opacity:1;stroke:url(#linearGradient2402);stroke-width:0.78017026;stroke-linejoin:miter;stroke-miterlimit:4;stroke-dasharray:none;stroke-opacity:1"
         inkscape:export-filename="/home/pelletib/doc/web/demo/clusterdemoarchitecture500.png"
         inkscape:export-xdpi="72.910004"
         inkscape:export-ydpi="72.910004" />
      <flowRoot
         transform="matrix(0.974389,0,0,1.116713,-163.644,60.8801)"
         style="font-size:10px;font-style:normal;font-variant:normal;font-weight:normal;font-stretch:normal;text-align:center;line-height:125%;writing-mode:lr-tb;text-anchor:middle;font-family:Bitstream Charter"
         id="flowRoot2366"
         xml:space="preserve"
         inkscape:export-filename="/home/pelletib/doc/web/demo/clusterdemoarchitecture500.png"
         inkscape:export-xdpi="72.910004"
         inkscape:export-ydpi="72.910004"><flowRegion
           id="flowRegion2368"><rect
             style="font-size:10px;font-style:normal;font-variant:normal;font-weight:normal;font-stretch:normal;text-align:center;line-height:125%;writing-mode:lr-tb;text-anchor:middle;font-family:Bitstream Charter"
             y="235.65385"
             x="290.41885"
             height="18.408497"
             width="171.60884"
             id="rect2370" /></flowRegion><flowPara
           style="font-size:14.26243496px;font-style:normal;font-variant:normal;font-weight:normal;font-stretch:normal;text-align:center;line-height:125%;writing-mode:lr-tb;text-anchor:middle;fill:white;fill-opacity:1;font-family:Sans"
           id="flowPara2372">checkSessionServlet</flowPara></flowRoot>      <flowRoot
         inkscape:export-ydpi="72.910004"
         inkscape:export-xdpi="72.910004"
         inkscape:export-filename="/home/pelletib/doc/web/demo/clusterdemoarchitecture500.png"
         xml:space="preserve"
         id="flowRoot2374"
         style="font-size:10px;font-style:normal;font-variant:normal;font-weight:normal;font-stretch:normal;text-align:center;line-height:125%;writing-mode:lr-tb;text-anchor:middle;font-family:Bitstream Charter"
         transform="matrix(0.974389,0,0,1.116713,-137.644,45.475)"><flowRegion
           id="flowRegion2376"><rect
             id="rect2378"
             width="119.79375"
             height="19.511211"
             x="290.41885"
             y="235.65385"
             style="font-size:10px;font-style:normal;font-variant:normal;font-weight:normal;font-stretch:normal;text-align:center;line-height:125%;writing-mode:lr-tb;text-anchor:middle;font-family:Bitstream Charter" /></flowRegion><flowPara
           id="flowPara2380"
           style="font-size:14.26243496px;font-style:normal;font-variant:normal;font-weight:bold;font-stretch:normal;text-align:center;line-height:125%;writing-mode:lr-tb;text-anchor:middle;fill:white;fill-opacity:1;font-family:Sans">servlet</flowPara></flowRoot>      <rect
         inkscape:export-ydpi="72.910004"
         inkscape:export-xdpi="72.910004"
         inkscape:export-filename="/home/pelletib/doc/web/demo/clusterdemoarchitecture500.png"
         style="fill:url(#linearGradient2404);fill-opacity:1;stroke:url(#linearGradient2406);stroke-width:0.63579041;stroke-linejoin:miter;stroke-miterlimit:4;stroke-dasharray:none;stroke-opacity:1"
         id="rect2382"
         width="173.61923"
         height="34.30545"
         x="143.33081"
         y="355.20731"
         ry="17.152725"
         rx="0" />
      <flowRoot
         inkscape:export-ydpi="72.910004"
         inkscape:export-xdpi="72.910004"
         inkscape:export-filename="/home/pelletib/doc/web/demo/clusterdemoarchitecture500.png"
         xml:space="preserve"
         id="flowRoot2384"
         style="font-size:10px;font-style:normal;font-variant:normal;font-weight:normal;font-stretch:normal;text-align:center;line-height:125%;writing-mode:lr-tb;text-anchor:middle;font-family:Bitstream Charter"
         transform="matrix(0.915348,0,0,0.993542,-118.8098,135.3178)"><flowRegion
           id="flowRegion2386"><rect
             id="rect2388"
             width="178.98686"
             height="19.511211"
             x="290.41885"
             y="235.65385"
             style="font-size:10px;font-style:normal;font-variant:normal;font-weight:normal;font-stretch:normal;text-align:center;line-height:125%;writing-mode:lr-tb;text-anchor:middle;font-family:Bitstream Charter" /></flowRegion><flowPara
           id="flowPara2390"
           style="font-size:14.26243496px;font-style:normal;font-variant:normal;font-weight:normal;font-stretch:normal;text-align:center;line-height:125%;writing-mode:lr-tb;text-anchor:middle;fill:white;fill-opacity:1;font-family:Sans">checkSessionRsp.jsp</flowPara></flowRoot>      <flowRoot
         transform="matrix(0.915348,0,0,0.993542,-86.8098,121.6118)"
         style="font-size:10px;font-style:normal;font-variant:normal;font-weight:normal;font-stretch:normal;text-align:center;line-height:125%;writing-mode:lr-tb;text-anchor:middle;font-family:Bitstream Charter"
         id="flowRoot2392"
         xml:space="preserve"
         inkscape:export-filename="/home/pelletib/doc/web/demo/clusterdemoarchitecture500.png"
         inkscape:export-xdpi="72.910004"
         inkscape:export-ydpi="72.910004"><flowRegion
           id="flowRegion2394"><rect
             style="font-size:10px;font-style:normal;font-variant:normal;font-weight:normal;font-stretch:normal;text-align:center;line-height:125%;writing-mode:lr-tb;text-anchor:middle;font-family:Bitstream Charter"
             y="235.65385"
             x="290.41885"
             height="19.511211"
             width="119.79375"
             id="rect2396" /></flowRegion><flowPara
           style="font-size:14.26243496px;font-style:normal;font-variant:normal;font-weight:bold;font-stretch:normal;text-align:center;line-height:125%;writing-mode:lr-tb;text-anchor:middle;fill:white;fill-opacity:1;font-family:Sans"
           id="flowPara2398">JSP</flowPara></flowRoot>    </g>
    <path
       style="fill:none;fill-rule:evenodd;stroke:black;stroke-width:1px;stroke-linecap:butt;stroke-linejoin:miter;marker-end:url(#Arrow2Lend);stroke-opacity:1"
       d="M 291.84556,331.9839 C 396.51591,351.99441 405.75153,353.84153 405.75153,353.84153"
       id="path2427"
       sodipodi:nodetypes="cc"
       inkscape:export-filename="/home/pelletib/sb/sb50/jonas_doc/src/resources/images/clustering/sampleCluster2.png"
       inkscape:export-xdpi="100.07"
       inkscape:export-ydpi="100.07" />
    <path
       sodipodi:nodetypes="cc"
       id="path3314"
       d="M 291.84556,331.9839 C 396.51591,351.99441 429.77164,484.17974 429.77164,484.17974"
       style="fill:none;fill-rule:evenodd;stroke:black;stroke-width:1px;stroke-linecap:butt;stroke-linejoin:miter;marker-end:url(#Arrow2Lend);stroke-opacity:1"
       inkscape:export-filename="/home/pelletib/sb/sb50/jonas_doc/src/resources/images/clustering/sampleCluster2.png"
       inkscape:export-xdpi="100.07"
       inkscape:export-ydpi="100.07" />
    <path
       sodipodi:nodetypes="cc"
       id="path3316"
       d="M 502.41768,359.94579 C 539.69585,360.20742 554.35885,359.91394 558.22301,359.63793"
       style="fill:none;fill-rule:evenodd;stroke:black;stroke-width:1px;stroke-linecap:butt;stroke-linejoin:miter;marker-end:url(#Arrow2Lend);stroke-opacity:1"
       inkscape:export-filename="/home/pelletib/sb/sb50/jonas_doc/src/resources/images/clustering/sampleCluster2.png"
       inkscape:export-xdpi="100.07"
       inkscape:export-ydpi="100.07" />
    <flowRoot
       inkscape:export-ydpi="100.07"
       inkscape:export-xdpi="100.07"
       inkscape:export-filename="/home/pelletib/sb/sb50/jonas_doc/src/resources/images/clustering/sampleCluster2.png"
       xml:space="preserve"
       id="flowRoot3340"
       style="font-size:10px;font-style:normal;font-variant:normal;font-weight:normal;font-stretch:normal;text-align:center;line-height:125%;writing-mode:lr-tb;text-anchor:middle;font-family:Bitstream Charter"
       transform="matrix(0.974356,0,0,1.449797,112.3677,-4.135814)"><flowRegion
         id="flowRegion3342"><rect
           id="rect3344"
           width="119.79375"
           height="19.511211"
           x="290.41885"
           y="235.65385"
           style="font-size:10px;font-style:normal;font-variant:normal;font-weight:normal;font-stretch:normal;text-align:center;line-height:125%;writing-mode:lr-tb;text-anchor:middle;font-family:Bitstream Charter" /></flowRegion><flowPara
         id="flowPara3346"
         style="font-size:14.26243496px;font-style:normal;font-variant:normal;font-weight:normal;font-stretch:normal;text-align:center;line-height:125%;writing-mode:lr-tb;text-anchor:middle;fill:white;fill-opacity:1;font-family:Sans">myEjb1</flowPara></flowRoot>    <path
       sodipodi:type="star"
       style="fill:url(#linearGradient3330);fill-opacity:1;stroke:black;stroke-width:0.99984568;stroke-miterlimit:4;stroke-dasharray:none;stroke-opacity:1;display:inline"
       id="path3320"
       sodipodi:sides="5"
       sodipodi:cx="-134.09435"
       sodipodi:cy="352.28522"
       sodipodi:r1="66.199333"
       sodipodi:r2="81.553368"
       sodipodi:arg1="-0.46364766"
       sodipodi:arg2="0.30899224"
       inkscape:flatsided="false"
       inkscape:rounded="0"
       inkscape:randomized="0"
       d="M -74.883863,322.67997 L -56.403303,377.0855 L -87.641039,399.44921 L -133.67296,433.8375 L -164.59511,411.03941 L -211.52496,377.88702 L -199.39816,341.43332 L -182.37048,286.55572 L -143.95356,286.82418 L -86.500027,286.06035 L -74.883863,322.67997 z "
       transform="matrix(0.471257,0,0,-0.441565,109.5698,501.3419)"
       inkscape:export-filename="/home/pelletib/sb/sb50/jonas_doc/src/resources/images/clustering/sampleCluster2.png"
       inkscape:export-xdpi="100.07"
       inkscape:export-ydpi="100.07" />
    <flowRoot
       transform="matrix(0.509226,0,0,0.83897,-138.2044,118.8682)"
       style="font-size:27.53873634px;font-style:normal;font-variant:normal;font-weight:bold;font-stretch:normal;text-align:center;line-height:125%;writing-mode:lr-tb;text-anchor:middle;font-family:Bitstream Charter"
       id="flowRoot3332"
       xml:space="preserve"
       inkscape:export-filename="/home/pelletib/sb/sb50/jonas_doc/src/resources/images/clustering/sampleCluster2.png"
       inkscape:export-xdpi="100.07"
       inkscape:export-ydpi="100.07"><flowRegion
         id="flowRegion3334"><rect
           style="font-size:27.53873634px;font-style:normal;font-variant:normal;font-weight:bold;font-stretch:normal;text-align:center;line-height:125%;writing-mode:lr-tb;text-anchor:middle;font-family:Bitstream Charter"
           y="235.65385"
           x="290.41885"
           height="34.188923"
           width="146.39407"
           id="rect3336" /></flowRegion><flowPara
         style="font-size:27.53873634px;font-style:normal;font-variant:normal;font-weight:bold;font-stretch:normal;text-align:center;line-height:125%;writing-mode:lr-tb;text-anchor:middle;fill:white;fill-opacity:1;font-family:Bitstream Charter"
         id="flowPara3338">session</flowPara></flowRoot>    <flowRoot
       transform="matrix(0.680532,0,0,0.85039,-193.0934,142.8152)"
       style="font-size:10px;font-style:normal;font-variant:normal;font-weight:normal;font-stretch:normal;text-align:center;line-height:125%;writing-mode:lr-tb;text-anchor:middle;font-family:Bitstream Charter"
       id="flowRoot3348"
       xml:space="preserve"
       inkscape:export-filename="/home/pelletib/sb/sb50/jonas_doc/src/resources/images/clustering/sampleCluster2.png"
       inkscape:export-xdpi="100.07"
       inkscape:export-ydpi="100.07"><flowRegion
         id="flowRegion3350"><rect
           style="font-size:10px;font-style:normal;font-variant:normal;font-weight:normal;font-stretch:normal;text-align:center;line-height:125%;writing-mode:lr-tb;text-anchor:middle;font-family:Bitstream Charter"
           y="235.65385"
           x="290.41885"
           height="19.511211"
           width="119.79375"
           id="rect3352" /></flowRegion><flowPara
         style="font-size:14.26243496px;font-style:normal;font-variant:normal;font-weight:normal;font-stretch:normal;text-align:center;line-height:125%;writing-mode:lr-tb;text-anchor:middle;fill:white;fill-opacity:1;font-family:Sans"
         id="flowPara3354">myStateFul</flowPara></flowRoot>    <path
       sodipodi:nodetypes="cc"
       id="path3368"
       d="M 83.458817,335.67594 C 99.213908,334.11506 93.231943,334.33372 110.72178,332.64922"
       style="fill:none;fill-rule:evenodd;stroke:black;stroke-width:1px;stroke-linecap:butt;stroke-linejoin:miter;marker-start:url(#DiamondM);marker-end:url(#DiamondM);stroke-opacity:1"
       inkscape:export-filename="/home/pelletib/sb/sb50/jonas_doc/src/resources/images/clustering/sampleCluster2.png"
       inkscape:export-xdpi="100.07"
       inkscape:export-ydpi="100.07" />
    <path
       style="fill:none;fill-rule:evenodd;stroke:black;stroke-width:1px;stroke-linecap:butt;stroke-linejoin:miter;marker-start:url(#DiamondM);marker-end:url(#DiamondM);stroke-opacity:1"
       d="M 83.56766,335.45826 C 87.622583,348.34922 111.44313,422.80082 111.44313,422.80082"
       id="path3550"
       sodipodi:nodetypes="cc"
       inkscape:export-filename="/home/pelletib/sb/sb50/jonas_doc/src/resources/images/clustering/sampleCluster2.png"
       inkscape:export-xdpi="100.07"
       inkscape:export-ydpi="100.07" />
    <path
       sodipodi:nodetypes="cc"
       id="path3552"
       d="M 83.349974,335.67595 C 86.098784,354.44442 111.44313,518.85126 111.44313,518.85126"
       style="fill:none;fill-rule:evenodd;stroke:black;stroke-width:1px;stroke-linecap:butt;stroke-linejoin:miter;marker-start:url(#DiamondM);marker-end:url(#DiamondM);stroke-opacity:1"
       inkscape:export-filename="/home/pelletib/sb/sb50/jonas_doc/src/resources/images/clustering/sampleCluster2.png"
       inkscape:export-xdpi="100.07"
       inkscape:export-ydpi="100.07" />
    <flowRoot
       transform="matrix(0.915348,0,0,0.993542,-597.3198,329.821)"
       style="font-size:10px;font-style:normal;font-variant:normal;font-weight:normal;font-stretch:normal;text-align:center;line-height:125%;writing-mode:lr-tb;text-anchor:middle;font-family:Bitstream Charter"
       id="flowRoot3630"
       xml:space="preserve"
       inkscape:export-filename="/home/pelletib/sb/sb50/jonas_doc/src/resources/images/clustering/sampleCluster2.png"
       inkscape:export-xdpi="100.07"
       inkscape:export-ydpi="100.07"><flowRegion
         id="flowRegion3632"><rect
           style="font-size:10px;font-style:normal;font-variant:normal;font-weight:normal;font-stretch:normal;text-align:center;line-height:125%;writing-mode:lr-tb;text-anchor:middle;font-family:Bitstream Charter"
           y="235.65385"
           x="290.41885"
           height="19.511211"
           width="119.79375"
           id="rect3634" /></flowRegion><flowPara
         style="font-size:14.26243496px;font-style:normal;font-variant:normal;font-weight:bold;font-stretch:normal;text-align:center;line-height:125%;writing-mode:lr-tb;text-anchor:middle;fill:white;fill-opacity:1;font-family:Sans"
         id="flowPara3636">clientSFSBFO</flowPara></flowRoot>    <rect
       rx="6.7727871"
       ry="17.18605"
       y="603.16418"
       x="-345.03528"
       height="34.372101"
       width="138.85619"
       id="rect3638"
       style="fill:url(#linearGradient3648);fill-opacity:1;stroke:url(#linearGradient3650);stroke-width:0.56914008;stroke-linejoin:miter;stroke-miterlimit:4;stroke-dasharray:none;stroke-opacity:1"
       inkscape:export-filename="/home/pelletib/sb/sb50/jonas_doc/src/resources/images/clustering/sampleCluster2.png"
       inkscape:export-xdpi="100.07"
       inkscape:export-ydpi="100.07" />
    <flowRoot
       inkscape:export-ydpi="100.07"
       inkscape:export-xdpi="100.07"
       inkscape:export-filename="/home/pelletib/sb/sb50/jonas_doc/src/resources/images/clustering/sampleCluster2.png"
       xml:space="preserve"
       id="flowRoot3640"
       style="font-size:10px;font-style:normal;font-variant:normal;font-weight:normal;font-stretch:normal;text-align:center;line-height:125%;writing-mode:lr-tb;text-anchor:middle;font-family:Bitstream Charter"
       transform="matrix(0.915348,0,0,0.993542,-619.3198,375.9704)"><flowRegion
         id="flowRegion3642"><rect
           id="rect3644"
           width="174.0161"
           height="23.016821"
           x="290.41885"
           y="235.65385"
           style="font-size:10px;font-style:normal;font-variant:normal;font-weight:normal;font-stretch:normal;text-align:center;line-height:125%;writing-mode:lr-tb;text-anchor:middle;font-family:Bitstream Charter" /></flowRegion><flowPara
         id="flowPara3646"
         style="font-size:14.26243496px;font-style:normal;font-variant:normal;font-weight:bold;font-stretch:normal;text-align:center;line-height:125%;writing-mode:lr-tb;text-anchor:middle;fill:white;fill-opacity:1;font-family:Sans">clientLBRemote</flowPara></flowRoot>    <path
       style="fill:none;fill-rule:evenodd;stroke:black;stroke-width:1px;stroke-linecap:butt;stroke-linejoin:miter;marker-end:url(#Arrow2Lend);stroke-opacity:1"
       d="M -172.69336,563.29126 C -63.231255,476.76613 -87.934607,312.78095 -7.3727381,296.55419 C 147.70422,282.22515 306.04898,277.44091 384.56726,317.09326 C 402.94573,328.83039 401.95795,336.86411 408.58785,349.47502"
       id="path3652"
       sodipodi:nodetypes="cccc"
       inkscape:export-filename="/home/pelletib/sb/sb50/jonas_doc/src/resources/images/clustering/sampleCluster2.png"
       inkscape:export-xdpi="100.07"
       inkscape:export-ydpi="100.07" />
    <g
       id="g3681"
       transform="matrix(0.67939,0,0,0.831603,90.8604,-55.22126)"
       inkscape:export-filename="/home/pelletib/sb/sb50/jonas_doc/src/resources/images/clustering/sampleCluster2.png"
       inkscape:export-xdpi="100.07"
       inkscape:export-ydpi="100.07">
      <rect
         rx="0.18264976"
         y="719.14301"
         x="-152.73245"
         height="92.846046"
         width="115.78028"
         id="rect3654"
         style="fill:url(#linearGradient3688);fill-opacity:1;stroke:#65a8cb;stroke-width:2.28410387;stroke-linejoin:miter;stroke-miterlimit:4;stroke-dasharray:none;stroke-opacity:1" />
      <flowRoot
         transform="matrix(1.132135,0,0,1.866149,-488.4727,305.7152)"
         style="font-size:10px;font-style:normal;font-variant:normal;font-weight:normal;font-stretch:normal;text-align:center;line-height:125%;writing-mode:lr-tb;text-anchor:middle;font-family:Bitstream Charter"
         id="flowRoot3673"
         xml:space="preserve"
         inkscape:export-filename="/home/pelletib/doc/web/demo/clusterdemoarchitecture500.png"
         inkscape:export-xdpi="72.910004"
         inkscape:export-ydpi="72.910004"><flowRegion
           id="flowRegion3675"><rect
             style="font-size:10px;font-style:normal;font-variant:normal;font-weight:normal;font-stretch:normal;text-align:center;line-height:125%;writing-mode:lr-tb;text-anchor:middle;font-family:Bitstream Charter"
             y="235.65385"
             x="290.41885"
             height="19.511211"
             width="119.79375"
             id="rect3677" /></flowRegion><flowPara
           style="font-size:14.26243496px;font-style:normal;font-variant:normal;font-weight:bold;font-stretch:normal;text-align:center;line-height:125%;writing-mode:lr-tb;text-anchor:middle;fill:white;fill-opacity:1;font-family:Sans"
           id="flowPara3679">index.html</flowPara></flowRoot>      <g
         id="g3728"
         transform="translate(1533.402,-250.2508)">
        <rect
           ry="32.577019"
           rx="63.438625"
           y="830.13745"
           x="-613.17969"
           height="108.09649"
           width="126.87725"
           id="rect3714"
           style="fill:url(#linearGradient3732);fill-opacity:1;stroke:#65a8cb;stroke-width:2.9188993;stroke-linejoin:miter;stroke-miterlimit:4;stroke-dasharray:none;stroke-opacity:1" />
        <path
           sodipodi:open="true"
           sodipodi:end="2.588628"
           sodipodi:start="0.48686377"
           transform="matrix(1.483629,0,0,0.560524,-154.976,635.2762)"
           d="M -224.99182,396.12394 A 47.890839,58.339748 0 0 1 -308.07169,399.47007"
           sodipodi:ry="58.339748"
           sodipodi:rx="47.890839"
           sodipodi:cy="368.82932"
           sodipodi:cx="-267.31796"
           id="path3716"
           style="fill:none;fill-opacity:1;stroke:#559fc7;stroke-width:2.19400001;stroke-linejoin:miter;stroke-miterlimit:4;stroke-dasharray:none;stroke-opacity:1"
           sodipodi:type="arc" />
      </g>
    </g>
    <flowRoot
       inkscape:export-ydpi="100.07"
       inkscape:export-xdpi="100.07"
       inkscape:export-filename="/home/pelletib/sb/sb50/jonas_doc/src/resources/images/clustering/sampleCluster2.png"
       xml:space="preserve"
       id="flowRoot3734"
       style="font-size:10px;font-style:normal;font-variant:normal;font-weight:normal;font-stretch:normal;text-align:center;line-height:125%;writing-mode:lr-tb;text-anchor:middle;font-family:Bitstream Charter"
       transform="matrix(0.974389,0,0,1.116713,421.4188,203.0962)"><flowRegion
         id="flowRegion3736"><rect
           id="rect3738"
           width="119.79375"
           height="19.511211"
           x="290.41885"
           y="235.65385"
           style="font-size:10px;font-style:normal;font-variant:normal;font-weight:normal;font-stretch:normal;text-align:center;line-height:125%;writing-mode:lr-tb;text-anchor:middle;font-family:Bitstream Charter" /></flowRegion><flowPara
         id="flowPara3740"
         style="font-size:14.26243496px;font-style:normal;font-variant:normal;font-weight:bold;font-stretch:normal;text-align:center;line-height:125%;writing-mode:lr-tb;text-anchor:middle;fill:white;fill-opacity:1;font-family:Sans">jdbc_1</flowPara></flowRoot>    <path
       style="fill:none;fill-rule:evenodd;stroke:black;stroke-width:1px;stroke-linecap:butt;stroke-linejoin:miter;marker-start:url(#DiamondM);marker-end:url(#DiamondM);stroke-opacity:1"
       d="M 661.905,364.98239 C 677.66009,363.42151 697.52724,457.97916 715.01708,456.29466"
       id="path3742"
       sodipodi:nodetypes="cc"
       inkscape:export-filename="/home/pelletib/sb/sb50/jonas_doc/src/resources/images/clustering/sampleCluster2.png"
       inkscape:export-xdpi="100.07"
       inkscape:export-ydpi="100.07" />
  </g>
</svg>
