<?xml version="1.0" encoding="UTF-8" standalone="no"?>
<!-- Created with Inkscape (http://www.inkscape.org/) -->
<svg
   xmlns:dc="http://purl.org/dc/elements/1.1/"
   xmlns:cc="http://creativecommons.org/ns#"
   xmlns:rdf="http://www.w3.org/1999/02/22-rdf-syntax-ns#"
   xmlns:svg="http://www.w3.org/2000/svg"
   xmlns="http://www.w3.org/2000/svg"
   xmlns:xlink="http://www.w3.org/1999/xlink"
   xmlns:sodipodi="http://sodipodi.sourceforge.net/DTD/sodipodi-0.dtd"
   xmlns:inkscape="http://www.inkscape.org/namespaces/inkscape"
   id="svg2440"
   sodipodi:version="0.32"
   inkscape:version="0.46"
   width="1278"
   height="550"
   version="1.0"
   sodipodi:docname="screenshot_jonasadmin_cmi_mbeans_attr.svg"
   inkscape:output_extension="org.inkscape.output.svg.inkscape">
  <metadata
     id="metadata2445">
    <rdf:RDF>
      <cc:Work
         rdf:about="">
        <dc:format>image/svg+xml</dc:format>
        <dc:type
           rdf:resource="http://purl.org/dc/dcmitype/StillImage" />
      </cc:Work>
    </rdf:RDF>
  </metadata>
  <defs
     id="defs2443">
    <inkscape:perspective
       sodipodi:type="inkscape:persp3d"
       inkscape:vp_x="0 : 526.18109 : 1"
       inkscape:vp_y="0 : 1000 : 0"
       inkscape:vp_z="744.09448 : 526.18109 : 1"
       inkscape:persp3d-origin="372.04724 : 350.78739 : 1"
       id="perspective2447" />
  </defs>
  <sodipodi:namedview
     inkscape:window-height="728"
     inkscape:window-width="1280"
     inkscape:pageshadow="2"
     inkscape:pageopacity="0.0"
     guidetolerance="10.0"
     gridtolerance="10.0"
     objecttolerance="10.0"
     borderopacity="1.0"
     bordercolor="#666666"
     pagecolor="#ffffff"
     id="base"
     showgrid="false"
     inkscape:zoom="0.59662135"
     inkscape:cx="647.68369"
     inkscape:cy="329.86548"
     inkscape:window-x="0"
     inkscape:window-y="25"
     inkscape:current-layer="g3245" />
  <g
     id="g3245"
     transform="translate(3.1319144,135.91092)"
     inkscape:export-filename="/home/pelletib/sb/sb50/jonas_doc/src/resources/images/clustering/screenshot_jonasadmin_cmi_cluster_tab.png"
     inkscape:export-xdpi="148.8"
     inkscape:export-ydpi="148.8">
    <image
       xlink:href="sc/jonasadmin_cmi_mbeans_attr.png"
       sodipodi:absref="/home/pelletib/sb/sb50/jonas_doc/src/resources/images/clustering/sc/jonasadmin_cmi_mbeans_attr.png"
       width="1278"
       height="550"
       id="image6803"
       x="-3.1319144"
       y="-135.91092"
       inkscape:export-filename="/home/pelletib/sb/sb50/jonas_doc/src/resources/images/clustering/screenshot_jonasadmin_cmi_mbeans_attr.png"
       inkscape:export-xdpi="100.07"
       inkscape:export-ydpi="100.07" />
  </g>
</svg>
